pipeline.vcd
$date
	Mon Mar 09 23:51:38 2026
$end
$version
	Icarus Verilog
$end
$timescale
	1ps
$end
$scope module tb_pipeline $end
$var wire 32 ! pc [31:0] $end
$var reg 1 " clk $end
$var reg 1 # rst_n $end
$var integer 32 $ cycle [31:0] $end
$scope module uut $end
$var wire 1 % branch_taken $end
$var wire 1 " clk $end
$var wire 32 & ex_mem_alu_result [31:0] $end
$var wire 1 ' ex_mem_branch_taken $end
$var wire 3 ( ex_mem_funct3 [2:0] $end
$var wire 1 ) ex_mem_jump_taken $end
$var wire 1 * ex_mem_mem_to_reg $end
$var wire 1 + ex_mem_mem_write $end
$var wire 32 , ex_mem_pc_plus4 [31:0] $end
$var wire 5 - ex_mem_rd_addr [4:0] $end
$var wire 1 . ex_mem_reg_write $end
$var wire 32 / ex_mem_rs2_data [31:0] $end
$var wire 1 0 flush_if_id $end
$var wire 2 1 id_ex_alu_a_sel [1:0] $end
$var wire 4 2 id_ex_alu_ctrl [3:0] $end
$var wire 1 3 id_ex_enable $end
$var wire 3 4 id_ex_funct3 [2:0] $end
$var wire 1 5 id_ex_mem_to_reg $end
$var wire 1 6 id_ex_mem_write $end
$var wire 5 7 id_ex_rd_addr [4:0] $end
$var wire 1 8 id_ex_reg_write $end
$var wire 5 9 id_ex_rs1_addr [4:0] $end
$var wire 5 : id_ex_rs2_addr [4:0] $end
$var wire 32 ; if_id_instr [31:0] $end
$var wire 32 < if_id_pc_plus4 [31:0] $end
$var wire 32 = jalr_target [31:0] $end
$var wire 1 > jump_taken $end
$var wire 32 ? mem_wb_alu_result [31:0] $end
$var wire 32 @ mem_wb_mem_rdata [31:0] $end
$var wire 1 A mem_wb_mem_to_reg $end
$var wire 5 B mem_wb_rd_addr [4:0] $end
$var wire 1 C mem_wb_reg_write $end
$var wire 32 D next_pc [31:0] $end
$var wire 1 # rst_n $end
$var wire 1 E zero $end
$var wire 32 F write_data [31:0] $end
$var wire 2 G wb_sel [1:0] $end
$var wire 32 H target [31:0] $end
$var wire 1 I stall_pc $end
$var wire 1 J stall_if_id $end
$var wire 32 K rs2_data [31:0] $end
$var wire 32 L rs1_data [31:0] $end
$var wire 1 M reg_write $end
$var wire 32 N pc_plus4 [31:0] $end
$var wire 32 O pc [31:0] $end
$var wire 1 P mem_write $end
$var wire 32 Q mem_rdata [31:0] $end
$var wire 32 R jump_target [31:0] $end
$var wire 1 S jalr $end
$var wire 32 T jal_target [31:0] $end
$var wire 1 U jal $end
$var wire 32 V instr [31:0] $end
$var wire 3 W imm_sel [2:0] $end
$var wire 32 X imm [31:0] $end
$var wire 32 Y id_ex_rs2_data [31:0] $end
$var wire 32 Z id_ex_rs1_data [31:0] $end
$var wire 32 [ id_ex_pc_plus4 [31:0] $end
$var wire 1 \ id_ex_jalr $end
$var wire 1 ] id_ex_jal $end
$var wire 32 ^ id_ex_imm [31:0] $end
$var wire 1 _ id_ex_branch $end
$var wire 1 ` id_ex_alu_src $end
$var wire 3 a funct3 [2:0] $end
$var wire 2 b forward_b [1:0] $end
$var wire 2 c forward_a [1:0] $end
$var wire 1 d flush_id_ex $end
$var wire 32 e ex_mem_jump_target [31:0] $end
$var wire 32 f ex_mem_branch_target [31:0] $end
$var wire 32 g branch_target [31:0] $end
$var wire 1 h branch $end
$var wire 1 i br_taken $end
$var wire 32 j alu_src2_rs2 [31:0] $end
$var wire 32 k alu_src2 [31:0] $end
$var wire 32 l alu_src1 [31:0] $end
$var wire 1 m alu_src $end
$var wire 32 n alu_result [31:0] $end
$var wire 2 o alu_op [1:0] $end
$var wire 4 p alu_ctrl [3:0] $end
$var wire 2 q alu_a_sel [1:0] $end
$var reg 32 r ex_mem_alu_result_reg [31:0] $end
$var reg 1 s ex_mem_branch_taken_reg $end
$var reg 32 t ex_mem_branch_target_reg [31:0] $end
$var reg 3 u ex_mem_funct3_reg [2:0] $end
$var reg 1 v ex_mem_jump_taken_reg $end
$var reg 32 w ex_mem_jump_target_reg [31:0] $end
$var reg 1 x ex_mem_mem_to_reg_reg $end
$var reg 1 y ex_mem_mem_write_reg $end
$var reg 32 z ex_mem_pc_plus4_reg [31:0] $end
$var reg 5 { ex_mem_rd_addr_reg [4:0] $end
$var reg 1 | ex_mem_reg_write_reg $end
$var reg 32 } ex_mem_rs2_data_reg [31:0] $end
$var reg 2 ~ id_ex_alu_a_sel_reg [1:0] $end
$var reg 4 !" id_ex_alu_ctrl_reg [3:0] $end
$var reg 1 ` id_ex_alu_src_reg $end
$var reg 1 _ id_ex_branch_reg $end
$var reg 3 "" id_ex_funct3_reg [2:0] $end
$var reg 32 #" id_ex_imm_reg [31:0] $end
$var reg 1 ] id_ex_jal_reg $end
$var reg 1 \ id_ex_jalr_reg $end
$var reg 1 $" id_ex_mem_to_reg_reg $end
$var reg 1 %" id_ex_mem_write_reg $end
$var reg 32 &" id_ex_pc_plus4_reg [31:0] $end
$var reg 5 '" id_ex_rd_addr_reg [4:0] $end
$var reg 1 (" id_ex_reg_write_reg $end
$var reg 5 )" id_ex_rs1_addr_reg [4:0] $end
$var reg 32 *" id_ex_rs1_data_reg [31:0] $end
$var reg 5 +" id_ex_rs2_addr_reg [4:0] $end
$var reg 32 ," id_ex_rs2_data_reg [31:0] $end
$var reg 32 -" if_id_instr_reg [31:0] $end
$var reg 32 ." if_id_pc_plus4_reg [31:0] $end
$var reg 32 /" mem_wb_alu_result_reg [31:0] $end
$var reg 32 0" mem_wb_mem_rdata_reg [31:0] $end
$var reg 1 1" mem_wb_mem_to_reg_reg $end
$var reg 5 2" mem_wb_rd_addr_reg [4:0] $end
$var reg 1 3" mem_wb_reg_write_reg $end
$scope module alu_ctrl_inst $end
$var wire 3 4" funct3 [2:0] $end
$var wire 7 5" funct7 [6:0] $end
$var wire 2 6" alu_op [1:0] $end
$var reg 4 7" alu_ctrl [3:0] $end
$upscope $end
$scope module alu_inst $end
$var wire 32 8" a [31:0] $end
$var wire 4 9" alu_ctrl [3:0] $end
$var wire 32 :" b [31:0] $end
$var wire 1 E zero $end
$var reg 32 ;" result [31:0] $end
$upscope $end
$scope module br_comp $end
$var wire 3 <" funct3 [2:0] $end
$var wire 32 =" rs1_data [31:0] $end
$var wire 32 >" rs2_data [31:0] $end
$var reg 1 i br_taken $end
$upscope $end
$scope module ctrl_inst $end
$var wire 3 ?" funct3 [2:0] $end
$var wire 7 @" funct7 [6:0] $end
$var wire 7 A" opcode [6:0] $end
$var reg 2 B" alu_a_sel [1:0] $end
$var reg 2 C" alu_op [1:0] $end
$var reg 1 m alu_src $end
$var reg 1 h branch $end
$var reg 3 D" imm_sel [2:0] $end
$var reg 1 U jal $end
$var reg 1 S jalr $end
$var reg 1 E" mem_read $end
$var reg 1 P mem_write $end
$var reg 1 M reg_write $end
$var reg 2 F" wb_sel [1:0] $end
$upscope $end
$scope module dmem_inst $end
$var wire 32 G" addr [31:0] $end
$var wire 1 " clk $end
$var wire 3 H" funct3 [2:0] $end
$var wire 32 I" wdata [31:0] $end
$var wire 1 + we $end
$var reg 32 J" rdata [31:0] $end
$upscope $end
$scope module fwd_unit $end
$var wire 5 K" ex_mem_rd [4:0] $end
$var wire 1 | ex_mem_reg_write $end
$var wire 5 L" id_ex_rs1 [4:0] $end
$var wire 5 M" id_ex_rs2 [4:0] $end
$var wire 5 N" mem_wb_rd [4:0] $end
$var wire 1 3" mem_wb_reg_write $end
$var reg 2 O" forward_a [1:0] $end
$var reg 2 P" forward_b [1:0] $end
$upscope $end
$scope module hazard $end
$var wire 1 s branch_taken $end
$var wire 1 5 id_ex_mem_read $end
$var wire 5 Q" id_ex_rd [4:0] $end
$var wire 5 R" if_id_rs1 [4:0] $end
$var wire 5 S" if_id_rs2 [4:0] $end
$var wire 1 v jump_taken $end
$var reg 1 d flush_id_ex $end
$var reg 1 T" flush_if_id $end
$var reg 1 J stall_if_id $end
$var reg 1 I stall_pc $end
$upscope $end
$scope module imem_inst $end
$var wire 32 U" addr [31:0] $end
$var reg 32 V" instr [31:0] $end
$upscope $end
$scope module imm_inst $end
$var wire 3 W" immsel [2:0] $end
$var wire 32 X" instr [31:0] $end
$var reg 32 Y" imm [31:0] $end
$upscope $end
$scope module pc_inst $end
$var wire 1 " clk $end
$var wire 32 Z" next_pc [31:0] $end
$var wire 1 # rst_n $end
$var wire 1 I stall $end
$var reg 32 [" pc [31:0] $end
$upscope $end
$scope module reg_inst $end
$var wire 1 " clk $end
$var wire 5 \" rd_addr [4:0] $end
$var wire 32 ]" rd_data [31:0] $end
$var wire 5 ^" rs1_addr [4:0] $end
$var wire 5 _" rs2_addr [4:0] $end
$var wire 1 3" we $end
$var wire 32 `" rs2_data [31:0] $end
$var wire 32 a" rs1_data [31:0] $end
$var integer 32 b" i [31:0] $end
$upscope $end
$upscope $end
$upscope $end
$enddefinitions $end
$comment Show the parameter values. $end
$dumpall
$end
#0
$dumpvars
b100000 b"
b0 a"
b0 `"
b0 _"
b0 ^"
b0 ]"
b0 \"
b0 ["
b100 Z"
b0 Y"
b10011 X"
b0 W"
b101000000000000010010011 V"
b0 U"
0T"
b0 S"
b0 R"
b0 Q"
b0 P"
b0 O"
b0 N"
b0 M"
b0 L"
b0 K"
bx J"
b0 I"
b0 H"
b0 G"
b0 F"
0E"
b0 D"
b11 C"
b0 B"
b10011 A"
b0 @"
b0 ?"
b0 >"
b0 ="
b0 <"
b0 ;"
b0 :"
b0 9"
b0 8"
b0 7"
b11 6"
b0 5"
b0 4"
03"
b0 2"
01"
b0 0"
b0 /"
b0 ."
b10011 -"
b0 ,"
b0 +"
b0 *"
b0 )"
0("
b0 '"
b0 &"
0%"
0$"
b0 #"
b0 ""
b0 !"
b0 ~
b0 }
0|
b0 {
b0 z
0y
0x
b0 w
0v
b0 u
b0 t
0s
b0 r
b0 q
b0 p
b11 o
b0 n
1m
b0 l
b0 k
b0 j
1i
0h
b0 g
b0 f
b0 e
0d
b0 c
b0 b
b0 a
0`
0_
b0 ^
0]
0\
b0 [
b0 Z
b0 Y
b0 X
b0 W
b101000000000000010010011 V
0U
b0 T
0S
b0 R
bx Q
0P
b0 O
b100 N
1M
b0 L
b0 K
0J
0I
b100 H
b0 G
b0 F
1E
b100 D
0C
b0 B
0A
b0 @
b0 ?
0>
b0 =
b0 <
b10011 ;
b0 :
b0 9
08
b0 7
06
05
b0 4
13
b0 2
b0 1
00
b0 /
0.
b0 -
b0 ,
0+
0*
0)
b0 (
0'
b0 &
0%
b0 $
0#
0"
b0 !
$end
#5000
b1 $
1"
#10000
0"
#15000
b1000 D
b1000 Z"
b1000 H
b1010000000000000100010011 V
b1010000000000000100010011 V"
b1010 _"
b1010 S"
b1010 X
b1010 Y"
b1000 N
b100 !
b100 O
b100 U"
b100 ["
b101000000000000010010011 ;
b101000000000000010010011 X"
b101000000000000010010011 -"
b100 <
b100 ."
18
1("
1`
bx @
bx 0"
b10 $
1"
1#
#20000
0"
#25000
0E
b1010 n
b1010 ;"
b1100 D
b1100 Z"
b1100 H
b1010 k
b1010 :"
b1010 =
b1110 R
b10100 _"
b10100 S"
b10100 X
b10100 Y"
b1111000000000000110010011 V
b1111000000000000110010011 V"
1.
1|
b1 7
b1 Q"
b1 '"
b1010 :
b1010 M"
b1010 +"
b1010 ^
b1010 #"
b1110 g
b1110 T
b100 [
b100 &"
b1010000000000000100010011 ;
b1010000000000000100010011 X"
b1010000000000000100010011 -"
b1000 <
b1000 ."
b1100 N
b1000 !
b1000 O
b1000 U"
b1000 ["
b11 $
1"
#30000
0"
#35000
b10000 D
b10000 Z"
b10000 H
b10100 n
b10100 ;"
b1000001000001000110011 V
b1000001000001000110011 V"
b11110 _"
b11110 S"
b11110 X
b11110 Y"
b10100 k
b10100 :"
b10100 =
b11100 R
b10000 N
b1100 !
b1100 O
b1100 U"
b1100 ["
b1111000000000000110010011 ;
b1111000000000000110010011 X"
b1111000000000000110010011 -"
b1100 <
b1100 ."
b10 7
b10 Q"
b10 '"
b10100 :
b10100 M"
b10100 +"
b10100 ^
b10100 #"
b11100 g
b11100 T
b1000 [
b1000 &"
b1110 e
b1110 w
b1110 f
b1110 t
b1 -
b1 {
b1 K"
b100 ,
b100 z
b1010 &
b1010 G"
b1010 r
1C
13"
b100 $
1"
#40000
0"
#45000
b1010 L
b1010 a"
b11110 n
b11110 ;"
b10 o
b10 6"
b10 C"
0m
1M
b10100 D
b10100 Z"
b10100 H
b1010 F
b1010 ]"
b11110 k
b11110 :"
b11110 =
b101010 R
b1 ^"
b10 _"
b110011 A"
b1 R"
b10 S"
b10 X
b10 Y"
b10000100000001010110011 V
b10000100000001010110011 V"
b1 B
b1 2"
b1 N"
b1 \"
b1010 ?
b1010 /"
b11100 e
b11100 w
b11100 f
b11100 t
b10 -
b10 {
b10 K"
b1000 ,
b1000 z
b10100 &
b10100 G"
b10100 r
b11 7
b11 Q"
b11 '"
b11110 :
b11110 M"
b11110 +"
b11110 ^
b11110 #"
b101010 g
b101010 T
b1100 [
b1100 &"
b1000001000001000110011 ;
b1000001000001000110011 X"
b1000001000001000110011 -"
b10000 <
b10000 ."
b10100 N
b10000 !
b10000 O
b10000 U"
b10000 ["
b101 $
1"
#50000
0"
#55000
b10100 j
b10100 >"
b0 K
b0 `"
b11000 D
b11000 Z"
b11000 H
b11110 n
b11110 ;"
0i
b0 L
b0 a"
b10000000010000000100011 V
b10000000010000000100011 V"
b100 ^"
b100 _"
b100 R"
b100 S"
b100 X
b100 Y"
b10100 k
b10100 :"
b1100 =
b1010 l
b1010 8"
b1010 ="
b10010 R
b10 b
b10 P"
b10100 F
b10100 ]"
b11000 N
b10100 !
b10100 O
b10100 U"
b10100 ["
b10000100000001010110011 ;
b10000100000001010110011 X"
b10000100000001010110011 -"
b10100 <
b10100 ."
0`
b100 7
b100 Q"
b100 '"
b10 :
b10 M"
b10 +"
b1 9
b1 L"
b1 )"
b10 ^
b10 #"
b1010 Z
b1010 *"
b10010 g
b10010 T
b10000 [
b10000 &"
b101010 e
b101010 w
b101010 f
b101010 t
b11 -
b11 {
b11 K"
b1100 ,
b1100 z
b11110 &
b11110 G"
b11110 r
b10 B
b10 2"
b10 N"
b10 \"
b10100 ?
b10100 /"
b110 $
1"
#60000
0"
#65000
b11110 k
b11110 :"
1i
b11110 j
b11110 >"
b0 X
b0 Y"
b111100 n
b111100 ;"
b1 W
b1 D"
b1 W"
1P
1m
b0 o
b0 6"
b0 C"
0M
b0 p
b0 7"
b11100 D
b11100 Z"
b11100 H
b11110 F
b11110 ]"
b1 c
b1 O"
b1 b
b1 P"
b100010 =
b11110 l
b11110 8"
b11110 ="
b11000 R
b10 a
b0 ^"
b100011 A"
b10 ?"
b10 4"
b0 R"
b10001100000011 V
b10001100000011 V"
b11 B
b11 2"
b11 N"
b11 \"
b11110 ?
b11110 /"
b10010 e
b10010 w
b10010 f
b10010 t
b100 -
b100 {
b100 K"
b10000 ,
b10000 z
b10100 /
b10100 I"
b10100 }
b101 7
b101 Q"
b101 '"
b100 :
b100 M"
b100 +"
b100 9
b100 L"
b100 )"
b100 ^
b100 #"
b0 Z
b0 *"
b11000 g
b11000 T
b10100 [
b10100 &"
b10000000010000000100011 ;
b10000000010000000100011 X"
b10000000010000000100011 -"
b11000 <
b11000 ."
b11100 N
b11000 !
b11000 O
b11000 U"
b11000 ["
b111 $
1"
#70000
0"
#75000
b100000 D
b100000 Z"
b100000 H
b1 G
b1 F"
1E"
1M
b0 W
b0 D"
b0 W"
0P
1m
1E
b0 n
b0 ;"
b11110 j
b11110 >"
b0 l
b0 8"
b0 ="
b10100110000001110110011 V
b10100110000001110110011 V"
b0 _"
b11 A"
b0 S"
b0 X
b0 Y"
0i
b0 k
b0 :"
b0 =
b10 b
b10 P"
b0 c
b0 O"
b100000 N
b11100 !
b11100 O
b11100 U"
b11100 ["
b10001100000011 ;
b10001100000011 X"
b10001100000011 -"
b11100 <
b11100 ."
b10 4
b10 <"
b10 ""
08
0("
16
1%"
1`
b0 7
b0 Q"
b0 '"
b0 9
b0 L"
b0 )"
b0 ^
b0 #"
b11000 g
b11000 T
b11000 [
b11000 &"
b11000 e
b11000 w
b11000 f
b11000 t
b101 -
b101 {
b101 K"
b10100 ,
b10100 z
b11110 /
b11110 I"
b11110 }
b111100 &
b111100 G"
b111100 r
b100 B
b100 2"
b100 N"
b100 \"
b1000 $
1"
#80000
0"
#85000
b111100 K
b111100 `"
b0 j
b0 >"
b10 o
b10 6"
b10 C"
b0 G
b0 F"
0E"
0m
1M
b100100 D
b100100 Z"
b100100 H
b111100 F
b111100 ]"
1d
1J
1I
b0 b
b0 P"
b11100 R
b0 a
b110 ^"
b101 _"
b110011 A"
b0 ?"
b0 4"
b110 R"
b101 S"
b101 X
b101 Y"
b10100000000010000010011 V
b10100000000010000010011 V"
b101 B
b101 2"
b101 N"
b101 \"
b111100 ?
b111100 /"
b10 (
b10 H"
b10 u
0.
0|
1+
1y
b0 -
b0 {
b0 K"
b11000 ,
b11000 z
b0 &
b0 G"
b0 r
18
1("
15
1$"
06
0%"
b110 7
b110 Q"
b110 '"
b0 :
b0 M"
b0 +"
b11100 g
b11100 T
b11100 [
b11100 &"
b10100110000001110110011 ;
b10100110000001110110011 X"
b10100110000001110110011 -"
b100000 <
b100000 ."
b100100 N
b100000 !
b100000 O
b100000 U"
b100000 ["
b1001 $
1"
#90000
0"
#95000
b111100 K
b111100 `"
b11110 Q
b11110 J"
b0 F
b0 ]"
08
0("
b11100 e
b11100 w
b11100 f
b11100 t
1.
1|
1*
1x
0+
0y
b110 -
b110 {
b110 K"
b11100 ,
b11100 z
b0 /
b0 I"
b0 }
0C
03"
b0 B
b0 2"
b0 N"
b0 \"
b0 ?
b0 /"
b1010 $
1"
#100000
0"
#105000
b11110 L
b11110 a"
b11110 F
b11110 ]"
1C
13"
1A
11"
b110 B
b110 2"
b110 N"
b110 \"
b11110 @
b11110 0"
0.
0|
b1011 $
1"
#110000
0"
#115000
0C
03"
b1100 $
1"
#120000
0"
#125000
b1101 $
1"
#130000
0"
#135000
b1110 $
1"
#140000
0"
#145000
b1111 $
1"
#150000
0"
#155000
b10000 $
1"
#160000
0"
#165000
b10001 $
1"
#170000
0"
#175000
b10010 $
1"
#180000
0"
#185000
b10011 $
1"
#190000
0"
#195000
b10100 $
1"
#200000
0"
#205000
b10101 $
1"
#210000
0"
#215000
b10110 $
1"
#220000
0"
#225000
b10111 $
1"
#230000
0"
#235000
b11000 $
1"
#240000
0"
#245000
b11001 $
1"
#250000
0"
#255000
b11010 $
1"
#260000
0"
#265000
b11011 $
1"
#270000
0"
#275000
b11100 $
1"
#280000
0"
#285000
b11101 $
1"
#290000
0"
#295000
b11110 $
1"
#300000
0"
#305000
b11111 $
1"
#310000
0"
#315000
b100000 $
1"
#320000
0"
#325000
b100001 $
1"
#330000
0"
#335000
b100010 $
1"
#340000
0"
#345000
b100011 $
1"
#350000
0"
#355000
b100100 $
1"
#360000
0"
#365000
b100101 $
1"
#370000
0"
#375000
b100110 $
1"
#380000
0"
#385000
b100111 $
1"
#390000
0"
#395000
b101000 $
1"
#400000
0"
#405000
b101001 $
1"
#410000
0"
#415000
b101010 $
1"
#420000
0"
#425000
b101011 $
1"
#430000
0"
#435000
b101100 $
1"
#440000
0"
#445000
b101101 $
1"
#450000
0"
#455000
b101110 $
1"
#460000
0"
#465000
b101111 $
1"
#470000
0"
#475000
b110000 $
1"
#480000
0"
#485000
b110001 $
1"
#490000
0"
#495000
b110010 $
1"
#500000
0"
#505000
b110011 $
1"
#510000
0"
#515000
b110100 $
1"
#520000
0"
#525000
b110101 $
1"
#530000
0"
#535000
b110110 $
1"
#540000
0"
#545000
b110111 $
1"
#550000
0"
#555000
b111000 $
1"
#560000
0"
#565000
b111001 $
1"
#570000
0"
#575000
b111010 $
1"
#580000
0"
#585000
b111011 $
1"
#590000
0"
#595000
b111100 $
1"
#600000
0"
#605000
b111101 $
1"
#610000
0"
#615000
b111110 $
1"
#620000
0"
#625000
b111111 $
1"
#630000
0"
#635000
b1000000 $
1"
#640000
0"
#645000
b1000001 $
1"
#650000
0"
#655000
b1000010 $
1"
#660000
0"
#665000
b1000011 $
1"
#670000
0"
#675000
b1000100 $
1"
#680000
0"
#685000
b1000101 $
1"
#690000
0"
#695000
b1000110 $
1"
#700000
0"
#705000
b1000111 $
1"
#710000
0"
#715000
b1001000 $
1"
#720000
0"
#725000
b1001001 $
1"
#730000
0"
#735000
b1001010 $
1"
#740000
0"
#745000
b1001011 $
1"
#750000
0"
#755000
b1001100 $
1"
#760000
0"
#765000
b1001101 $
1"
#770000
0"
#775000
b1001110 $
1"
#780000
0"
#785000
b1001111 $
1"
#790000
0"
#795000
b1010000 $
1"
#800000
0"
#805000
b1010001 $
1"
#810000
0"
#815000
b1010010 $
1"
#820000
0"
#825000
b1010011 $
1"
#830000
0"
#835000
b1010100 $
1"
#840000
0"
#845000
b1010101 $
1"
#850000
0"
#855000
b1010110 $
1"
#860000
0"
#865000
b1010111 $
1"
#870000
0"
#875000
b1011000 $
1"
#880000
0"
#885000
b1011001 $
1"
#890000
0"
#895000
b1011010 $
1"
#900000
0"
#905000
b1011011 $
1"
