wave.vcd
$date
	Thu Mar 12 12:37:22 2026
$end
$version
	Icarus Verilog
$end
$timescale
	1ps
$end
$scope module tb_top $end
$var wire 32 ! pc [31:0] $end
$var reg 1 " clk $end
$var reg 1 # int_ext $end
$var reg 1 $ int_soft $end
$var reg 1 % int_timer $end
$var reg 1 & rst_n $end
$var integer 32 ' cycle [31:0] $end
$var integer 32 ( i [31:0] $end
$scope module u_cpu $end
$var wire 1 ) branch_taken $end
$var wire 1 " clk $end
$var wire 32 * ex_mem_alu_result [31:0] $end
$var wire 1 + ex_mem_branch_taken $end
$var wire 3 , ex_mem_funct3 [2:0] $end
$var wire 1 - ex_mem_jump_taken $end
$var wire 1 . ex_mem_mem_to_reg $end
$var wire 1 / ex_mem_mem_write $end
$var wire 32 0 ex_mem_pc_plus4 [31:0] $end
$var wire 5 1 ex_mem_rd_addr [4:0] $end
$var wire 1 2 ex_mem_reg_write $end
$var wire 32 3 ex_mem_rs2_data [31:0] $end
$var wire 1 4 flush_if_id $end
$var wire 2 5 id_ex_alu_a_sel [1:0] $end
$var wire 4 6 id_ex_alu_ctrl [3:0] $end
$var wire 1 7 id_ex_enable $end
$var wire 3 8 id_ex_funct3 [2:0] $end
$var wire 1 9 id_ex_mem_to_reg $end
$var wire 1 : id_ex_mem_write $end
$var wire 5 ; id_ex_rd_addr [4:0] $end
$var wire 1 < id_ex_reg_write $end
$var wire 5 = id_ex_rs2_addr [4:0] $end
$var wire 32 > if_id_instr [31:0] $end
$var wire 32 ? if_id_pc_plus4 [31:0] $end
$var wire 1 # int_ext $end
$var wire 1 $ int_soft $end
$var wire 1 % int_timer $end
$var wire 32 @ jalr_target [31:0] $end
$var wire 1 A jump_taken $end
$var wire 32 B mem_wb_alu_result [31:0] $end
$var wire 32 C mem_wb_mem_rdata [31:0] $end
$var wire 1 D mem_wb_mem_to_reg $end
$var wire 5 E mem_wb_rd_addr [4:0] $end
$var wire 1 F mem_wb_reg_write $end
$var wire 1 G mret_taken $end
$var wire 32 H next_pc [31:0] $end
$var wire 1 & rst_n $end
$var wire 1 I sret_taken $end
$var wire 1 J trap_taken $end
$var wire 1 K zero $end
$var wire 32 L write_data [31:0] $end
$var wire 2 M wb_sel [1:0] $end
$var wire 32 N target [31:0] $end
$var wire 1 O stall_pc $end
$var wire 1 P stall_if_id $end
$var wire 32 Q rs2_data [31:0] $end
$var wire 32 R rs1_data [31:0] $end
$var wire 1 S reg_write $end
$var wire 32 T pc_plus4 [31:0] $end
$var wire 32 U pc [31:0] $end
$var wire 1 V mem_write $end
$var wire 32 W mem_rdata [31:0] $end
$var wire 32 X jump_target [31:0] $end
$var wire 1 Y jalr $end
$var wire 32 Z jal_target [31:0] $end
$var wire 1 [ jal $end
$var wire 1 \ is_sret $end
$var wire 1 ] is_mret $end
$var wire 1 ^ is_ecall $end
$var wire 1 _ is_ebreak $end
$var wire 1 ` is_csr $end
$var wire 32 a instr [31:0] $end
$var wire 3 b imm_sel [2:0] $end
$var wire 32 c imm [31:0] $end
$var wire 32 d id_ex_rs2_data [31:0] $end
$var wire 32 e id_ex_rs1_data [31:0] $end
$var wire 5 f id_ex_rs1_addr [4:0] $end
$var wire 32 g id_ex_pc_plus4 [31:0] $end
$var wire 1 h id_ex_jalr $end
$var wire 1 i id_ex_jal $end
$var wire 32 j id_ex_imm [31:0] $end
$var wire 1 k id_ex_branch $end
$var wire 1 l id_ex_alu_src $end
$var wire 3 m funct3 [2:0] $end
$var wire 2 n forward_b [1:0] $end
$var wire 2 o forward_a [1:0] $end
$var wire 1 p flush_id_ex $end
$var wire 32 q exc_pc [31:0] $end
$var wire 32 r ex_mem_jump_target [31:0] $end
$var wire 32 s ex_mem_branch_target [31:0] $end
$var wire 32 t csr_wdata [31:0] $end
$var wire 32 u csr_trap_pc [31:0] $end
$var wire 1 v csr_take_trap $end
$var wire 32 w csr_sepc [31:0] $end
$var wire 32 x csr_rdata [31:0] $end
$var wire 2 y csr_privilege [1:0] $end
$var wire 3 z csr_op [2:0] $end
$var wire 32 { csr_mepc [31:0] $end
$var wire 1 | csr_flush $end
$var wire 32 } branch_target [31:0] $end
$var wire 1 ~ branch $end
$var wire 1 !" br_taken $end
$var wire 32 "" alu_src2_rs2 [31:0] $end
$var wire 32 #" alu_src2 [31:0] $end
$var wire 32 $" alu_src1 [31:0] $end
$var wire 1 %" alu_src $end
$var wire 32 &" alu_result [31:0] $end
$var wire 2 '" alu_op [1:0] $end
$var wire 4 (" alu_ctrl [3:0] $end
$var wire 2 )" alu_a_sel [1:0] $end
$var reg 32 *" ex_mem_alu_result_reg [31:0] $end
$var reg 1 +" ex_mem_branch_taken_reg $end
$var reg 32 ," ex_mem_branch_target_reg [31:0] $end
$var reg 32 -" ex_mem_csr_rdata_reg [31:0] $end
$var reg 3 ." ex_mem_funct3_reg [2:0] $end
$var reg 1 /" ex_mem_jump_taken_reg $end
$var reg 32 0" ex_mem_jump_target_reg [31:0] $end
$var reg 1 1" ex_mem_mem_to_reg_reg $end
$var reg 1 2" ex_mem_mem_write_reg $end
$var reg 32 3" ex_mem_pc_plus4_reg [31:0] $end
$var reg 5 4" ex_mem_rd_addr_reg [4:0] $end
$var reg 1 5" ex_mem_reg_write_reg $end
$var reg 32 6" ex_mem_rs2_data_reg [31:0] $end
$var reg 2 7" ex_mem_wb_sel_reg [1:0] $end
$var reg 2 8" id_ex_alu_a_sel_reg [1:0] $end
$var reg 4 9" id_ex_alu_ctrl_reg [3:0] $end
$var reg 1 l id_ex_alu_src_reg $end
$var reg 1 k id_ex_branch_reg $end
$var reg 12 :" id_ex_csr_addr_reg [11:0] $end
$var reg 3 ;" id_ex_csr_op_reg [2:0] $end
$var reg 3 <" id_ex_funct3_reg [2:0] $end
$var reg 32 =" id_ex_imm_reg [31:0] $end
$var reg 1 >" id_ex_is_csr_reg $end
$var reg 1 ?" id_ex_is_ebreak_reg $end
$var reg 1 @" id_ex_is_ecall_reg $end
$var reg 1 A" id_ex_is_mret_reg $end
$var reg 1 B" id_ex_is_sret_reg $end
$var reg 1 i id_ex_jal_reg $end
$var reg 1 h id_ex_jalr_reg $end
$var reg 1 C" id_ex_mem_to_reg_reg $end
$var reg 1 D" id_ex_mem_write_reg $end
$var reg 32 E" id_ex_pc_plus4_reg [31:0] $end
$var reg 5 F" id_ex_rd_addr_reg [4:0] $end
$var reg 1 G" id_ex_reg_write_reg $end
$var reg 5 H" id_ex_rs1_addr_reg [4:0] $end
$var reg 32 I" id_ex_rs1_data_reg [31:0] $end
$var reg 5 J" id_ex_rs2_addr_reg [4:0] $end
$var reg 32 K" id_ex_rs2_data_reg [31:0] $end
$var reg 2 L" id_ex_wb_sel_reg [1:0] $end
$var reg 32 M" if_id_instr_reg [31:0] $end
$var reg 32 N" if_id_pc_plus4_reg [31:0] $end
$var reg 32 O" mem_wb_alu_result_reg [31:0] $end
$var reg 32 P" mem_wb_csr_rdata_reg [31:0] $end
$var reg 32 Q" mem_wb_mem_rdata_reg [31:0] $end
$var reg 1 R" mem_wb_mem_to_reg_reg $end
$var reg 32 S" mem_wb_pc_plus4_reg [31:0] $end
$var reg 5 T" mem_wb_rd_addr_reg [4:0] $end
$var reg 1 U" mem_wb_reg_write_reg $end
$var reg 2 V" mem_wb_wb_sel_reg [1:0] $end
$scope module alu_ctrl_inst $end
$var wire 3 W" funct3 [2:0] $end
$var wire 7 X" funct7 [6:0] $end
$var wire 2 Y" alu_op [1:0] $end
$var reg 4 Z" alu_ctrl [3:0] $end
$upscope $end
$scope module alu_inst $end
$var wire 32 [" a [31:0] $end
$var wire 4 \" alu_ctrl [3:0] $end
$var wire 32 ]" b [31:0] $end
$var wire 1 K zero $end
$var reg 32 ^" result [31:0] $end
$upscope $end
$scope module br_comp $end
$var wire 3 _" funct3 [2:0] $end
$var wire 32 `" rs1_data [31:0] $end
$var wire 32 a" rs2_data [31:0] $end
$var reg 1 !" br_taken $end
$upscope $end
$scope module csr_inst $end
$var wire 12 b" addr [11:0] $end
$var wire 1 " clk $end
$var wire 32 c" current_instr [31:0] $end
$var wire 32 d" current_pc [31:0] $end
$var wire 1 ?" ex_ebreak $end
$var wire 1 @" ex_ecall $end
$var wire 1 e" ex_illegal $end
$var wire 1 A" ex_mret $end
$var wire 1 B" ex_sret $end
$var wire 1 f" inst_retire $end
$var wire 1 # int_ext $end
$var wire 1 $ int_soft $end
$var wire 1 % int_timer $end
$var wire 32 g" mepc_value [31:0] $end
$var wire 3 h" op [2:0] $end
$var wire 1 & rst_n $end
$var wire 32 i" sepc_value [31:0] $end
$var wire 1 j" take_exception $end
$var wire 32 k" wdata [31:0] $end
$var wire 1 >" we $end
$var wire 32 l" trap_pc [31:0] $end
$var parameter 32 m" CAUSE_BREAKPOINT $end
$var parameter 32 n" CAUSE_ECALL_M $end
$var parameter 32 o" CAUSE_ECALL_S $end
$var parameter 32 p" CAUSE_ECALL_U $end
$var parameter 32 q" CAUSE_ILLEGAL_INSTR $end
$var parameter 2 r" PRIV_M $end
$var parameter 2 s" PRIV_S $end
$var parameter 2 t" PRIV_U $end
$var reg 32 u" exception_cause [31:0] $end
$var reg 32 v" exception_pc [31:0] $end
$var reg 1 w" exception_pending $end
$var reg 32 x" exception_tval [31:0] $end
$var reg 1 | flush_pipeline $end
$var reg 32 y" mcause [31:0] $end
$var reg 32 z" mcycle [31:0] $end
$var reg 32 {" mcycleh [31:0] $end
$var reg 32 |" mepc [31:0] $end
$var reg 32 }" mhartid [31:0] $end
$var reg 32 ~" mie [31:0] $end
$var reg 32 !# minstret [31:0] $end
$var reg 32 "# minstreth [31:0] $end
$var reg 32 ## mip [31:0] $end
$var reg 32 $# misa [31:0] $end
$var reg 1 %# mret_pending $end
$var reg 32 &# mscratch [31:0] $end
$var reg 32 '# mstatus [31:0] $end
$var reg 32 (# mtval [31:0] $end
$var reg 32 )# mtvec [31:0] $end
$var reg 2 *# privilege [1:0] $end
$var reg 32 +# rdata [31:0] $end
$var reg 32 ,# satp [31:0] $end
$var reg 32 -# scause [31:0] $end
$var reg 32 .# sepc [31:0] $end
$var reg 32 /# sie [31:0] $end
$var reg 32 0# sip [31:0] $end
$var reg 1 1# sret_pending $end
$var reg 32 2# sscratch [31:0] $end
$var reg 32 3# sstatus [31:0] $end
$var reg 32 4# stval [31:0] $end
$var reg 32 5# stvec [31:0] $end
$var reg 32 6# trap_pc_reg [31:0] $end
$var reg 1 v trap_taken $end
$upscope $end
$scope module ctrl_inst $end
$var wire 3 7# funct3 [2:0] $end
$var wire 7 8# funct7 [6:0] $end
$var wire 32 9# instr [31:0] $end
$var wire 7 :# opcode [6:0] $end
$var reg 2 ;# alu_a_sel [1:0] $end
$var reg 2 <# alu_op [1:0] $end
$var reg 1 %" alu_src $end
$var reg 1 ~ branch $end
$var reg 3 =# csr_op [2:0] $end
$var reg 3 ># imm_sel [2:0] $end
$var reg 1 ` is_csr $end
$var reg 1 _ is_ebreak $end
$var reg 1 ^ is_ecall $end
$var reg 1 ] is_mret $end
$var reg 1 \ is_sret $end
$var reg 1 [ jal $end
$var reg 1 Y jalr $end
$var reg 1 ?# mem_read $end
$var reg 1 V mem_write $end
$var reg 1 S reg_write $end
$var reg 2 @# wb_sel [1:0] $end
$upscope $end
$scope module dmem_inst $end
$var wire 32 A# addr [31:0] $end
$var wire 1 " clk $end
$var wire 3 B# funct3 [2:0] $end
$var wire 32 C# wdata [31:0] $end
$var wire 1 / we $end
$var reg 32 D# rdata [31:0] $end
$upscope $end
$scope module fwd_unit $end
$var wire 5 E# ex_mem_rd [4:0] $end
$var wire 1 5" ex_mem_reg_write $end
$var wire 5 F# id_ex_rs1 [4:0] $end
$var wire 5 G# id_ex_rs2 [4:0] $end
$var wire 5 H# mem_wb_rd [4:0] $end
$var wire 1 U" mem_wb_reg_write $end
$var reg 2 I# forward_a [1:0] $end
$var reg 2 J# forward_b [1:0] $end
$upscope $end
$scope module hazard $end
$var wire 1 +" branch_taken $end
$var wire 1 9 id_ex_mem_read $end
$var wire 5 K# id_ex_rd [4:0] $end
$var wire 5 L# if_id_rs1 [4:0] $end
$var wire 5 M# if_id_rs2 [4:0] $end
$var wire 1 /" jump_taken $end
$var reg 1 p flush_id_ex $end
$var reg 1 N# flush_if_id $end
$var reg 1 P stall_if_id $end
$var reg 1 O stall_pc $end
$upscope $end
$scope module imem_inst $end
$var wire 32 O# addr [31:0] $end
$var reg 32 P# instr [31:0] $end
$upscope $end
$scope module imm_inst $end
$var wire 3 Q# immsel [2:0] $end
$var wire 32 R# instr [31:0] $end
$var reg 32 S# imm [31:0] $end
$upscope $end
$scope module pc_inst $end
$var wire 1 " clk $end
$var wire 32 T# next_pc [31:0] $end
$var wire 1 & rst_n $end
$var wire 1 O stall $end
$var reg 32 U# pc [31:0] $end
$upscope $end
$scope module reg_inst $end
$var wire 1 " clk $end
$var wire 5 V# rd_addr [4:0] $end
$var wire 32 W# rd_data [31:0] $end
$var wire 5 X# rs1_addr [4:0] $end
$var wire 5 Y# rs2_addr [4:0] $end
$var wire 1 U" we $end
$var wire 32 Z# rs2_data [31:0] $end
$var wire 32 [# rs1_data [31:0] $end
$var integer 32 \# i [31:0] $end
$upscope $end
$upscope $end
$upscope $end
$enddefinitions $end
$comment Show the parameter values. $end
$dumpall
b0 t"
b1 s"
b11 r"
b10 q"
b1000 p"
b1001 o"
b1011 n"
b11 m"
$end
#0
$dumpvars
b100000 \#
b0 [#
b0 Z#
b0 Y#
b0 X#
b0 W#
b0 V#
b0 U#
b100 T#
b0 S#
b10011 R#
b0 Q#
b1010010111 P#
b0 O#
0N#
b0 M#
b0 L#
b0 K#
b0 J#
b0 I#
b0 H#
b0 G#
b0 F#
b0 E#
bx D#
b0 C#
b0 B#
b0 A#
b0 @#
0?#
b0 >#
b0 =#
b11 <#
b0 ;#
b10011 :#
b10011 9#
b0 8#
b0 7#
b0 6#
b0 5#
b0 4#
b0 3#
b0 2#
01#
b0 0#
b0 /#
b0 .#
b0 -#
b0 ,#
b0 +#
b11 *#
b0 )#
b0 (#
b1100000000000 '#
b0 &#
0%#
b1000000000000000000000100000000 $#
b0 ##
b0 "#
b0 !#
b0 ~"
b0 }"
b0 |"
b0 {"
b0 z"
b0 y"
bx x"
0w"
bx v"
bx u"
b0 l"
b0 k"
0j"
b0 i"
b0 h"
b0 g"
0f"
0e"
b11111111111111111111111111111100 d"
b0 c"
b0 b"
b0 a"
b0 `"
b0 _"
b0 ^"
b0 ]"
b0 \"
b0 ["
b0 Z"
b11 Y"
b0 X"
b0 W"
b0 V"
0U"
b0 T"
b0 S"
0R"
b0 Q"
b0 P"
b0 O"
b0 N"
b10011 M"
b0 L"
b0 K"
b0 J"
b0 I"
b0 H"
0G"
b0 F"
b0 E"
0D"
0C"
0B"
0A"
0@"
0?"
0>"
b0 ="
b0 <"
b0 ;"
b0 :"
b0 9"
b0 8"
b0 7"
b0 6"
05"
b0 4"
b0 3"
02"
01"
b0 0"
0/"
b0 ."
b0 -"
b0 ,"
0+"
b0 *"
b0 )"
b0 ("
b11 '"
b0 &"
1%"
b0 $"
b0 #"
b0 ""
1!"
0~
b0 }
0|
b0 {
b0 z
b11 y
b0 x
b0 w
0v
b0 u
b0 t
b0 s
b0 r
b11111111111111111111111111111100 q
0p
b0 o
b0 n
b0 m
0l
0k
b0 j
0i
0h
b0 g
b0 f
b0 e
b0 d
b0 c
b0 b
b1010010111 a
0`
0_
0^
0]
0\
0[
b0 Z
0Y
b0 X
bx W
0V
b0 U
b100 T
1S
b0 R
b0 Q
0P
0O
b100 N
b0 M
b0 L
1K
0J
0I
b100 H
0G
0F
b0 E
0D
b0 C
b0 B
0A
b0 @
b0 ?
b10011 >
b0 =
0<
b0 ;
0:
09
b0 8
17
b0 6
b0 5
04
b0 3
02
b0 1
b0 0
0/
0.
0-
b0 ,
0+
b0 *
0)
bx (
b0 '
0&
0%
0$
0#
0"
b0 !
$end
#5000
b1 '
1"
#10000
0"
#15000
b10 '
1"
#20000
0"
1&
#25000
b1 )"
b1 ;#
b11 b
b11 >#
b11 Q#
b1000 H
b1000 T#
b1000 N
b10111 :#
b0 '"
b0 Y"
b0 <#
1%"
1S
b11110000101000001010010011 a
b11110000101000001010010011 P#
bx C
bx Q"
1<
1G"
1l
b1010010111 >
b1010010111 9#
b1010010111 R#
b1010010111 M"
b100 ?
b100 N"
b1 z"
b1000 T
b100 !
b100 U
b100 O#
b100 U#
b11 '
1"
#30000
0"
#35000
b100 X
b1100 H
b1100 T#
b1100 N
b11 '"
b11 Y"
b11 <#
b10011 a
b10011 P#
b101 X#
b11100 Y#
b10011 :#
b1 8#
b1 X"
b101 L#
b11100 M#
b0 )"
b0 ;#
b0 b
b0 >#
b0 Q#
1%"
1S
b111100 c
b111100 S#
b1100 T
b1000 !
b1000 U
b1000 O#
b1000 U#
b10 z"
b11110000101000001010010011 >
b11110000101000001010010011 9#
b11110000101000001010010011 R#
b11110000101000001010010011 M"
b1000 ?
b1000 N"
b1 5
b1 8"
b101 ;
b101 K#
b101 F"
b100 }
b100 Z
b0 q
b0 d"
b100 g
b100 E"
12
15"
b100 '
1"
#40000
0"
#45000
b1000100 X
0K
b111100 &"
b111100 ^"
b10000 H
b10000 T#
b10000 N
b1 o
b1 I#
b111100 #"
b111100 ]"
b111100 @
b0 X#
b0 Y#
b0 8#
b0 X"
b0 L#
b0 M#
b11 '"
b11 Y"
b11 <#
1%"
1S
b0 c
b0 S#
b110000010100101001000001110011 a
b110000010100101001000001110011 P#
1F
1U"
b100 r
b100 0"
b100 s
b100 ,"
b101 1
b101 4"
b101 E#
b100 0
b100 3"
b111100 :"
b111100 b"
b0 5
b0 8"
b11100 =
b11100 G#
b11100 J"
b101 f
b101 H"
b101 F#
b111100 j
b111100 ="
b1000100 }
b1000100 Z
b100 q
b100 d"
b1000 g
b1000 E"
b10011 >
b10011 9#
b10011 R#
b10011 M"
b1100 ?
b1100 N"
b11 z"
b10000 T
b1100 !
b1100 U
b1100 O#
b1100 U#
b101 '
1"
#50000
0"
#55000
b1100 X
b10100 H
b10100 T#
b10100 N
b11 M
b11 @#
b1 z
b1 =#
1`
b0 ("
b0 Z"
1K
b0 &"
b0 ^"
b1100010111 a
b1100010111 P#
b1 m
b101 X#
b101 Y#
b1110011 :#
b1 7#
b11000 8#
b1 W"
b11000 X"
b101 L#
b101 M#
b0 '"
b0 Y"
b0 <#
0%"
1S
b1100000101 c
b1100000101 S#
b0 #"
b0 ]"
b0 @
b0 o
b0 I#
b10100 T
b10000 !
b10000 U
b10000 O#
b10000 U#
b100 z"
b110000010100101001000001110011 >
b110000010100101001000001110011 9#
b110000010100101001000001110011 R#
b110000010100101001000001110011 M"
b10000 ?
b10000 N"
b0 :"
b0 b"
b0 ;
b0 K#
b0 F"
b0 =
b0 G#
b0 J"
b0 f
b0 H"
b0 F#
b0 j
b0 ="
b1100 }
b1100 Z
b1000 q
b1000 d"
b1100 g
b1100 E"
b1000100 r
b1000100 0"
b1000100 s
b1000100 ,"
b1000 0
b1000 3"
b111100 *
b111100 A#
b111100 *"
b100 S"
b101 E
b101 T"
b101 H#
b101 V#
b110 '
1"
#60000
0"
#65000
b111100 #"
b111100 ]"
b111100 t
b111100 k"
0K
b1111000 &"
b1111000 ^"
b111100 ""
b111100 a"
b111100 $"
b111100 ["
b111100 `"
b1100010101 X
b1 )"
b1 ;#
b11 b
b11 >#
b11 Q#
1%"
b11000 H
b11000 T#
b11000 N
b111100 L
b111100 W#
0!"
b10 n
b10 J#
b10 o
b10 I#
b1101000000 @
b0 m
b0 X#
b0 Y#
b10111 :#
b0 7#
b0 8#
b0 W"
b0 X"
b0 L#
b0 M#
0`
b0 z
b0 =#
b0 M
b0 @#
1S
b0 c
b0 S#
b11010000110000001100010011 a
b11010000110000001100010011 P#
b1000 S"
b111100 B
b111100 O"
b1100 r
b1100 0"
b1100 s
b1100 ,"
b0 1
b0 4"
b0 E#
b1100 0
b1100 3"
b0 *
b0 A#
b0 *"
1>"
b1100000101 :"
b1100000101 b"
b1 ;"
b1 h"
b11 L"
b1 8
b1 _"
b1 <"
0l
b101 =
b101 G#
b101 J"
b101 f
b101 H"
b101 F#
b1100000101 j
b1100000101 ="
b1100010101 }
b1100010101 Z
b1100 q
b1100 d"
b10000 g
b10000 E"
b1100010111 >
b1100010111 9#
b1100010111 R#
b1100010111 M"
b10100 ?
b10100 N"
b101 z"
b11000 T
b10100 !
b10100 U
b10100 O#
b10100 U#
b111 '
1"
#70000
0"
#75000
b10100 X
b0 t
b0 k"
b11100 H
b11100 T#
b11100 N
b11 '"
b11 Y"
b11 <#
1K
b0 &"
b0 ^"
b0 ""
b0 a"
b0 $"
b0 ["
b0 `"
b10100000100110001000001110011 a
b10100000100110001000001110011 P#
b110 X#
b10100 Y#
b10011 :#
b1 8#
b1 X"
b110 L#
b10100 M#
b0 )"
b0 ;#
b0 b
b0 >#
b0 Q#
1%"
1S
b110100 c
b110100 S#
1!"
b0 #"
b0 ]"
b0 @
b0 n
b0 J#
b0 o
b0 I#
b0 L
b0 W#
b11100 T
b11000 !
b11000 U
b11000 O#
b11000 U#
b110 z"
b11010000110000001100010011 >
b11010000110000001100010011 9#
b11010000110000001100010011 R#
b11010000110000001100010011 M"
b11000 ?
b11000 N"
0>"
b0 :"
b0 b"
b0 ;"
b0 h"
b0 L"
b0 8
b0 _"
b0 <"
b1 5
b1 8"
1l
b110 ;
b110 K#
b110 F"
b0 =
b0 G#
b0 J"
b0 f
b0 H"
b0 F#
b0 j
b0 ="
b10100 }
b10100 Z
b10000 q
b10000 d"
b10100 g
b10100 E"
b11 7"
b1 ,
b1 B#
b1 ."
b1100010101 r
b1100010101 0"
b1100010101 s
b1100010101 ,"
b10000 0
b10000 3"
b111100 3
b111100 C#
b111100 6"
b1111000 *
b1111000 A#
b1111000 *"
b1100 S"
b0 E
b0 T"
b0 H#
b0 V#
b0 B
b0 O"
b111100 )#
b1000 '
1"
#80000
0"
#85000
b1001100 X
0K
b110100 &"
b110100 ^"
b11 M
b11 @#
b1 z
b1 =#
1`
b0 ("
b0 Z"
b100000 H
b100000 T#
b100000 N
b1 o
b1 I#
b110100 #"
b110100 ]"
b110100 @
b1 m
b1 Y#
b1110011 :#
b1 7#
b1010 8#
b1 W"
b1010 X"
b1 M#
b0 '"
b0 Y"
b0 <#
0%"
1S
b101000001 c
b101000001 S#
b110000000000000010001111110011 a
b110000000000000010001111110011 P#
b10000 S"
b11 V"
b1111000 B
b1111000 O"
b0 7"
b0 ,
b0 B#
b0 ."
b10100 r
b10100 0"
b10100 s
b10100 ,"
b110 1
b110 4"
b110 E#
b10100 0
b10100 3"
b0 3
b0 C#
b0 6"
b0 *
b0 A#
b0 *"
b110100 :"
b110100 b"
b0 5
b0 8"
b10100 =
b10100 G#
b10100 J"
b110 f
b110 H"
b110 F#
b110100 j
b110100 ="
b1001100 }
b1001100 Z
b10100 q
b10100 d"
b11000 g
b11000 E"
b10100000100110001000001110011 >
b10100000100110001000001110011 9#
b10100000100110001000001110011 R#
b10100000100110001000001110011 M"
b11100 ?
b11100 N"
b111 z"
b100000 T
b11100 !
b11100 U
b11100 O#
b11100 U#
b1001 '
1"
#90000
0"
#95000
b101011101 X
b110100 t
b110100 k"
b100100 H
b100100 T#
b100100 N
b110100 $"
b110100 ["
b110100 `"
b11111111111111111110111000110111 a
b11111111111111111110111000110111 P#
b10 m
b0 X#
b0 Y#
b10 7#
b11000 8#
b10 W"
b11000 X"
b0 L#
b0 M#
1`
b10 z
b10 =#
b11 M
b11 @#
1S
b1100000000 c
b1100000000 S#
1!"
b0 #"
b0 ]"
b101110100 @
b1 o
b1 I#
b100100 T
b100000 !
b100000 U
b100000 O#
b100000 U#
b1000 z"
b110000000000000010001111110011 >
b110000000000000010001111110011 9#
b110000000000000010001111110011 R#
b110000000000000010001111110011 M"
b100000 ?
b100000 N"
1>"
b101000001 :"
b101000001 b"
b1 ;"
b1 h"
b11 L"
b1 8
b1 _"
b1 <"
0l
b0 ;
b0 K#
b0 F"
b1 =
b1 G#
b1 J"
b101000001 j
b101000001 ="
b101011101 }
b101011101 Z
b11000 q
b11000 d"
b11100 g
b11100 E"
b1001100 r
b1001100 0"
b1001100 s
b1001100 ,"
b11000 0
b11000 3"
b110100 *
b110100 A#
b110100 *"
b10100 S"
b0 V"
b110 E
b110 T"
b110 H#
b110 V#
b0 B
b0 O"
b1010 '
1"
#100000
0"
#105000
b1100100000 X
b0 t
b0 k"
1K
b0 &"
b0 ^"
b0 $"
b0 ["
b0 `"
b10 )"
b10 ;#
b11 b
b11 >#
b11 Q#
1%"
b101000 H
b101000 T#
b101000 N
b110100 L
b110100 W#
0!"
b0 o
b0 I#
b1100000000 @
b110 m
b11111 X#
b11111 Y#
b110111 :#
b110 7#
b1111111 8#
b110 W"
b1111111 X"
b11111 L#
b11111 M#
0`
b0 z
b0 =#
b0 M
b0 @#
1S
b11111111111111111110000000000000 c
b11111111111111111110000000000000 S#
b1111111111111100000111000010011 a
b1111111111111100000111000010011 P#
b1100000000000 x
b1100000000000 +#
b11000 S"
b110100 B
b110100 O"
b11 7"
b1 ,
b1 B#
b1 ."
b101011101 r
b101011101 0"
b101011101 s
b101011101 ,"
b0 1
b0 4"
b0 E#
b11100 0
b11100 3"
b1100000000 :"
b1100000000 b"
b10 ;"
b10 h"
b10 8
b10 _"
b10 <"
b111 ;
b111 K#
b111 F"
b0 =
b0 G#
b0 J"
b0 f
b0 H"
b0 F#
b1100000000 j
b1100000000 ="
b1100100000 }
b1100100000 Z
b11100 q
b11100 d"
b100000 g
b100000 E"
b11111111111111111110111000110111 >
b11111111111111111110111000110111 9#
b11111111111111111110111000110111 R#
b11111111111111111110111000110111 M"
b100100 ?
b100100 N"
b1001 z"
b101000 T
b100100 !
b100100 U
b100100 O#
b100100 U#
b110100 w
b110100 i"
b110100 .#
b1011 '
1"
#110000
0"
#115000
b11111111111111111110000000100100 X
b101100 H
b101100 T#
b101100 N
b11 '"
b11 Y"
b11 <#
0K
b11111111111111111110000000000000 &"
b11111111111111111110000000000000 ^"
b1110000111111001110110011 a
b1110000111111001110110011 P#
b0 m
b11100 X#
b10011 :#
b0 7#
b111111 8#
b0 W"
b111111 X"
b11100 L#
b0 )"
b0 ;#
b0 b
b0 >#
b0 Q#
1%"
1S
b11111111111 c
b11111111111 S#
b11111111111111111110000000000000 #"
b11111111111111111110000000000000 ]"
b11111111111111111110000000000000 @
b0 L
b0 W#
b0 x
b0 +#
b101100 T
b101000 !
b101000 U
b101000 O#
b101000 U#
b1010 z"
b1111111111111100000111000010011 >
b1111111111111100000111000010011 9#
b1111111111111100000111000010011 R#
b1111111111111100000111000010011 M"
b101000 ?
b101000 N"
0>"
b111111111111 :"
b111111111111 b"
b0 ;"
b0 h"
b0 L"
b110 8
b110 _"
b110 <"
b10 5
b10 8"
1l
b11100 ;
b11100 K#
b11100 F"
b11111 =
b11111 G#
b11111 J"
b11111 f
b11111 H"
b11111 F#
b11111111111111111110000000000000 j
b11111111111111111110000000000000 ="
b11111111111111111110000000100100 }
b11111111111111111110000000100100 Z
b100000 q
b100000 d"
b100100 g
b100100 E"
b1100000000000 -"
b10 ,
b10 B#
b10 ."
b1100100000 r
b1100100000 0"
b1100100000 s
b1100100000 ,"
b111 1
b111 4"
b111 E#
b100000 0
b100000 3"
b0 *
b0 A#
b0 *"
b11100 S"
b11 V"
b0 E
b0 T"
b0 H#
b0 V#
b0 '#
b1100 '
1"
#120000
0"
#125000
b1100000000000 R
b1100000000000 [#
b1100000000000 L
b1100000000000 W#
b11111111111111111110000000000000 t
b11111111111111111110000000000000 k"
b100000100111 X
b11111111111111111110000000000000 $"
b11111111111111111110000000000000 ["
b11111111111111111110000000000000 `"
b11111111111111111110011111111111 &"
b11111111111111111110011111111111 ^"
b1001 ("
b1001 Z"
b110000 H
b110000 T#
b110000 N
b0 W
b0 D#
0!"
b1 o
b1 I#
b11111111111 #"
b11111111111 ]"
b11111111111111111110011111111110 @
b111 m
b111 X#
b11100 Y#
b110011 :#
b111 7#
b0 8#
b111 W"
b0 X"
b111 L#
b11100 M#
b10 '"
b10 Y"
b10 <#
0%"
1S
b11100 c
b11100 S#
b110000000000111001000001110011 a
b110000000000111001000001110011 P#
b100000 S"
b1100000000000 P"
b111 E
b111 T"
b111 H#
b111 V#
b0 B
b0 O"
b0 -"
b0 7"
b110 ,
b110 B#
b110 ."
b11111111111111111110000000100100 r
b11111111111111111110000000100100 0"
b11111111111111111110000000100100 s
b11111111111111111110000000100100 ,"
b11100 1
b11100 4"
b11100 E#
b100100 0
b100100 3"
b11111111111111111110000000000000 *
b11111111111111111110000000000000 A#
b11111111111111111110000000000000 *"
b11111111111 :"
b11111111111 b"
b0 8
b0 _"
b0 <"
b0 5
b0 8"
b11100 f
b11100 H"
b11100 F#
b11111111111 j
b11111111111 ="
b100000100111 }
b100000100111 Z
b100100 q
b100100 d"
b101000 g
b101000 E"
b1110000111111001110110011 >
b1110000111111001110110011 9#
b1110000111111001110110011 R#
b1110000111111001110110011 M"
b101100 ?
b101100 N"
b1011 z"
b110000 T
b101100 !
b101100 U
b101100 O#
b101100 U#
b1101 '
1"
#130000
0"
