wave.vcd
$date
	Tue Mar 10 13:48:12 2026
$end
$version
	Icarus Verilog
$end
$timescale
	1ps
$end
$scope module tb_top $end
$var wire 32 ! pc [31:0] $end
$var reg 1 " clk $end
$var reg 32 # last_x11 [31:0] $end
$var reg 32 $ last_x15 [31:0] $end
$var reg 32 % last_x16 [31:0] $end
$var reg 32 & last_x5 [31:0] $end
$var reg 32 ' last_x8 [31:0] $end
$var reg 1 ( load_in_ex $end
$var reg 5 ) load_rd [4:0] $end
$var reg 1 * rst_n $end
$var integer 32 + cycle [31:0] $end
$scope module u_cpu $end
$var wire 1 , branch_taken $end
$var wire 1 " clk $end
$var wire 32 - ex_mem_alu_result [31:0] $end
$var wire 1 . ex_mem_branch_taken $end
$var wire 3 / ex_mem_funct3 [2:0] $end
$var wire 1 0 ex_mem_jump_taken $end
$var wire 1 1 ex_mem_mem_to_reg $end
$var wire 1 2 ex_mem_mem_write $end
$var wire 32 3 ex_mem_pc_plus4 [31:0] $end
$var wire 5 4 ex_mem_rd_addr [4:0] $end
$var wire 1 5 ex_mem_reg_write $end
$var wire 32 6 ex_mem_rs2_data [31:0] $end
$var wire 1 7 flush_if_id $end
$var wire 2 8 id_ex_alu_a_sel [1:0] $end
$var wire 4 9 id_ex_alu_ctrl [3:0] $end
$var wire 1 : id_ex_enable $end
$var wire 3 ; id_ex_funct3 [2:0] $end
$var wire 1 < id_ex_mem_to_reg $end
$var wire 1 = id_ex_mem_write $end
$var wire 5 > id_ex_rd_addr [4:0] $end
$var wire 1 ? id_ex_reg_write $end
$var wire 5 @ id_ex_rs1_addr [4:0] $end
$var wire 5 A id_ex_rs2_addr [4:0] $end
$var wire 32 B if_id_instr [31:0] $end
$var wire 32 C if_id_pc_plus4 [31:0] $end
$var wire 32 D jalr_target [31:0] $end
$var wire 1 E jump_taken $end
$var wire 32 F mem_wb_alu_result [31:0] $end
$var wire 32 G mem_wb_mem_rdata [31:0] $end
$var wire 1 H mem_wb_mem_to_reg $end
$var wire 5 I mem_wb_rd_addr [4:0] $end
$var wire 1 J mem_wb_reg_write $end
$var wire 32 K next_pc [31:0] $end
$var wire 1 * rst_n $end
$var wire 1 L zero $end
$var wire 32 M write_data [31:0] $end
$var wire 2 N wb_sel [1:0] $end
$var wire 32 O target [31:0] $end
$var wire 1 P stall_pc $end
$var wire 1 Q stall_if_id $end
$var wire 32 R rs2_data [31:0] $end
$var wire 32 S rs1_data [31:0] $end
$var wire 1 T reg_write $end
$var wire 32 U pc_plus4 [31:0] $end
$var wire 32 V pc [31:0] $end
$var wire 1 W mem_write $end
$var wire 32 X mem_rdata [31:0] $end
$var wire 32 Y jump_target [31:0] $end
$var wire 1 Z jalr $end
$var wire 32 [ jal_target [31:0] $end
$var wire 1 \ jal $end
$var wire 32 ] instr [31:0] $end
$var wire 3 ^ imm_sel [2:0] $end
$var wire 32 _ imm [31:0] $end
$var wire 32 ` id_ex_rs2_data [31:0] $end
$var wire 32 a id_ex_rs1_data [31:0] $end
$var wire 32 b id_ex_pc_plus4 [31:0] $end
$var wire 1 c id_ex_jalr $end
$var wire 1 d id_ex_jal $end
$var wire 32 e id_ex_imm [31:0] $end
$var wire 1 f id_ex_branch $end
$var wire 1 g id_ex_alu_src $end
$var wire 3 h funct3 [2:0] $end
$var wire 2 i forward_b [1:0] $end
$var wire 2 j forward_a [1:0] $end
$var wire 1 k flush_id_ex $end
$var wire 32 l ex_mem_jump_target [31:0] $end
$var wire 32 m ex_mem_branch_target [31:0] $end
$var wire 32 n branch_target [31:0] $end
$var wire 1 o branch $end
$var wire 1 p br_taken $end
$var wire 32 q alu_src2_rs2 [31:0] $end
$var wire 32 r alu_src2 [31:0] $end
$var wire 32 s alu_src1 [31:0] $end
$var wire 1 t alu_src $end
$var wire 32 u alu_result [31:0] $end
$var wire 2 v alu_op [1:0] $end
$var wire 4 w alu_ctrl [3:0] $end
$var wire 2 x alu_a_sel [1:0] $end
$var reg 32 y ex_mem_alu_result_reg [31:0] $end
$var reg 1 z ex_mem_branch_taken_reg $end
$var reg 32 { ex_mem_branch_target_reg [31:0] $end
$var reg 3 | ex_mem_funct3_reg [2:0] $end
$var reg 1 } ex_mem_jump_taken_reg $end
$var reg 32 ~ ex_mem_jump_target_reg [31:0] $end
$var reg 1 !" ex_mem_mem_to_reg_reg $end
$var reg 1 "" ex_mem_mem_write_reg $end
$var reg 32 #" ex_mem_pc_plus4_reg [31:0] $end
$var reg 5 $" ex_mem_rd_addr_reg [4:0] $end
$var reg 1 %" ex_mem_reg_write_reg $end
$var reg 32 &" ex_mem_rs2_data_reg [31:0] $end
$var reg 2 '" id_ex_alu_a_sel_reg [1:0] $end
$var reg 4 (" id_ex_alu_ctrl_reg [3:0] $end
$var reg 1 g id_ex_alu_src_reg $end
$var reg 1 f id_ex_branch_reg $end
$var reg 3 )" id_ex_funct3_reg [2:0] $end
$var reg 32 *" id_ex_imm_reg [31:0] $end
$var reg 1 d id_ex_jal_reg $end
$var reg 1 c id_ex_jalr_reg $end
$var reg 1 +" id_ex_mem_to_reg_reg $end
$var reg 1 ," id_ex_mem_write_reg $end
$var reg 32 -" id_ex_pc_plus4_reg [31:0] $end
$var reg 5 ." id_ex_rd_addr_reg [4:0] $end
$var reg 1 /" id_ex_reg_write_reg $end
$var reg 5 0" id_ex_rs1_addr_reg [4:0] $end
$var reg 32 1" id_ex_rs1_data_reg [31:0] $end
$var reg 5 2" id_ex_rs2_addr_reg [4:0] $end
$var reg 32 3" id_ex_rs2_data_reg [31:0] $end
$var reg 32 4" if_id_instr_reg [31:0] $end
$var reg 32 5" if_id_pc_plus4_reg [31:0] $end
$var reg 32 6" mem_wb_alu_result_reg [31:0] $end
$var reg 32 7" mem_wb_mem_rdata_reg [31:0] $end
$var reg 1 8" mem_wb_mem_to_reg_reg $end
$var reg 5 9" mem_wb_rd_addr_reg [4:0] $end
$var reg 1 :" mem_wb_reg_write_reg $end
$scope module alu_ctrl_inst $end
$var wire 3 ;" funct3 [2:0] $end
$var wire 7 <" funct7 [6:0] $end
$var wire 2 =" alu_op [1:0] $end
$var reg 4 >" alu_ctrl [3:0] $end
$upscope $end
$scope module alu_inst $end
$var wire 32 ?" a [31:0] $end
$var wire 4 @" alu_ctrl [3:0] $end
$var wire 32 A" b [31:0] $end
$var wire 1 L zero $end
$var reg 32 B" result [31:0] $end
$upscope $end
$scope module br_comp $end
$var wire 3 C" funct3 [2:0] $end
$var wire 32 D" rs1_data [31:0] $end
$var wire 32 E" rs2_data [31:0] $end
$var reg 1 p br_taken $end
$upscope $end
$scope module ctrl_inst $end
$var wire 3 F" funct3 [2:0] $end
$var wire 7 G" funct7 [6:0] $end
$var wire 7 H" opcode [6:0] $end
$var reg 2 I" alu_a_sel [1:0] $end
$var reg 2 J" alu_op [1:0] $end
$var reg 1 t alu_src $end
$var reg 1 o branch $end
$var reg 3 K" imm_sel [2:0] $end
$var reg 1 \ jal $end
$var reg 1 Z jalr $end
$var reg 1 L" mem_read $end
$var reg 1 W mem_write $end
$var reg 1 T reg_write $end
$var reg 2 M" wb_sel [1:0] $end
$upscope $end
$scope module dmem_inst $end
$var wire 32 N" addr [31:0] $end
$var wire 1 " clk $end
$var wire 3 O" funct3 [2:0] $end
$var wire 32 P" wdata [31:0] $end
$var wire 1 2 we $end
$var reg 32 Q" rdata [31:0] $end
$upscope $end
$scope module fwd_unit $end
$var wire 5 R" ex_mem_rd [4:0] $end
$var wire 1 %" ex_mem_reg_write $end
$var wire 5 S" id_ex_rs1 [4:0] $end
$var wire 5 T" id_ex_rs2 [4:0] $end
$var wire 5 U" mem_wb_rd [4:0] $end
$var wire 1 :" mem_wb_reg_write $end
$var reg 2 V" forward_a [1:0] $end
$var reg 2 W" forward_b [1:0] $end
$upscope $end
$scope module hazard $end
$var wire 1 z branch_taken $end
$var wire 1 < id_ex_mem_read $end
$var wire 5 X" id_ex_rd [4:0] $end
$var wire 5 Y" if_id_rs1 [4:0] $end
$var wire 5 Z" if_id_rs2 [4:0] $end
$var wire 1 } jump_taken $end
$var reg 1 k flush_id_ex $end
$var reg 1 [" flush_if_id $end
$var reg 1 Q stall_if_id $end
$var reg 1 P stall_pc $end
$upscope $end
$scope module imem_inst $end
$var wire 32 \" addr [31:0] $end
$var reg 32 ]" instr [31:0] $end
$upscope $end
$scope module imm_inst $end
$var wire 3 ^" immsel [2:0] $end
$var wire 32 _" instr [31:0] $end
$var reg 32 `" imm [31:0] $end
$upscope $end
$scope module pc_inst $end
$var wire 1 " clk $end
$var wire 32 a" next_pc [31:0] $end
$var wire 1 * rst_n $end
$var wire 1 P stall $end
$var reg 32 b" pc [31:0] $end
$upscope $end
$scope module reg_inst $end
$var wire 1 " clk $end
$var wire 5 c" rd_addr [4:0] $end
$var wire 32 d" rd_data [31:0] $end
$var wire 5 e" rs1_addr [4:0] $end
$var wire 5 f" rs2_addr [4:0] $end
$var wire 1 :" we $end
$var wire 32 g" rs2_data [31:0] $end
$var wire 32 h" rs1_data [31:0] $end
$var integer 32 i" i [31:0] $end
$upscope $end
$upscope $end
$upscope $end
$enddefinitions $end
$comment Show the parameter values. $end
$dumpall
$end
#0
$dumpvars
b100000 i"
b0 h"
b0 g"
b0 f"
b0 e"
b0 d"
b0 c"
b0 b"
b100 a"
b0 `"
b10011 _"
b0 ^"
b101000000000000010010011 ]"
b0 \"
0["
b0 Z"
b0 Y"
b0 X"
b0 W"
b0 V"
b0 U"
b0 T"
b0 S"
b0 R"
bx Q"
b0 P"
b0 O"
b0 N"
b0 M"
0L"
b0 K"
b11 J"
b0 I"
b10011 H"
b0 G"
b0 F"
b0 E"
b0 D"
b0 C"
b0 B"
b0 A"
b0 @"
b0 ?"
b0 >"
b11 ="
b0 <"
b0 ;"
0:"
b0 9"
08"
b0 7"
b0 6"
b0 5"
b10011 4"
b0 3"
b0 2"
b0 1"
b0 0"
0/"
b0 ."
b0 -"
0,"
0+"
b0 *"
b0 )"
b0 ("
b0 '"
b0 &"
0%"
b0 $"
b0 #"
0""
0!"
b0 ~
0}
b0 |
b0 {
0z
b0 y
b0 x
b0 w
b11 v
b0 u
1t
b0 s
b0 r
b0 q
1p
0o
b0 n
b0 m
b0 l
0k
b0 j
b0 i
b0 h
0g
0f
b0 e
0d
0c
b0 b
b0 a
b0 `
b0 _
b0 ^
b101000000000000010010011 ]
0\
b0 [
0Z
b0 Y
bx X
0W
b0 V
b100 U
1T
b0 S
b0 R
0Q
0P
b100 O
b0 N
b0 M
1L
b100 K
0J
b0 I
0H
b0 G
b0 F
0E
b0 D
b0 C
b10011 B
b0 A
b0 @
0?
b0 >
0=
0<
b0 ;
1:
b0 9
b0 8
07
b0 6
05
b0 4
b0 3
02
01
00
b0 /
0.
b0 -
0,
b0 +
0*
b0 )
0(
b0 '
b0 &
b0 %
b0 $
b0 #
0"
b0 !
$end
#5000
b1 +
1"
#10000
0"
#15000
b10 +
1"
#20000
0"
1*
#25000
b1000 K
b1000 a"
b1000 O
b1010 f"
b1010 Z"
b1010 _
b1010 `"
b1010000000000000100010011 ]
b1010000000000000100010011 ]"
bx G
bx 7"
1?
1/"
1g
b101000000000000010010011 B
b101000000000000010010011 _"
b101000000000000010010011 4"
b100 C
b100 5"
b1000 U
b100 !
b100 V
b100 \"
b100 b"
b11 +
1"
#30000
0"
#35000
b1100 K
b1100 a"
b1100 O
0L
b1010 u
b1010 B"
b110010011 ]
b110010011 ]"
b10100 f"
b10100 Z"
b10100 _
b10100 `"
b1010 r
b1010 A"
b1010 D
b1110 Y
b1100 U
b1000 !
b1000 V
b1000 \"
b1000 b"
b1010000000000000100010011 B
b1010000000000000100010011 _"
b1010000000000000100010011 4"
b1000 C
b1000 5"
b1 >
b1 X"
b1 ."
b1010 A
b1010 T"
b1010 2"
b1010 e
b1010 *"
b1110 n
b1110 [
b100 b
b100 -"
15
1%"
b100 +
1"
#40000
0"
#45000
b10100 u
b10100 B"
b10000 K
b10000 a"
b10000 O
b10100 r
b10100 A"
b10100 D
b11100 Y
b0 f"
b0 Z"
b0 _
b0 `"
b1000001000001000110011 ]
b1000001000001000110011 ]"
1J
1:"
b1110 l
b1110 ~
b1110 m
b1110 {
b1 4
b1 $"
b1 R"
b100 3
b100 #"
b1010 -
b1010 N"
b1010 y
b10 >
b10 X"
b10 ."
b10100 A
b10100 T"
b10100 2"
b10100 e
b10100 *"
b11100 n
b11100 [
b1000 b
b1000 -"
b110010011 B
b110010011 _"
b110010011 4"
b1100 C
b1100 5"
b10000 U
b1100 !
b1100 V
b1100 \"
b1100 b"
b101 +
1"
#50000
0"
#55000
b1010 S
b1010 h"
b10100 K
b10100 a"
b10100 O
b10 v
b10 ="
b10 J"
0t
1T
1L
b0 u
b0 B"
b100100000001010110011 ]
b100100000001010110011 ]"
b1 e"
b10 f"
b110011 H"
b1 Y"
b10 Z"
b10 _
b10 `"
b0 r
b0 A"
b0 D
b1100 Y
b1010 M
b1010 d"
b10100 U
b10000 !
b10000 V
b10000 \"
b10000 b"
b1000001000001000110011 B
b1000001000001000110011 _"
b1000001000001000110011 4"
b10000 C
b10000 5"
b11 >
b11 X"
b11 ."
b0 A
b0 T"
b0 2"
b0 e
b0 *"
b1100 n
b1100 [
b1100 b
b1100 -"
b11100 l
b11100 ~
b11100 m
b11100 {
b10 4
b10 $"
b10 R"
b1000 3
b1000 #"
b10100 -
b10100 N"
b10100 y
b1 I
b1 9"
b1 U"
b1 c"
b1010 F
b1010 6"
b110 +
1"
#60000
0"
#65000
b10100 r
b10100 A"
b10100 q
b10100 E"
b1010 R
b1010 g"
b0 S
b0 h"
0L
b11110 u
b11110 B"
0p
b11000 K
b11000 a"
b11000 O
b10100 M
b10100 d"
b10 i
b10 W"
b1100 D
b1010 s
b1010 ?"
b1010 D"
b10010 Y
b100 e"
b1 f"
b100 Y"
b1 Z"
b1 _
b1 `"
b110010000000000001100010011 ]
b110010000000000001100010011 ]"
b10 I
b10 9"
b10 U"
b10 c"
b10100 F
b10100 6"
b1100 l
b1100 ~
b1100 m
b1100 {
b11 4
b11 $"
b11 R"
b1100 3
b1100 #"
b0 -
b0 N"
b0 y
0g
b100 >
b100 X"
b100 ."
b10 A
b10 T"
b10 2"
b1 @
b1 S"
b1 0"
b10 e
b10 *"
b1010 a
b1010 1"
b10010 n
b10010 [
b10000 b
b10000 -"
b100100000001010110011 B
b100100000001010110011 _"
b100100000001010110011 4"
b10100 C
b10100 5"
b11000 U
b10100 !
b10100 V
b10100 \"
b10100 b"
b111 +
1"
#70000
0"
#75000
b0 R
b0 g"
b1010 r
b1010 A"
b11100 K
b11100 a"
b11100 O
1t
b11 v
b11 ="
b11 J"
1T
b101000 u
b101000 B"
b1010 q
b1010 E"
b11000011010000000100011 ]
b11000011010000000100011 ]"
b0 e"
b100 f"
b10011 H"
b11 G"
b11 <"
b0 Y"
b100 Z"
b1100100 _
b1100100 `"
b11110 D
b11110 s
b11110 ?"
b11110 D"
b10101 Y
b1 j
b1 V"
b0 i
b0 W"
b0 M
b0 d"
b11100 U
b11000 !
b11000 V
b11000 \"
b11000 b"
b110010000000000001100010011 B
b110010000000000001100010011 _"
b110010000000000001100010011 4"
b11000 C
b11000 5"
b101 >
b101 X"
b101 ."
b1 A
b1 T"
b1 2"
b100 @
b100 S"
b100 0"
b1 e
b1 *"
b1010 `
b1010 3"
b0 a
b0 1"
b10101 n
b10101 [
b10100 b
b10100 -"
b10010 l
b10010 ~
b10010 m
b10010 {
b100 4
b100 $"
b100 R"
b10000 3
b10000 #"
b10100 6
b10100 P"
b10100 &"
b11110 -
b11110 N"
b11110 y
b11 I
b11 9"
b11 U"
b11 c"
b0 F
b0 6"
b1000 +
1"
#80000
0"
#85000
0p
b1100100 u
b1100100 B"
b0 s
b0 ?"
b0 D"
b1 ^
b1 K"
b1 ^"
1W
b0 v
b0 ="
b0 J"
1t
0T
b0 w
b0 >"
b100000 K
b100000 a"
b100000 O
b11110 M
b11110 d"
b1100100 r
b1100100 A"
b10 i
b10 W"
b0 j
b0 V"
b1100100 D
b11110 q
b11110 E"
b1111100 Y
b10 h
b11 e"
b110 f"
b100011 H"
b10 F"
b0 G"
b10 ;"
b0 <"
b11 Y"
b110 Z"
b0 _
b0 `"
b11010001110000011 ]
b11010001110000011 ]"
b100 I
b100 9"
b100 U"
b100 c"
b11110 F
b11110 6"
b10101 l
b10101 ~
b10101 m
b10101 {
b101 4
b101 $"
b101 R"
b10100 3
b10100 #"
b1010 6
b1010 P"
b1010 &"
b101000 -
b101000 N"
b101000 y
1g
b110 >
b110 X"
b110 ."
b100 A
b100 T"
b100 2"
b0 @
b0 S"
b0 0"
b1100100 e
b1100100 *"
b0 `
b0 3"
b1111100 n
b1111100 [
b11000 b
b11000 -"
b11000011010000000100011 B
b11000011010000000100011 _"
b11000011010000000100011 4"
b11100 C
b11100 5"
b100000 U
b11100 !
b11100 V
b11100 \"
b11100 b"
b1001 +
1"
#90000
0"
#95000
b1100100 q
b1100100 E"
b100100 K
b100100 a"
b100100 O
b1 N
b1 M"
1L"
1T
b0 ^
b0 K"
b0 ^"
0W
1t
1L
b0 u
b0 B"
b10100111000010000010011 ]
b10100111000010000010011 ]"
b0 f"
b11 H"
b0 Z"
b0 _
b0 `"
b0 r
b0 A"
b0 D
b11100 Y
b1 i
b1 W"
b101000 M
b101000 d"
b100100 U
b100000 !
b100000 V
b100000 \"
b100000 b"
b11010001110000011 B
b11010001110000011 _"
b11010001110000011 4"
b100000 C
b100000 5"
b10 ;
b10 C"
b10 )"
0?
0/"
1=
1,"
b0 >
b0 X"
b0 ."
b110 A
b110 T"
b110 2"
b11 @
b11 S"
b11 0"
b0 e
b0 *"
b11100 n
b11100 [
b11100 b
b11100 -"
b1111100 l
b1111100 ~
b1111100 m
b1111100 {
b110 4
b110 $"
b110 R"
b11000 3
b11000 #"
b11110 6
b11110 P"
b11110 &"
b1100100 -
b1100100 N"
b1100100 y
b101 I
b101 9"
b101 U"
b101 c"
b101000 F
b101000 6"
b1010 +
1"
#100000
0"
#105000
b101000 R
b101000 g"
b0 q
b0 E"
b11 v
b11 ="
b11 J"
b0 N
b0 M"
0L"
1t
1T
b101000 K
b101000 a"
b101000 O
b1100100 M
b1100100 d"
1k
1Q
1P
b0 i
b0 W"
b100000 Y
b0 h
b111 e"
b101 f"
b10011 H"
b0 F"
b0 ;"
b111 Y"
b101 Z"
b101 _
b101 `"
b100000000010010010011 ]
b100000000010010010011 ]"
b110 I
b110 9"
b110 U"
b110 c"
b1100100 F
b1100100 6"
b10 /
b10 O"
b10 |
b11100 l
b11100 ~
b11100 m
b11100 {
05
0%"
12
1""
b0 4
b0 $"
b0 R"
b11100 3
b11100 #"
b1100100 6
b1100100 P"
b1100100 &"
b0 -
b0 N"
b0 y
1?
1/"
1<
1+"
0=
0,"
b111 >
b111 X"
b111 ."
b0 A
b0 T"
b0 2"
b100000 n
b100000 [
b100000 b
b100000 -"
b10100111000010000010011 B
b10100111000010000010011 _"
b10100111000010000010011 4"
b100100 C
b100100 5"
b101000 U
b100100 !
b100100 V
b100100 \"
b100100 b"
b1011 +
1"
#106000
b101000 &
1(
b111 )
#110000
0"
#115000
b1100100 X
b1100100 Q"
1p
0k
0Q
0P
b0 Y
b0 M
b0 d"
b0 ;
b0 C"
b0 )"
0?
0/"
0<
0+"
0g
b0 >
b0 X"
b0 ."
b0 @
b0 S"
b0 0"
b0 n
b0 [
b0 b
b0 -"
b100000 l
b100000 ~
b100000 m
b100000 {
15
1%"
11
1!"
02
0""
b111 4
b111 $"
b111 R"
b100000 3
b100000 #"
b0 6
b0 P"
b0 &"
0J
0:"
b0 I
b0 9"
b0 U"
b0 c"
b0 F
b0 6"
b1100 +
1"
#116000
0(
#120000
0"
#125000
b1100100 s
b1100100 ?"
b1100100 D"
b1010 R
b1010 g"
0L
b1101001 u
b1101001 B"
0p
b101100 K
b101100 a"
b101100 O
b1100100 M
b1100100 d"
b101 r
b101 A"
b10 j
b10 V"
b1101000 D
b101000 q
b101000 E"
b101001 Y
b0 e"
b1 f"
b0 Y"
b1 Z"
b1 _
b1 `"
b1000000000010100010011 ]
b1000000000010100010011 ]"
1J
1:"
1H
18"
b111 I
b111 9"
b111 U"
b111 c"
b1100100 G
b1100100 7"
b0 /
b0 O"
b0 |
b0 l
b0 ~
b0 m
b0 {
05
0%"
01
0!"
b0 4
b0 $"
b0 R"
b0 3
b0 #"
1?
1/"
1g
b1000 >
b1000 X"
b1000 ."
b101 A
b101 T"
b101 2"
b111 @
b111 S"
b111 0"
b101 e
b101 *"
b101000 `
b101000 3"
b101001 n
b101001 [
b100100 b
b100100 -"
b100000000010010010011 B
b100000000010010010011 _"
b100000000010010010011 4"
b101000 C
b101000 5"
b101100 U
b101000 !
b101000 V
b101000 \"
b101000 b"
b1101 +
1"
#130000
0"
#135000
b10100 R
b10100 g"
b110000 K
b110000 a"
b110000 O
b1 u
b1 B"
b0 s
b0 ?"
b0 D"
b101001001000010001100011 ]
b101001001000010001100011 ]"
b10 f"
b10 Z"
b10 _
b10 `"
b1 r
b1 A"
b0 D
b1010 q
b1010 E"
bx X
bx Q"
b0 M
b0 d"
b0 j
b0 V"
b110000 U
b101100 !
b101100 V
b101100 \"
b101100 b"
b1000000000010100010011 B
b1000000000010100010011 _"
b1000000000010100010011 4"
b101100 C
b101100 5"
b1001 >
b1001 X"
b1001 ."
b1 A
b1 T"
b1 2"
b0 @
b0 S"
b0 0"
b1 e
b1 *"
b1010 `
b1010 3"
b101001 n
b101001 [
b101000 b
b101000 -"
b101001 l
b101001 ~
b101001 m
b101001 {
15
1%"
b1000 4
b1000 $"
b1000 R"
b100100 3
b100100 #"
b101000 6
b101000 P"
b101000 &"
b1101001 -
b1101001 N"
b1101001 y
0J
0:"
0H
08"
b0 I
b0 9"
b0 U"
b0 c"
b1110 +
1"
#140000
0"
#145000
b0 R
b0 g"
b1 w
b1 >"
b10 u
b10 B"
b10 ^
b10 K"
b10 ^"
1o
b1 v
b1 ="
b1 J"
0t
0T
b110100 K
b110100 a"
b110100 O
b1101001 M
b1101001 d"
b0 X
b0 Q"
b10 r
b10 A"
b10 D
b10100 q
b10100 E"
b101110 Y
b1001 e"
b1010 f"
b1100011 H"
b1001 Y"
b1010 Z"
b1000 _
b1000 `"
b1100000000010110010011 ]
b1100000000010110010011 ]"
1J
1:"
b1000 I
b1000 9"
b1000 U"
b1000 c"
bx G
bx 7"
b1101001 F
b1101001 6"
b1001 4
b1001 $"
b1001 R"
b101000 3
b101000 #"
b1010 6
b1010 P"
b1010 &"
b1 -
b1 N"
b1 y
b1010 >
b1010 X"
b1010 ."
b10 A
b10 T"
b10 2"
b10 e
b10 *"
b10100 `
b10100 3"
b101110 n
b101110 [
b101100 b
b101100 -"
b101001001000010001100011 B
b101001001000010001100011 _"
b101001001000010001100011 4"
b110000 C
b110000 5"
b110100 U
b110000 !
b110000 V
b110000 \"
b110000 b"
b1111 +
1"
#150000
0"
#155000
b1 s
b1 ?"
b1 D"
b0 w
b0 >"
0,
b111000 K
b111000 a"
b111000 O
1t
1T
b0 ^
b0 K"
b0 ^"
b11 v
b11 ="
b11 J"
0o
0p
b10000000000011000010011 ]
b10000000000011000010011 ]"
b0 e"
b11 f"
b10011 H"
b0 Y"
b11 Z"
b11 _
b11 `"
0L
b11111111111111111111111111111111 u
b11111111111111111111111111111111 B"
b10 r
b10 A"
b1000 D
b10 q
b10 E"
b111000 Y
b1 i
b1 W"
b10 j
b10 V"
b1 M
b1 d"
b111000 U
b110100 !
b110100 V
b110100 \"
b110100 b"
b1100000000010110010011 B
b1100000000010110010011 _"
b1100000000010110010011 4"
b110100 C
b110100 5"
1f
0?
0/"
0g
b1 9
b1 @"
b1 ("
b1000 >
b1000 X"
b1000 ."
b1010 A
b1010 T"
b1010 2"
b1001 @
b1001 S"
b1001 0"
b1000 e
b1000 *"
b0 `
b0 3"
b111000 n
b111000 [
b110000 b
b110000 -"
b101110 l
b101110 ~
b101110 m
b101110 {
b1010 4
b1010 $"
b1010 R"
b101100 3
b101100 #"
b10100 6
b10100 P"
b10100 &"
b10 -
b10 N"
b10 y
b1001 I
b1001 9"
b1001 U"
b1001 c"
b0 G
b0 7"
b1 F
b1 6"
b10000 +
1"
#156000
b1101001 '
#160000
0"
#165000
1p
b11110 R
b11110 g"
b0 q
b0 E"
b0 s
b0 ?"
b0 D"
b111100 K
b111100 a"
b111100 O
b10 M
b10 d"
bx X
bx Q"
b11 r
b11 A"
b11 u
b11 B"
b0 i
b0 W"
b0 j
b0 V"
b10 D
b110111 Y
b100 f"
b100 Z"
b100 _
b100 `"
b11100000000011010010011 ]
b11100000000011010010011 ]"
b1010 I
b1010 9"
b1010 U"
b1010 c"
b10 F
b10 6"
b111000 l
b111000 ~
b111000 m
b111000 {
05
0%"
b1000 4
b1000 $"
b1000 R"
b110000 3
b110000 #"
b10 6
b10 P"
b10 &"
b11111111111111111111111111111111 -
b11111111111111111111111111111111 N"
b11111111111111111111111111111111 y
0f
1?
1/"
1g
b0 9
b0 @"
b0 ("
b1011 >
b1011 X"
b1011 ."
b11 A
b11 T"
b11 2"
b0 @
b0 S"
b0 0"
b11 e
b11 *"
b110111 n
b110111 [
b110100 b
b110100 -"
b10000000000011000010011 B
b10000000000011000010011 _"
b10000000000011000010011 4"
b111000 C
b111000 5"
b111100 U
b111000 !
b111000 V
b111000 \"
b111000 b"
b10001 +
1"
#170000
0"
#175000
b1100100 R
b1100100 g"
b1000000 K
b1000000 a"
b1000000 O
b100 u
b100 B"
0p
b101101000011100010011 ]
b101101000011100010011 ]"
b111 f"
b111 Z"
b111 _
b111 `"
b100 r
b100 A"
b100 D
b11110 q
b11110 E"
b111100 Y
b0 X
b0 Q"
b11111111111111111111111111111111 M
b11111111111111111111111111111111 d"
b1000000 U
b111100 !
b111100 V
b111100 \"
b111100 b"
b11100000000011010010011 B
b11100000000011010010011 _"
b11100000000011010010011 4"
b111100 C
b111100 5"
b1100 >
b1100 X"
b1100 ."
b100 A
b100 T"
b100 2"
b100 e
b100 *"
b11110 `
b11110 3"
b111100 n
b111100 [
b111000 b
b111000 -"
b110111 l
b110111 ~
b110111 m
b110111 {
15
1%"
b1011 4
b1011 $"
b1011 R"
b110100 3
b110100 #"
b0 6
b0 P"
b0 &"
b11 -
b11 N"
b11 y
0J
0:"
b1000 I
b1000 9"
b1000 U"
b1000 c"
bx G
bx 7"
b11111111111111111111111111111111 F
b11111111111111111111111111111111 6"
b10010 +
1"
#180000
0"
#185000
b1010 R
b1010 g"
b111 u
b111 B"
b1000100 K
b1000100 a"
b1000100 O
b11 M
b11 d"
bx X
bx Q"
b111 r
b111 A"
b110 D
b1100100 q
b1100100 E"
b1000011 Y
b1101 e"
b1 f"
b1101 Y"
b1 Z"
b1 _
b1 `"
b110101110000011110110011 ]
b110101110000011110110011 ]"
1J
1:"
b1011 I
b1011 9"
b1011 U"
b1011 c"
b0 G
b0 7"
b11 F
b11 6"
b111100 l
b111100 ~
b111100 m
b111100 {
b1100 4
b1100 $"
b1100 R"
b111000 3
b111000 #"
b11110 6
b11110 P"
b11110 &"
b100 -
b100 N"
b100 y
b1101 >
b1101 X"
b1101 ."
b111 A
b111 T"
b111 2"
b111 e
b111 *"
b1100100 `
b1100100 3"
b1000011 n
b1000011 [
b111100 b
b111100 -"
b101101000011100010011 B
b101101000011100010011 _"
b101101000011100010011 4"
b1000000 C
b1000000 5"
b1000100 U
b1000000 !
b1000000 V
b1000000 \"
b1000000 b"
b10011 +
1"
#190000
0"
#195000
b0 R
b0 g"
b111 s
b111 ?"
b111 D"
b1001000 K
b1001000 a"
b1001000 O
b10 v
b10 ="
b10 J"
0t
1T
b1000 u
b1000 B"
b100000101000100000110011 ]
b100000101000100000110011 ]"
b1110 e"
b1101 f"
b110011 H"
b1110 Y"
b1101 Z"
b1101 _
b1101 `"
b1 r
b1 A"
b1000 D
b1010 q
b1010 E"
b1000001 Y
b1 j
b1 V"
b100 M
b100 d"
b1001000 U
b1000100 !
b1000100 V
b1000100 \"
b1000100 b"
b110101110000011110110011 B
b110101110000011110110011 _"
b110101110000011110110011 4"
b1000100 C
b1000100 5"
b1110 >
b1110 X"
b1110 ."
b1 A
b1 T"
b1 2"
b1101 @
b1101 S"
b1101 0"
b1 e
b1 *"
b1010 `
b1010 3"
b1000001 n
b1000001 [
b1000000 b
b1000000 -"
b1000011 l
b1000011 ~
b1000011 m
b1000011 {
b1101 4
b1101 $"
b1101 R"
b111100 3
b111100 #"
b1100100 6
b1100100 P"
b1100100 &"
b111 -
b111 N"
b111 y
b1100 I
b1100 9"
b1100 U"
b1100 c"
bx G
bx 7"
b100 F
b100 6"
b10100 +
1"
#196000
b11 #
#200000
0"
