wave.vcd
$date
	Sat Mar 14 11:01:12 2026
$end
$version
	Icarus Verilog
$end
$timescale
	1ps
$end
$scope module tb_top $end
$var wire 1 ! csr_flush $end
$var wire 32 " dmem_addr [31:0] $end
$var wire 32 # ex_mem_alu_result [31:0] $end
$var wire 1 $ ex_mem_jump_taken_reg $end
$var wire 32 % ex_mem_jump_target_reg [31:0] $end
$var wire 1 & ex_mem_mem_write $end
$var wire 32 ' ex_mem_rs2_data [31:0] $end
$var wire 1 ( flush_id_ex_orig $end
$var wire 1 ) id_ex_enable $end
$var wire 32 * id_ex_imm_reg [31:0] $end
$var wire 1 + id_ex_jal_reg $end
$var wire 32 , id_ex_pc_plus4 [31:0] $end
$var wire 32 - if_id_instr_reg [31:0] $end
$var wire 1 . jump_taken $end
$var wire 32 / jump_target [31:0] $end
$var wire 5 0 mem_wb_rd_addr [4:0] $end
$var wire 1 1 mem_wb_reg_write $end
$var wire 32 2 mem_wb_wr_data [31:0] $end
$var wire 1 3 mmu_busy $end
$var wire 32 4 mtime [31:0] $end
$var wire 32 5 mtimecmp [31:0] $end
$var wire 32 6 next_pc [31:0] $end
$var wire 32 7 target [31:0] $end
$var wire 1 8 timer_irq $end
$var wire 1 9 timer_we $end
$var wire 32 : x10 [31:0] $end
$var wire 32 ; pc [31:0] $end
$var reg 1 < clk $end
$var reg 1 = int_ext $end
$var reg 1 > int_soft $end
$var reg 1 ? int_timer $end
$var reg 1 @ jal_detected $end
$var reg 32 A jal_pc [31:0] $end
$var reg 1 B rst_n $end
$var integer 32 C cycle [31:0] $end
$scope module u_cpu $end
$var wire 1 D branch_taken $end
$var wire 1 < clk $end
$var wire 1 E dmem_we $end
$var wire 32 F ex_mem_alu_result [31:0] $end
$var wire 1 G ex_mem_branch_taken $end
$var wire 3 H ex_mem_funct3 [2:0] $end
$var wire 1 I ex_mem_jump_taken $end
$var wire 32 J ex_mem_jump_target [31:0] $end
$var wire 1 K ex_mem_mem_to_reg $end
$var wire 1 L ex_mem_mem_write $end
$var wire 32 M ex_mem_pc_plus4 [31:0] $end
$var wire 5 N ex_mem_rd_addr [4:0] $end
$var wire 1 O ex_mem_reg_write $end
$var wire 32 P ex_mem_rs2_data [31:0] $end
$var wire 1 Q flush_if_id $end
$var wire 2 R id_ex_alu_a_sel [1:0] $end
$var wire 4 S id_ex_alu_ctrl [3:0] $end
$var wire 1 T id_ex_enable $end
$var wire 3 U id_ex_funct3 [2:0] $end
$var wire 32 V id_ex_imm [31:0] $end
$var wire 1 W id_ex_jal $end
$var wire 1 X id_ex_mem_to_reg $end
$var wire 1 Y id_ex_mem_write $end
$var wire 5 Z id_ex_rd_addr [4:0] $end
$var wire 1 [ id_ex_reg_write $end
$var wire 5 \ id_ex_rs2_addr [4:0] $end
$var wire 32 ] if_id_instr [31:0] $end
$var wire 32 ^ if_id_pc_plus4 [31:0] $end
$var wire 1 = int_ext $end
$var wire 1 > int_soft $end
$var wire 1 ? int_timer $end
$var wire 1 _ int_timer_from_timer $end
$var wire 1 ` is_timer_access $end
$var wire 32 a jalr_target [31:0] $end
$var wire 1 b jump_taken $end
$var wire 1 c mem_valid $end
$var wire 32 d mem_wb_alu_result [31:0] $end
$var wire 32 e mem_wb_mem_rdata [31:0] $end
$var wire 1 f mem_wb_mem_to_reg $end
$var wire 5 g mem_wb_rd_addr [4:0] $end
$var wire 1 h mem_wb_reg_write $end
$var wire 1 i mmu_busy $end
$var wire 1 j mmu_start $end
$var wire 1 k mret_taken $end
$var wire 32 l next_pc [31:0] $end
$var wire 1 B rst_n $end
$var wire 1 m sret_taken $end
$var wire 1 n stall_if_id $end
$var wire 1 o stall_pc $end
$var wire 1 p timer_we $end
$var wire 1 q trap_taken $end
$var wire 1 r zero $end
$var wire 32 s write_data [31:0] $end
$var wire 2 t wb_sel [1:0] $end
$var wire 32 u timer_rdata [31:0] $end
$var wire 1 v timer_irq $end
$var wire 32 w target [31:0] $end
$var wire 1 x stall_pc_orig $end
$var wire 1 y stall_if_id_orig $end
$var wire 32 z rs2_data [31:0] $end
$var wire 32 { rs1_data [31:0] $end
$var wire 1 | reg_write $end
$var wire 32 } pc_plus4 [31:0] $end
$var wire 32 ~ pc [31:0] $end
$var wire 1 !" mmu_page_fault $end
$var wire 32 "" mmu_paddr [31:0] $end
$var wire 1 #" mmu_mem_req $end
$var wire 32 $" mmu_mem_addr [31:0] $end
$var wire 1 %" mmu_enable $end
$var wire 1 &" mmu_done $end
$var wire 1 '" mem_write $end
$var wire 32 (" mem_rdata [31:0] $end
$var wire 32 )" jump_target [31:0] $end
$var wire 1 *" jalr $end
$var wire 32 +" jal_target [31:0] $end
$var wire 1 ," jal $end
$var wire 1 -" is_sret $end
$var wire 1 ." is_mret $end
$var wire 1 /" is_ecall $end
$var wire 1 0" is_ebreak $end
$var wire 1 1" is_csr $end
$var wire 32 2" instr [31:0] $end
$var wire 3 3" imm_sel [2:0] $end
$var wire 32 4" imm [31:0] $end
$var wire 32 5" id_ex_rs2_data [31:0] $end
$var wire 32 6" id_ex_rs1_data [31:0] $end
$var wire 5 7" id_ex_rs1_addr [4:0] $end
$var wire 32 8" id_ex_pc_plus4 [31:0] $end
$var wire 1 9" id_ex_jalr $end
$var wire 1 :" id_ex_branch $end
$var wire 1 ;" id_ex_alu_src $end
$var wire 3 <" funct3 [2:0] $end
$var wire 2 =" forward_b [1:0] $end
$var wire 2 >" forward_a [1:0] $end
$var wire 1 ?" flush_id_ex_orig $end
$var wire 32 @" exc_pc [31:0] $end
$var wire 32 A" ex_mem_branch_target [31:0] $end
$var wire 32 B" dmem_rdata [31:0] $end
$var wire 32 C" dmem_addr [31:0] $end
$var wire 32 D" csr_wdata [31:0] $end
$var wire 32 E" csr_trap_pc [31:0] $end
$var wire 1 F" csr_take_trap $end
$var wire 32 G" csr_sepc [31:0] $end
$var wire 32 H" csr_satp [31:0] $end
$var wire 32 I" csr_rdata [31:0] $end
$var wire 2 J" csr_privilege [1:0] $end
$var wire 3 K" csr_op [2:0] $end
$var wire 32 L" csr_mepc [31:0] $end
$var wire 1 M" csr_flush $end
$var wire 32 N" branch_target [31:0] $end
$var wire 1 O" branch $end
$var wire 1 P" br_taken $end
$var wire 32 Q" alu_src2_rs2 [31:0] $end
$var wire 32 R" alu_src2 [31:0] $end
$var wire 32 S" alu_src1 [31:0] $end
$var wire 1 T" alu_src $end
$var wire 32 U" alu_result [31:0] $end
$var wire 2 V" alu_op [1:0] $end
$var wire 4 W" alu_ctrl [3:0] $end
$var wire 2 X" alu_a_sel [1:0] $end
$var reg 32 Y" ex_mem_alu_result_reg [31:0] $end
$var reg 1 Z" ex_mem_branch_taken_reg $end
$var reg 32 [" ex_mem_branch_target_reg [31:0] $end
$var reg 32 \" ex_mem_csr_rdata_reg [31:0] $end
$var reg 3 ]" ex_mem_funct3_reg [2:0] $end
$var reg 1 ^" ex_mem_jump_taken_reg $end
$var reg 32 _" ex_mem_jump_target_reg [31:0] $end
$var reg 1 `" ex_mem_mem_to_reg_reg $end
$var reg 1 a" ex_mem_mem_write_reg $end
$var reg 32 b" ex_mem_pc_plus4_reg [31:0] $end
$var reg 5 c" ex_mem_rd_addr_reg [4:0] $end
$var reg 1 d" ex_mem_reg_write_reg $end
$var reg 32 e" ex_mem_rs2_data_reg [31:0] $end
$var reg 2 f" ex_mem_wb_sel_reg [1:0] $end
$var reg 2 g" id_ex_alu_a_sel_reg [1:0] $end
$var reg 4 h" id_ex_alu_ctrl_reg [3:0] $end
$var reg 1 ;" id_ex_alu_src_reg $end
$var reg 1 :" id_ex_branch_reg $end
$var reg 12 i" id_ex_csr_addr_reg [11:0] $end
$var reg 3 j" id_ex_csr_op_reg [2:0] $end
$var reg 3 k" id_ex_funct3_reg [2:0] $end
$var reg 32 l" id_ex_imm_reg [31:0] $end
$var reg 1 m" id_ex_is_csr_reg $end
$var reg 1 n" id_ex_is_ebreak_reg $end
$var reg 1 o" id_ex_is_ecall_reg $end
$var reg 1 p" id_ex_is_mret_reg $end
$var reg 1 q" id_ex_is_sret_reg $end
$var reg 1 r" id_ex_jal_reg $end
$var reg 1 9" id_ex_jalr_reg $end
$var reg 1 s" id_ex_mem_to_reg_reg $end
$var reg 1 t" id_ex_mem_write_reg $end
$var reg 32 u" id_ex_pc_plus4_reg [31:0] $end
$var reg 5 v" id_ex_rd_addr_reg [4:0] $end
$var reg 1 w" id_ex_reg_write_reg $end
$var reg 5 x" id_ex_rs1_addr_reg [4:0] $end
$var reg 32 y" id_ex_rs1_data_reg [31:0] $end
$var reg 5 z" id_ex_rs2_addr_reg [4:0] $end
$var reg 32 {" id_ex_rs2_data_reg [31:0] $end
$var reg 2 |" id_ex_wb_sel_reg [1:0] $end
$var reg 32 }" if_id_instr_reg [31:0] $end
$var reg 32 ~" if_id_pc_plus4_reg [31:0] $end
$var reg 1 !# mem_valid_reg $end
$var reg 32 "# mem_wb_alu_result_reg [31:0] $end
$var reg 32 ## mem_wb_csr_rdata_reg [31:0] $end
$var reg 32 $# mem_wb_mem_rdata_reg [31:0] $end
$var reg 1 %# mem_wb_mem_to_reg_reg $end
$var reg 32 &# mem_wb_pc_plus4_reg [31:0] $end
$var reg 5 '# mem_wb_rd_addr_reg [4:0] $end
$var reg 1 (# mem_wb_reg_write_reg $end
$var reg 2 )# mem_wb_wb_sel_reg [1:0] $end
$scope module alu_ctrl_inst $end
$var wire 3 *# funct3 [2:0] $end
$var wire 7 +# funct7 [6:0] $end
$var wire 2 ,# alu_op [1:0] $end
$var reg 4 -# alu_ctrl [3:0] $end
$upscope $end
$scope module alu_inst $end
$var wire 32 .# a [31:0] $end
$var wire 4 /# alu_ctrl [3:0] $end
$var wire 32 0# b [31:0] $end
$var wire 1 r zero $end
$var reg 32 1# result [31:0] $end
$upscope $end
$scope module br_comp $end
$var wire 3 2# funct3 [2:0] $end
$var wire 32 3# rs1_data [31:0] $end
$var wire 32 4# rs2_data [31:0] $end
$var reg 1 P" br_taken $end
$upscope $end
$scope module csr_inst $end
$var wire 12 5# addr [11:0] $end
$var wire 1 < clk $end
$var wire 32 6# current_instr [31:0] $end
$var wire 32 7# current_pc [31:0] $end
$var wire 1 n" ex_ebreak $end
$var wire 1 o" ex_ecall $end
$var wire 1 8# ex_illegal $end
$var wire 1 p" ex_mret $end
$var wire 32 9# ex_page_fault_addr [31:0] $end
$var wire 1 q" ex_sret $end
$var wire 1 :# inst_retire $end
$var wire 1 = int_ext $end
$var wire 1 > int_soft $end
$var wire 1 _ int_timer $end
$var wire 1 a" is_store $end
$var wire 32 ;# mcause_value [31:0] $end
$var wire 32 <# mepc_value [31:0] $end
$var wire 32 =# mscratch_value [31:0] $end
$var wire 32 ># mstatus_value [31:0] $end
$var wire 32 ?# mtvec_value [31:0] $end
$var wire 3 @# op [2:0] $end
$var wire 1 A# pending_interrupt $end
$var wire 1 B rst_n $end
$var wire 32 B# satp_value [31:0] $end
$var wire 32 C# scause_value [31:0] $end
$var wire 32 D# sepc_value [31:0] $end
$var wire 32 E# sscratch_value [31:0] $end
$var wire 32 F# sstatus_value [31:0] $end
$var wire 32 G# stvec_value [31:0] $end
$var wire 1 H# take_exception $end
$var wire 1 I# take_interrupt $end
$var wire 1 J# take_trap $end
$var wire 1 K# use_s_mode $end
$var wire 32 L# wdata [31:0] $end
$var wire 1 m" we $end
$var wire 1 M# global_irq_enable $end
$var wire 1 !" ex_page_fault $end
$var parameter 32 N# CAUSE_BREAKPOINT $end
$var parameter 32 O# CAUSE_ECALL_M $end
$var parameter 32 P# CAUSE_ECALL_S $end
$var parameter 32 Q# CAUSE_ECALL_U $end
$var parameter 32 R# CAUSE_FETCH_ACCESS $end
$var parameter 32 S# CAUSE_ILLEGAL_INSTRUCTION $end
$var parameter 32 T# CAUSE_LOAD_ACCESS $end
$var parameter 32 U# CAUSE_MISALIGNED_FETCH $end
$var parameter 32 V# CAUSE_MISALIGNED_LOAD $end
$var parameter 32 W# CAUSE_MISALIGNED_STORE $end
$var parameter 32 X# CAUSE_PAGE_FAULT_INST $end
$var parameter 32 Y# CAUSE_PAGE_FAULT_LOAD $end
$var parameter 32 Z# CAUSE_PAGE_FAULT_STORE $end
$var parameter 32 [# CAUSE_STORE_ACCESS $end
$var parameter 12 \# CSR_MCAUSE $end
$var parameter 12 ]# CSR_MCYCLE $end
$var parameter 12 ^# CSR_MEPC $end
$var parameter 12 _# CSR_MIE $end
$var parameter 12 `# CSR_MINSTRET $end
$var parameter 12 a# CSR_MIP $end
$var parameter 12 b# CSR_MISA $end
$var parameter 12 c# CSR_MSCRATCH $end
$var parameter 12 d# CSR_MSTATUS $end
$var parameter 12 e# CSR_MTVAL $end
$var parameter 12 f# CSR_MTVEC $end
$var parameter 12 g# CSR_SATP $end
$var parameter 12 h# CSR_SCAUSE $end
$var parameter 12 i# CSR_SEPC $end
$var parameter 12 j# CSR_SIE $end
$var parameter 12 k# CSR_SIP $end
$var parameter 12 l# CSR_SSCRATCH $end
$var parameter 12 m# CSR_SSTATUS $end
$var parameter 12 n# CSR_STVAL $end
$var parameter 12 o# CSR_STVEC $end
$var parameter 12 p# CSR_UCAUSE $end
$var parameter 12 q# CSR_UEPC $end
$var parameter 12 r# CSR_UIE $end
$var parameter 12 s# CSR_UIP $end
$var parameter 12 t# CSR_USCRATCH $end
$var parameter 12 u# CSR_USTATUS $end
$var parameter 12 v# CSR_UTVAL $end
$var parameter 12 w# CSR_UTVEC $end
$var parameter 32 x# IRQ_EXT $end
$var parameter 32 y# IRQ_SOFT $end
$var parameter 32 z# IRQ_TIMER $end
$var reg 32 {# cause [31:0] $end
$var reg 1 M" flush_pipeline $end
$var reg 32 |# mcause [31:0] $end
$var reg 32 }# mcycle [31:0] $end
$var reg 32 ~# mepc [31:0] $end
$var reg 32 !$ mie [31:0] $end
$var reg 32 "$ minstret [31:0] $end
$var reg 32 #$ mip [31:0] $end
$var reg 32 $$ misa [31:0] $end
$var reg 32 %$ mscratch [31:0] $end
$var reg 32 &$ mstatus [31:0] $end
$var reg 32 '$ mtval [31:0] $end
$var reg 32 ($ mtvec [31:0] $end
$var reg 2 )$ privilege [1:0] $end
$var reg 32 *$ rdata [31:0] $end
$var reg 32 +$ satp [31:0] $end
$var reg 32 ,$ scause [31:0] $end
$var reg 32 -$ sepc [31:0] $end
$var reg 32 .$ sscratch [31:0] $end
$var reg 32 /$ sstatus [31:0] $end
$var reg 32 0$ stval [31:0] $end
$var reg 32 1$ stvec [31:0] $end
$var reg 32 2$ trap_pc [31:0] $end
$var reg 1 F" trap_taken $end
$var reg 32 3$ tval [31:0] $end
$upscope $end
$scope module ctrl_inst $end
$var wire 3 4$ funct3 [2:0] $end
$var wire 7 5$ funct7 [6:0] $end
$var wire 32 6$ instr [31:0] $end
$var wire 7 7$ opcode [6:0] $end
$var reg 2 8$ alu_a_sel [1:0] $end
$var reg 2 9$ alu_op [1:0] $end
$var reg 1 T" alu_src $end
$var reg 1 O" branch $end
$var reg 3 :$ csr_op [2:0] $end
$var reg 3 ;$ imm_sel [2:0] $end
$var reg 1 1" is_csr $end
$var reg 1 0" is_ebreak $end
$var reg 1 /" is_ecall $end
$var reg 1 ." is_mret $end
$var reg 1 -" is_sret $end
$var reg 1 ," jal $end
$var reg 1 *" jalr $end
$var reg 1 <$ mem_read $end
$var reg 1 '" mem_write $end
$var reg 1 | reg_write $end
$var reg 2 =$ wb_sel [1:0] $end
$upscope $end
$scope module dmem_inst $end
$var wire 32 >$ addr [31:0] $end
$var wire 1 < clk $end
$var wire 3 ?$ funct3 [2:0] $end
$var wire 32 @$ wdata [31:0] $end
$var wire 1 E we $end
$var reg 32 A$ rdata [31:0] $end
$upscope $end
$scope module fwd_unit $end
$var wire 5 B$ ex_mem_rd [4:0] $end
$var wire 1 d" ex_mem_reg_write $end
$var wire 5 C$ id_ex_rs1 [4:0] $end
$var wire 5 D$ id_ex_rs2 [4:0] $end
$var wire 5 E$ mem_wb_rd [4:0] $end
$var wire 1 (# mem_wb_reg_write $end
$var reg 2 F$ forward_a [1:0] $end
$var reg 2 G$ forward_b [1:0] $end
$upscope $end
$scope module hazard $end
$var wire 1 Z" branch_taken $end
$var wire 1 X id_ex_mem_read $end
$var wire 5 H$ id_ex_rd [4:0] $end
$var wire 5 I$ if_id_rs1 [4:0] $end
$var wire 5 J$ if_id_rs2 [4:0] $end
$var wire 1 ^" jump_taken $end
$var reg 1 ?" flush_id_ex $end
$var reg 1 K$ flush_if_id $end
$var reg 1 y stall_if_id $end
$var reg 1 x stall_pc $end
$upscope $end
$scope module imem_inst $end
$var wire 32 L$ addr [31:0] $end
$var reg 32 M$ instr [31:0] $end
$upscope $end
$scope module imm_inst $end
$var wire 3 N$ immsel [2:0] $end
$var wire 32 O$ instr [31:0] $end
$var reg 32 P$ imm [31:0] $end
$upscope $end
$scope module pc_inst $end
$var wire 1 < clk $end
$var wire 32 Q$ next_pc [31:0] $end
$var wire 1 B rst_n $end
$var wire 1 o stall $end
$var reg 32 R$ pc [31:0] $end
$upscope $end
$scope module reg_inst $end
$var wire 1 < clk $end
$var wire 5 S$ rd_addr [4:0] $end
$var wire 32 T$ rd_data [31:0] $end
$var wire 5 U$ rs1_addr [4:0] $end
$var wire 5 V$ rs2_addr [4:0] $end
$var wire 1 (# we $end
$var wire 32 W$ rs2_data [31:0] $end
$var wire 32 X$ rs1_data [31:0] $end
$var integer 32 Y$ i [31:0] $end
$upscope $end
$scope module u_mmu $end
$var wire 1 < clk $end
$var wire 1 a" is_store $end
$var wire 32 Z$ mem_rdata [31:0] $end
$var wire 1 c mem_valid $end
$var wire 2 [$ priv [1:0] $end
$var wire 1 B rst_n $end
$var wire 32 \$ satp [31:0] $end
$var wire 1 j start $end
$var wire 32 ]$ vaddr [31:0] $end
$var wire 1 ^$ pte_x $end
$var wire 1 _$ pte_w $end
$var wire 1 `$ pte_v $end
$var wire 1 a$ pte_u $end
$var wire 1 b$ pte_r $end
$var wire 22 c$ pte_ppn [21:0] $end
$var wire 1 d$ pte1_x $end
$var wire 1 e$ pte1_w $end
$var wire 1 f$ pte1_v $end
$var wire 1 g$ pte1_r $end
$var wire 32 h$ l2_addr [31:0] $end
$var wire 32 i$ l1_addr [31:0] $end
$var parameter 2 j$ DONE $end
$var parameter 2 k$ IDLE $end
$var parameter 2 l$ L1 $end
$var parameter 2 m$ L2 $end
$var reg 1 &" done $end
$var reg 4 n$ fault_cause [3:0] $end
$var reg 1 o$ is_store_reg $end
$var reg 32 p$ mem_addr [31:0] $end
$var reg 1 #" mem_req $end
$var reg 2 q$ next_state [1:0] $end
$var reg 32 r$ paddr [31:0] $end
$var reg 1 !" page_fault $end
$var reg 2 s$ priv_reg [1:0] $end
$var reg 32 t$ pte_l1 [31:0] $end
$var reg 32 u$ pte_l2 [31:0] $end
$var reg 32 v$ satp_reg [31:0] $end
$var reg 2 w$ state [1:0] $end
$var reg 32 x$ vaddr_reg [31:0] $end
$upscope $end
$scope module u_timer $end
$var wire 32 y$ addr [31:0] $end
$var wire 1 < clk $end
$var wire 1 B rst_n $end
$var wire 32 z$ wdata [31:0] $end
$var wire 1 p we $end
$var wire 1 {$ sel_mtimecmp $end
$var wire 1 |$ sel_mtime $end
$var wire 1 v irq_timer $end
$var reg 32 }$ mtime [31:0] $end
$var reg 32 ~$ mtimecmp [31:0] $end
$var reg 32 !% rdata [31:0] $end
$upscope $end
$upscope $end
$upscope $end
$enddefinitions $end
$comment Show the parameter values. $end
$dumpall
b10 m$
b1 l$
b0 k$
b11 j$
b111 z#
b11 y#
b1011 x#
b101 w#
b1000011 v#
b0 u#
b1000000 t#
b1000100 s#
b100 r#
b1000001 q#
b1000010 p#
b100000101 o#
b101000011 n#
b100000000 m#
b101000000 l#
b101000100 k#
b100000100 j#
b101000001 i#
b101000010 h#
b110000000 g#
b1100000101 f#
b1101000011 e#
b1100000000 d#
b1101000000 c#
b1100000001 b#
b1101000100 a#
b101100000010 `#
b1100000100 _#
b1101000001 ^#
b101100000000 ]#
b1101000010 \#
b111 [#
b1111 Z#
b1101 Y#
b1100 X#
b110 W#
b100 V#
b0 U#
b101 T#
b10 S#
b1 R#
b1000 Q#
b1001 P#
b1011 O#
b11 N#
$end
#0
$dumpvars
b0 !%
b11111111111111111111111111111111 ~$
b0 }$
0|$
0{$
b0 z$
b0 y$
b0 x$
b0 w$
b0 v$
b0 u$
b0 t$
b0 s$
b0 r$
b0 q$
b0 p$
0o$
b0 n$
b0 i$
b0 h$
0g$
0f$
0e$
0d$
b0 c$
0b$
0a$
0`$
0_$
0^$
b0 ]$
b0 \$
b11 [$
bx Z$
b100000 Y$
b0 X$
b0 W$
b0 V$
b0 U$
b0 T$
b0 S$
b0 R$
b100 Q$
b0 P$
b10011 O$
b0 N$
b10010111 M$
b0 L$
0K$
b0 J$
b0 I$
b0 H$
b0 G$
b0 F$
b0 E$
b0 D$
b0 C$
b0 B$
bx A$
b0 @$
b0 ?$
b0 >$
b0 =$
0<$
b0 ;$
b0 :$
b11 9$
b0 8$
b10011 7$
b10011 6$
b0 5$
b0 4$
b0 3$
b0 2$
b0 1$
b0 0$
b0 /$
b0 .$
b0 -$
b0 ,$
b0 +$
b0 *$
b11 )$
b0 ($
b0 '$
b1100000000000 &$
b0 %$
b1000000000000000001000100000000 $$
b0 #$
b0 "$
b0 !$
b0 ~#
b0 }#
b0 |#
b0 {#
0M#
b0 L#
0K#
0J#
0I#
0H#
b0 G#
b0 F#
b0 E#
b0 D#
b0 C#
b0 B#
0A#
b0 @#
b0 ?#
b1100000000000 >#
b0 =#
b0 <#
b0 ;#
0:#
b0 9#
08#
b11111111111111111111111111111100 7#
b0 6#
b0 5#
b0 4#
b0 3#
b0 2#
b0 1#
b0 0#
b0 /#
b0 .#
b0 -#
b11 ,#
b0 +#
b0 *#
b0 )#
0(#
b0 '#
b0 &#
0%#
b0 $#
b0 ##
b0 "#
0!#
b0 ~"
b10011 }"
b0 |"
b0 {"
b0 z"
b0 y"
b0 x"
0w"
b0 v"
b0 u"
0t"
0s"
0r"
0q"
0p"
0o"
0n"
0m"
b0 l"
b0 k"
b0 j"
b0 i"
b0 h"
b0 g"
b0 f"
b0 e"
0d"
b0 c"
b0 b"
0a"
0`"
b0 _"
0^"
b0 ]"
b0 \"
b0 ["
0Z"
b0 Y"
b0 X"
b0 W"
b11 V"
b0 U"
1T"
b0 S"
b0 R"
b0 Q"
1P"
0O"
b11111111111111111111111111111100 N"
0M"
b0 L"
b0 K"
b11 J"
b0 I"
b0 H"
b0 G"
0F"
b0 E"
b0 D"
b0 C"
bx B"
b0 A"
b11111111111111111111111111111100 @"
0?"
b0 >"
b0 ="
b0 <"
0;"
0:"
09"
b0 8"
b0 7"
b0 6"
b0 5"
b0 4"
b0 3"
b10010111 2"
01"
00"
0/"
0."
0-"
0,"
b11111111111111111111111111111100 +"
0*"
b11111111111111111111111111111100 )"
bx ("
0'"
0&"
0%"
b0 $"
0#"
b0 ""
0!"
b0 ~
b100 }
1|
b0 {
b0 z
0y
0x
b100 w
0v
b0 u
b0 t
b0 s
1r
0q
0p
0o
0n
0m
b100 l
0k
0j
0i
0h
b0 g
0f
b0 e
b0 d
0c
0b
b0 a
0`
0_
b0 ^
b10011 ]
b0 \
0[
b0 Z
0Y
0X
0W
b0 V
b0 U
1T
b0 S
b0 R
0Q
b0 P
0O
b0 N
b0 M
0L
0K
b0 J
0I
b0 H
0G
b0 F
0E
0D
b0 C
0B
b0 A
0@
0?
0>
0=
0<
b0 ;
b0 :
09
08
b100 7
b100 6
b11111111111111111111111111111111 5
b0 4
03
b0 2
01
b0 0
b11111111111111111111111111111100 /
0.
b10011 -
b0 ,
0+
b0 *
1)
0(
b0 '
0&
b0 %
0$
b0 #
b0 "
0!
$end
#5000
b1 C
1<
#10000
0<
#15000
b10 C
1<
#20000
0<
1B
#25000
b1 X"
b1 8$
b11 3"
b11 ;$
b11 N$
b1000 6
b1000 l
b1000 Q$
b1000 7
b1000 w
b10111 7$
b0 V"
b0 ,#
b0 9$
1T"
1|
b100000000001000000010010011 2"
b100000000001000000010010011 M$
bx e
bx $#
b11111111111111111111111111111100 J
b11111111111111111111111111111100 %
b11111111111111111111111111111100 _"
b11111111111111111111111111111100 A"
b11111111111111111111111111111100 ["
1[
1w"
1;"
b10010111 ]
b10010111 6$
b10010111 O$
b10010111 -
b10010111 }"
b100 ^
b100 ~"
b1000 }
b100 ;
b100 ~
b100 L$
b100 R$
b1 }#
b1 4
b1 }$
b11 C
1<
#30000
0<
#35000
b0 /
b0 )"
b1100 6
b1100 l
b1100 Q$
b1100 7
b1100 w
b11 V"
b11 ,#
b11 9$
b110000010100001111000001110011 2"
b110000010100001111000001110011 M$
b1 U$
b10011 7$
b10 5$
b10 +#
b1 I$
b0 X"
b0 8$
b0 3"
b0 ;$
b0 N$
1T"
1|
b1000000 4"
b1000000 P$
b10 4
b10 }$
b10 }#
b1100 }
b1000 ;
b1000 ~
b1000 L$
b1000 R$
b100000000001000000010010011 ]
b100000000001000000010010011 6$
b100000000001000000010010011 O$
b100000000001000000010010011 -
b100000000001000000010010011 }"
b1000 ^
b1000 ~"
b1 R
b1 g"
b1 Z
b1 H$
b1 v"
b0 7#
b0 N"
b0 +"
b0 @"
b100 ,
b100 8"
b100 u"
1O
1d"
b100 C
1<
#40000
0<
#45000
b1000100 /
b1000100 )"
0r
b1000000 U"
b1000000 1#
b11 t
b11 =$
b111 K"
b111 :$
11"
b0 W"
b0 -#
b10000 6
b10000 l
b10000 Q$
b10000 7
b10000 w
b1 >"
b1 F$
b1000000 R"
b1000000 0#
b1000000 a
b111 <"
b101 V$
b1110011 7$
b111 4$
b11000 5$
b111 *#
b11000 +#
b101 J$
b0 V"
b0 ,#
b0 9$
0T"
1|
b1100000101 4"
b1100000101 P$
b100000000000000000000100110111 2"
b100000000000000000000100110111 M$
1h
11
1(#
b0 J
b0 %
b0 _"
b0 A"
b0 ["
b1 N
b1 c"
b1 B$
b100 M
b100 b"
b1000000 i"
b1000000 5#
b0 R
b0 g"
b1 7"
b1 x"
b1 C$
b1000000 V
b1000000 *
b1000000 l"
b100 7#
b1000100 N"
b1000100 +"
b100 @"
b1000 ,
b1000 8"
b1000 u"
b110000010100001111000001110011 ]
b110000010100001111000001110011 6$
b110000010100001111000001110011 O$
b110000010100001111000001110011 -
b110000010100001111000001110011 }"
b1100 ^
b1100 ~"
b10000 }
b1100 ;
b1100 ~
b1100 L$
b1100 R$
b11 }#
b11 4
b11 }$
b101 C
1<
#50000
0<
#55000
b1100001101 /
b1100001101 )"
b10100 6
b10100 l
b10100 Q$
b10100 7
b10100 w
b10 X"
b10 8$
b11 3"
b11 ;$
b11 N$
1T"
b1 D"
b1 L#
b1000000 S"
b1000000 .#
b1000000 3#
b100000000000000000000110110111 2"
b100000000000000000000110110111 M$
b0 <"
b0 U$
b0 V$
b110111 7$
b0 4$
b10000 5$
b0 *#
b10000 +#
b0 I$
b0 J$
01"
b0 K"
b0 :$
b0 t
b0 =$
1|
b100000000000000000000000000000 4"
b100000000000000000000000000000 P$
b0 R"
b0 0#
b1101000100 a
b1000000 "
b1000000 C"
b1000000 >$
b1 >"
b1 F$
b100 4
b100 }$
b100 }#
b10100 }
b10000 ;
b10000 ~
b10000 L$
b10000 R$
b100000000000000000000100110111 ]
b100000000000000000000100110111 6$
b100000000000000000000100110111 O$
b100000000000000000000100110111 -
b100000000000000000000100110111 }"
b10000 ^
b10000 ~"
1m"
b1100000101 i"
b1100000101 5#
b111 j"
b111 @#
b11 |"
b111 U
b111 2#
b111 k"
0;"
b0 Z
b0 H$
b0 v"
b101 \
b101 D$
b101 z"
b1100000101 V
b1100000101 *
b1100000101 l"
b1000 7#
b1100001101 N"
b1100001101 +"
b1000 @"
b1100 ,
b1100 8"
b1100 u"
b1000100 J
b1000100 %
b1000100 _"
b1000100 A"
b1000100 ["
b1000 M
b1000 b"
b1000000 F
b1000000 #
b1000000 Y"
b1000000 9#
b1000000 ]$
b1000000 y$
b100 &#
b1 g
b1 0
b1 '#
b1 E$
b1 S$
b110 C
1<
#60000
0<
#65000
b100000000000000000000000001100 /
b100000000000000000000000001100 )"
b0 ("
b0 Z$
b100000000000000000000000000000 U"
b100000000000000000000000000000 1#
b0 S"
b0 .#
b0 3#
b11000 6
b11000 l
b11000 Q$
b11000 7
b11000 w
b1000000 2
b1000000 s
b1000000 T$
b0 B"
b0 A$
1P"
b100000000000000000000000000000 R"
b100000000000000000000000000000 0#
b0 D"
b0 L#
b0 >"
b0 F$
b100000000000000000000000000000 a
b10 X"
b10 8$
b11 3"
b11 ;$
b11 N$
1T"
1|
b10000011000000110010011 2"
b10000011000000110010011 M$
b1000 &#
b1000000 d
b1000000 "#
b11 f"
b111 H
b111 ]"
b111 ?$
b1100001101 J
b1100001101 %
b1100001101 _"
b1100001101 A"
b1100001101 ["
b0 N
b0 c"
b0 B$
b1100 M
b1100 b"
0m"
b1000000000 i"
b1000000000 5#
b0 j"
b0 @#
b0 |"
b0 U
b0 2#
b0 k"
b10 R
b10 g"
1;"
b10 Z
b10 H$
b10 v"
b0 \
b0 D$
b0 z"
b0 7"
b0 x"
b0 C$
b100000000000000000000000000000 V
b100000000000000000000000000000 *
b100000000000000000000000000000 l"
b1100 7#
b100000000000000000000000001100 N"
b100000000000000000000000001100 +"
b1100 @"
b10000 ,
b10000 8"
b10000 u"
b100000000000000000000110110111 ]
b100000000000000000000110110111 6$
b100000000000000000000110110111 O$
b100000000000000000000110110111 -
b100000000000000000000110110111 }"
b10100 ^
b10100 ~"
b11000 }
b10100 ;
b10100 ~
b10100 L$
b10100 R$
b101 }#
b101 4
b101 }$
b111 C
1<
#70000
0<
