wave.vcd
$date
	Thu Mar 12 22:37:42 2026
$end
$version
	Icarus Verilog
$end
$timescale
	1ps
$end
$scope module tb_top $end
$var wire 32 ! pc [31:0] $end
$var reg 1 " clk $end
$var reg 1 # int_ext $end
$var reg 1 $ int_soft $end
$var reg 1 % int_timer $end
$var reg 1 & rst_n $end
$var integer 32 ' cycle [31:0] $end
$var integer 32 ( i [31:0] $end
$scope module u_cpu $end
$var wire 1 ) branch_taken $end
$var wire 1 " clk $end
$var wire 32 * ex_mem_alu_result [31:0] $end
$var wire 1 + ex_mem_branch_taken $end
$var wire 3 , ex_mem_funct3 [2:0] $end
$var wire 1 - ex_mem_jump_taken $end
$var wire 1 . ex_mem_mem_to_reg $end
$var wire 1 / ex_mem_mem_write $end
$var wire 32 0 ex_mem_pc_plus4 [31:0] $end
$var wire 5 1 ex_mem_rd_addr [4:0] $end
$var wire 1 2 ex_mem_reg_write $end
$var wire 32 3 ex_mem_rs2_data [31:0] $end
$var wire 1 4 flush_if_id $end
$var wire 2 5 id_ex_alu_a_sel [1:0] $end
$var wire 4 6 id_ex_alu_ctrl [3:0] $end
$var wire 1 7 id_ex_enable $end
$var wire 3 8 id_ex_funct3 [2:0] $end
$var wire 1 9 id_ex_mem_to_reg $end
$var wire 1 : id_ex_mem_write $end
$var wire 5 ; id_ex_rd_addr [4:0] $end
$var wire 1 < id_ex_reg_write $end
$var wire 5 = id_ex_rs2_addr [4:0] $end
$var wire 32 > if_id_instr [31:0] $end
$var wire 32 ? if_id_pc_plus4 [31:0] $end
$var wire 1 # int_ext $end
$var wire 1 $ int_soft $end
$var wire 1 % int_timer $end
$var wire 32 @ jalr_target [31:0] $end
$var wire 1 A jump_taken $end
$var wire 32 B mem_wb_alu_result [31:0] $end
$var wire 32 C mem_wb_mem_rdata [31:0] $end
$var wire 1 D mem_wb_mem_to_reg $end
$var wire 5 E mem_wb_rd_addr [4:0] $end
$var wire 1 F mem_wb_reg_write $end
$var wire 1 G mmu_busy $end
$var wire 1 H mmu_start $end
$var wire 1 I mret_taken $end
$var wire 32 J next_pc [31:0] $end
$var wire 1 & rst_n $end
$var wire 1 K sret_taken $end
$var wire 1 L stall_if_id $end
$var wire 1 M stall_pc $end
$var wire 1 N trap_taken $end
$var wire 1 O zero $end
$var wire 32 P write_data [31:0] $end
$var wire 2 Q wb_sel [1:0] $end
$var wire 32 R target [31:0] $end
$var wire 1 S stall_pc_orig $end
$var wire 1 T stall_if_id_orig $end
$var wire 32 U rs2_data [31:0] $end
$var wire 32 V rs1_data [31:0] $end
$var wire 1 W reg_write $end
$var wire 32 X pc_plus4 [31:0] $end
$var wire 32 Y pc [31:0] $end
$var wire 1 Z mmu_page_fault $end
$var wire 32 [ mmu_paddr [31:0] $end
$var wire 32 \ mmu_mem_addr [31:0] $end
$var wire 1 ] mmu_done $end
$var wire 1 ^ mem_write $end
$var wire 32 _ mem_rdata [31:0] $end
$var wire 32 ` jump_target [31:0] $end
$var wire 1 a jalr $end
$var wire 32 b jal_target [31:0] $end
$var wire 1 c jal $end
$var wire 1 d is_sret $end
$var wire 1 e is_mret $end
$var wire 1 f is_ecall $end
$var wire 1 g is_ebreak $end
$var wire 1 h is_csr $end
$var wire 32 i instr [31:0] $end
$var wire 3 j imm_sel [2:0] $end
$var wire 32 k imm [31:0] $end
$var wire 32 l id_ex_rs2_data [31:0] $end
$var wire 32 m id_ex_rs1_data [31:0] $end
$var wire 5 n id_ex_rs1_addr [4:0] $end
$var wire 32 o id_ex_pc_plus4 [31:0] $end
$var wire 1 p id_ex_jalr $end
$var wire 1 q id_ex_jal $end
$var wire 32 r id_ex_imm [31:0] $end
$var wire 1 s id_ex_branch $end
$var wire 1 t id_ex_alu_src $end
$var wire 3 u funct3 [2:0] $end
$var wire 2 v forward_b [1:0] $end
$var wire 2 w forward_a [1:0] $end
$var wire 1 x flush_id_ex_orig $end
$var wire 32 y exc_pc [31:0] $end
$var wire 32 z ex_mem_jump_target [31:0] $end
$var wire 32 { ex_mem_branch_target [31:0] $end
$var wire 1 | dmem_we $end
$var wire 32 } dmem_addr [31:0] $end
$var wire 32 ~ csr_wdata [31:0] $end
$var wire 32 !" csr_trap_pc [31:0] $end
$var wire 1 "" csr_take_trap $end
$var wire 32 #" csr_sepc [31:0] $end
$var wire 32 $" csr_satp [31:0] $end
$var wire 32 %" csr_rdata [31:0] $end
$var wire 2 &" csr_privilege [1:0] $end
$var wire 3 '" csr_op [2:0] $end
$var wire 32 (" csr_mepc [31:0] $end
$var wire 1 )" csr_flush $end
$var wire 32 *" branch_target [31:0] $end
$var wire 1 +" branch $end
$var wire 1 ," br_taken $end
$var wire 32 -" alu_src2_rs2 [31:0] $end
$var wire 32 ." alu_src2 [31:0] $end
$var wire 32 /" alu_src1 [31:0] $end
$var wire 1 0" alu_src $end
$var wire 32 1" alu_result [31:0] $end
$var wire 2 2" alu_op [1:0] $end
$var wire 4 3" alu_ctrl [3:0] $end
$var wire 2 4" alu_a_sel [1:0] $end
$var reg 32 5" ex_mem_alu_result_reg [31:0] $end
$var reg 1 6" ex_mem_branch_taken_reg $end
$var reg 32 7" ex_mem_branch_target_reg [31:0] $end
$var reg 32 8" ex_mem_csr_rdata_reg [31:0] $end
$var reg 3 9" ex_mem_funct3_reg [2:0] $end
$var reg 1 :" ex_mem_jump_taken_reg $end
$var reg 32 ;" ex_mem_jump_target_reg [31:0] $end
$var reg 1 <" ex_mem_mem_to_reg_reg $end
$var reg 1 =" ex_mem_mem_write_reg $end
$var reg 32 >" ex_mem_pc_plus4_reg [31:0] $end
$var reg 5 ?" ex_mem_rd_addr_reg [4:0] $end
$var reg 1 @" ex_mem_reg_write_reg $end
$var reg 32 A" ex_mem_rs2_data_reg [31:0] $end
$var reg 2 B" ex_mem_wb_sel_reg [1:0] $end
$var reg 2 C" id_ex_alu_a_sel_reg [1:0] $end
$var reg 4 D" id_ex_alu_ctrl_reg [3:0] $end
$var reg 1 t id_ex_alu_src_reg $end
$var reg 1 s id_ex_branch_reg $end
$var reg 12 E" id_ex_csr_addr_reg [11:0] $end
$var reg 3 F" id_ex_csr_op_reg [2:0] $end
$var reg 3 G" id_ex_funct3_reg [2:0] $end
$var reg 32 H" id_ex_imm_reg [31:0] $end
$var reg 1 I" id_ex_is_csr_reg $end
$var reg 1 J" id_ex_is_ebreak_reg $end
$var reg 1 K" id_ex_is_ecall_reg $end
$var reg 1 L" id_ex_is_mret_reg $end
$var reg 1 M" id_ex_is_sret_reg $end
$var reg 1 q id_ex_jal_reg $end
$var reg 1 p id_ex_jalr_reg $end
$var reg 1 N" id_ex_mem_to_reg_reg $end
$var reg 1 O" id_ex_mem_write_reg $end
$var reg 32 P" id_ex_pc_plus4_reg [31:0] $end
$var reg 5 Q" id_ex_rd_addr_reg [4:0] $end
$var reg 1 R" id_ex_reg_write_reg $end
$var reg 5 S" id_ex_rs1_addr_reg [4:0] $end
$var reg 32 T" id_ex_rs1_data_reg [31:0] $end
$var reg 5 U" id_ex_rs2_addr_reg [4:0] $end
$var reg 32 V" id_ex_rs2_data_reg [31:0] $end
$var reg 2 W" id_ex_wb_sel_reg [1:0] $end
$var reg 32 X" if_id_instr_reg [31:0] $end
$var reg 32 Y" if_id_pc_plus4_reg [31:0] $end
$var reg 32 Z" mem_wb_alu_result_reg [31:0] $end
$var reg 32 [" mem_wb_csr_rdata_reg [31:0] $end
$var reg 32 \" mem_wb_mem_rdata_reg [31:0] $end
$var reg 1 ]" mem_wb_mem_to_reg_reg $end
$var reg 32 ^" mem_wb_pc_plus4_reg [31:0] $end
$var reg 5 _" mem_wb_rd_addr_reg [4:0] $end
$var reg 1 `" mem_wb_reg_write_reg $end
$var reg 2 a" mem_wb_wb_sel_reg [1:0] $end
$scope module alu_ctrl_inst $end
$var wire 3 b" funct3 [2:0] $end
$var wire 7 c" funct7 [6:0] $end
$var wire 2 d" alu_op [1:0] $end
$var reg 4 e" alu_ctrl [3:0] $end
$upscope $end
$scope module alu_inst $end
$var wire 32 f" a [31:0] $end
$var wire 4 g" alu_ctrl [3:0] $end
$var wire 32 h" b [31:0] $end
$var wire 1 O zero $end
$var reg 32 i" result [31:0] $end
$upscope $end
$scope module br_comp $end
$var wire 3 j" funct3 [2:0] $end
$var wire 32 k" rs1_data [31:0] $end
$var wire 32 l" rs2_data [31:0] $end
$var reg 1 ," br_taken $end
$upscope $end
$scope module csr_inst $end
$var wire 12 m" addr [11:0] $end
$var wire 1 " clk $end
$var wire 32 n" current_instr [31:0] $end
$var wire 32 o" current_pc [31:0] $end
$var wire 1 J" ex_ebreak $end
$var wire 1 K" ex_ecall $end
$var wire 1 p" ex_illegal $end
$var wire 1 L" ex_mret $end
$var wire 32 q" ex_page_fault_addr [31:0] $end
$var wire 1 M" ex_sret $end
$var wire 1 r" inst_retire $end
$var wire 1 # int_ext $end
$var wire 1 $ int_soft $end
$var wire 1 % int_timer $end
$var wire 1 =" is_store $end
$var wire 32 s" mepc_value [31:0] $end
$var wire 3 t" op [2:0] $end
$var wire 1 & rst_n $end
$var wire 32 u" satp_value [31:0] $end
$var wire 32 v" sepc_value [31:0] $end
$var wire 1 w" take_exception $end
$var wire 32 x" wdata [31:0] $end
$var wire 1 I" we $end
$var wire 32 y" trap_pc [31:0] $end
$var wire 1 Z ex_page_fault $end
$var parameter 32 z" CAUSE_BREAKPOINT $end
$var parameter 32 {" CAUSE_ECALL_M $end
$var parameter 32 |" CAUSE_ECALL_S $end
$var parameter 32 }" CAUSE_ECALL_U $end
$var parameter 32 ~" CAUSE_ILLEGAL_INSTR $end
$var parameter 32 !# CAUSE_LOAD_PAGE_FAULT $end
$var parameter 32 "# CAUSE_STORE_PAGE_FAULT $end
$var parameter 2 ## PRIV_M $end
$var parameter 2 $# PRIV_S $end
$var parameter 2 %# PRIV_U $end
$var reg 32 &# exception_cause [31:0] $end
$var reg 32 '# exception_pc [31:0] $end
$var reg 1 (# exception_pending $end
$var reg 32 )# exception_tval [31:0] $end
$var reg 1 )" flush_pipeline $end
$var reg 32 *# mcause [31:0] $end
$var reg 32 +# mcycle [31:0] $end
$var reg 32 ,# mcycleh [31:0] $end
$var reg 32 -# mepc [31:0] $end
$var reg 32 .# mhartid [31:0] $end
$var reg 32 /# mie [31:0] $end
$var reg 32 0# minstret [31:0] $end
$var reg 32 1# minstreth [31:0] $end
$var reg 32 2# mip [31:0] $end
$var reg 32 3# misa [31:0] $end
$var reg 1 4# mret_pending $end
$var reg 32 5# mscratch [31:0] $end
$var reg 32 6# mstatus [31:0] $end
$var reg 32 7# mtval [31:0] $end
$var reg 32 8# mtvec [31:0] $end
$var reg 2 9# privilege [1:0] $end
$var reg 32 :# rdata [31:0] $end
$var reg 32 ;# satp [31:0] $end
$var reg 32 <# scause [31:0] $end
$var reg 32 =# sepc [31:0] $end
$var reg 32 ># sie [31:0] $end
$var reg 32 ?# sip [31:0] $end
$var reg 1 @# sret_pending $end
$var reg 32 A# sscratch [31:0] $end
$var reg 32 B# sstatus [31:0] $end
$var reg 32 C# stval [31:0] $end
$var reg 32 D# stvec [31:0] $end
$var reg 32 E# trap_pc_reg [31:0] $end
$var reg 1 "" trap_taken $end
$upscope $end
$scope module ctrl_inst $end
$var wire 3 F# funct3 [2:0] $end
$var wire 7 G# funct7 [6:0] $end
$var wire 32 H# instr [31:0] $end
$var wire 7 I# opcode [6:0] $end
$var reg 2 J# alu_a_sel [1:0] $end
$var reg 2 K# alu_op [1:0] $end
$var reg 1 0" alu_src $end
$var reg 1 +" branch $end
$var reg 3 L# csr_op [2:0] $end
$var reg 3 M# imm_sel [2:0] $end
$var reg 1 h is_csr $end
$var reg 1 g is_ebreak $end
$var reg 1 f is_ecall $end
$var reg 1 e is_mret $end
$var reg 1 d is_sret $end
$var reg 1 c jal $end
$var reg 1 a jalr $end
$var reg 1 N# mem_read $end
$var reg 1 ^ mem_write $end
$var reg 1 W reg_write $end
$var reg 2 O# wb_sel [1:0] $end
$upscope $end
$scope module dmem_inst $end
$var wire 32 P# addr [31:0] $end
$var wire 1 " clk $end
$var wire 3 Q# funct3 [2:0] $end
$var wire 32 R# wdata [31:0] $end
$var wire 1 | we $end
$var reg 32 S# rdata [31:0] $end
$upscope $end
$scope module fwd_unit $end
$var wire 5 T# ex_mem_rd [4:0] $end
$var wire 1 @" ex_mem_reg_write $end
$var wire 5 U# id_ex_rs1 [4:0] $end
$var wire 5 V# id_ex_rs2 [4:0] $end
$var wire 5 W# mem_wb_rd [4:0] $end
$var wire 1 `" mem_wb_reg_write $end
$var reg 2 X# forward_a [1:0] $end
$var reg 2 Y# forward_b [1:0] $end
$upscope $end
$scope module hazard $end
$var wire 1 6" branch_taken $end
$var wire 1 9 id_ex_mem_read $end
$var wire 5 Z# id_ex_rd [4:0] $end
$var wire 5 [# if_id_rs1 [4:0] $end
$var wire 5 \# if_id_rs2 [4:0] $end
$var wire 1 :" jump_taken $end
$var reg 1 x flush_id_ex $end
$var reg 1 ]# flush_if_id $end
$var reg 1 T stall_if_id $end
$var reg 1 S stall_pc $end
$upscope $end
$scope module imem_inst $end
$var wire 32 ^# addr [31:0] $end
$var reg 32 _# instr [31:0] $end
$upscope $end
$scope module imm_inst $end
$var wire 3 `# immsel [2:0] $end
$var wire 32 a# instr [31:0] $end
$var reg 32 b# imm [31:0] $end
$upscope $end
$scope module pc_inst $end
$var wire 1 " clk $end
$var wire 32 c# next_pc [31:0] $end
$var wire 1 & rst_n $end
$var wire 1 M stall $end
$var reg 32 d# pc [31:0] $end
$upscope $end
$scope module reg_inst $end
$var wire 1 " clk $end
$var wire 5 e# rd_addr [4:0] $end
$var wire 32 f# rd_data [31:0] $end
$var wire 5 g# rs1_addr [4:0] $end
$var wire 5 h# rs2_addr [4:0] $end
$var wire 1 `" we $end
$var wire 32 i# rs2_data [31:0] $end
$var wire 32 j# rs1_data [31:0] $end
$var integer 32 k# i [31:0] $end
$upscope $end
$scope module u_mmu $end
$var wire 1 " clk $end
$var wire 1 =" is_store $end
$var wire 32 l# mem_rdata [31:0] $end
$var wire 1 m# mem_valid $end
$var wire 2 n# priv [1:0] $end
$var wire 1 & rst_n $end
$var wire 32 o# satp [31:0] $end
$var wire 1 H start $end
$var wire 32 p# vaddr [31:0] $end
$var wire 1 q# pte_x $end
$var wire 1 r# pte_w $end
$var wire 1 s# pte_v $end
$var wire 1 t# pte_u $end
$var wire 1 u# pte_r $end
$var wire 22 v# pte_ppn [21:0] $end
$var parameter 2 w# DONE $end
$var parameter 2 x# IDLE $end
$var parameter 2 y# L1 $end
$var parameter 2 z# L2 $end
$var reg 1 ] done $end
$var reg 1 {# is_store_reg $end
$var reg 32 |# mem_addr [31:0] $end
$var reg 1 }# mem_req $end
$var reg 2 ~# next_state [1:0] $end
$var reg 32 !$ paddr [31:0] $end
$var reg 1 Z page_fault $end
$var reg 2 "$ priv_reg [1:0] $end
$var reg 32 #$ pte_l1 [31:0] $end
$var reg 32 $$ pte_l2 [31:0] $end
$var reg 32 %$ satp_reg [31:0] $end
$var reg 2 &$ state [1:0] $end
$var reg 32 '$ vaddr_reg [31:0] $end
$upscope $end
$upscope $end
$upscope $end
$enddefinitions $end
$comment Show the parameter values. $end
$dumpall
b10 z#
b1 y#
b0 x#
b11 w#
b0 %#
b1 $#
b11 ##
b1111 "#
b1101 !#
b10 ~"
b1000 }"
b1001 |"
b1011 {"
b11 z"
$end
#0
$dumpvars
b0 '$
b0 &$
b0 %$
b0 $$
b0 #$
b0 "$
b0 !$
b0 ~#
0}#
b0 |#
0{#
b0 v#
0u#
0t#
0s#
0r#
0q#
b0 p#
b0 o#
b11 n#
1m#
bx l#
b100000 k#
b0 j#
b0 i#
b0 h#
b0 g#
b0 f#
b0 e#
b0 d#
b100 c#
b0 b#
b10011 a#
b0 `#
b1001010110111 _#
b0 ^#
0]#
b0 \#
b0 [#
b0 Z#
b0 Y#
b0 X#
b0 W#
b0 V#
b0 U#
b0 T#
bx S#
b0 R#
b0 Q#
b0 P#
b0 O#
0N#
b0 M#
b0 L#
b11 K#
b0 J#
b10011 I#
b10011 H#
b0 G#
b0 F#
b0 E#
b0 D#
b0 C#
b0 B#
b0 A#
0@#
b0 ?#
b0 >#
b0 =#
b0 <#
b0 ;#
b0 :#
b11 9#
b0 8#
b0 7#
b1100000000000 6#
b0 5#
04#
b1000000000000000000000100000000 3#
b0 2#
b0 1#
b0 0#
b0 /#
b0 .#
b0 -#
b0 ,#
b0 +#
b0 *#
bx )#
0(#
bx '#
bx &#
b0 y"
b0 x"
0w"
b0 v"
b0 u"
b0 t"
b0 s"
0r"
b0 q"
0p"
b11111111111111111111111111111100 o"
b0 n"
b0 m"
b0 l"
b0 k"
b0 j"
b0 i"
b0 h"
b0 g"
b0 f"
b0 e"
b11 d"
b0 c"
b0 b"
b0 a"
0`"
b0 _"
b0 ^"
0]"
b0 \"
b0 ["
b0 Z"
b0 Y"
b10011 X"
b0 W"
b0 V"
b0 U"
b0 T"
b0 S"
0R"
b0 Q"
b0 P"
0O"
0N"
0M"
0L"
0K"
0J"
0I"
b0 H"
b0 G"
b0 F"
b0 E"
b0 D"
b0 C"
b0 B"
b0 A"
0@"
b0 ?"
b0 >"
0="
0<"
b0 ;"
0:"
b0 9"
b0 8"
b0 7"
06"
b0 5"
b0 4"
b0 3"
b11 2"
b0 1"
10"
b0 /"
b0 ."
b0 -"
1,"
0+"
b0 *"
0)"
b0 ("
b0 '"
b11 &"
b0 %"
b0 $"
b0 #"
0""
b0 !"
b0 ~
b0 }
0|
b0 {
b0 z
b11111111111111111111111111111100 y
0x
b0 w
b0 v
b0 u
0t
0s
b0 r
0q
0p
b0 o
b0 n
b0 m
b0 l
b0 k
b0 j
b1001010110111 i
0h
0g
0f
0e
0d
0c
b0 b
0a
b0 `
bx _
0^
0]
b0 \
b0 [
0Z
b0 Y
b100 X
1W
b0 V
b0 U
0T
0S
b100 R
b0 Q
b0 P
1O
0N
0M
0L
0K
b100 J
0I
0H
0G
0F
b0 E
0D
b0 C
b0 B
0A
b0 @
b0 ?
b10011 >
b0 =
0<
b0 ;
0:
09
b0 8
17
b0 6
b0 5
04
b0 3
02
b0 1
b0 0
0/
0.
0-
b0 ,
0+
b0 *
0)
bx (
b0 '
0&
0%
0$
0#
0"
b0 !
$end
#5000
b1 '
1"
#10000
0"
#15000
b10 '
1"
#20000
0"
1&
#25000
b1000000000000 k
b1000000000000 b#
b10 4"
b10 J#
b11 j
b11 M#
b11 `#
b0 3"
b0 e"
b1000 J
b1000 c#
b1000 R
b1 u
b110111 I#
b1 F#
b1 b"
b0 2"
b0 d"
b0 K#
10"
1W
b10001100110111 i
b10001100110111 _#
bx C
bx \"
1<
1R"
1t
b1001010110111 >
b1001010110111 H#
b1001010110111 a#
b1001010110111 X"
b100 ?
b100 Y"
b1 +#
b1000 X
b100 !
b100 Y
b100 ^#
b100 d#
b11 '
1"
#30000
0"
#35000
b1000000000100 `
b1100 J
b1100 c#
b1100 R
0O
b1000000000000 1"
b1000000000000 i"
b100110000001100010011 i
b100110000001100010011 _#
b10 u
b10 F#
b10 b"
b10 4"
b10 J#
b11 j
b11 M#
b11 `#
10"
1W
b10000000000000 k
b10000000000000 b#
0,"
b1000000000000 ."
b1000000000000 h"
b1000000000000 @
b1100 X
b1000 !
b1000 Y
b1000 ^#
b1000 d#
b10 +#
b10001100110111 >
b10001100110111 H#
b10001100110111 a#
b10001100110111 X"
b1000 ?
b1000 Y"
b1 8
b1 j"
b1 G"
b10 5
b10 C"
b101 ;
b101 Z#
b101 Q"
b1000000000000 r
b1000000000000 H"
b1000000000100 *"
b1000000000100 b
b0 y
b0 o"
b100 o
b100 P"
12
1@"
b100 '
1"
#40000
0"
#45000
b10000000001000 `
b10000000000000 1"
b10000000000000 i"
b11 2"
b11 d"
b11 K#
b10000 J
b10000 c#
b10000 R
b10000000000000 ."
b10000000000000 h"
b10000000000000 @
b0 u
b110 g#
b1 h#
b10011 I#
b0 F#
b0 b"
b110 [#
b1 \#
b0 4"
b0 J#
b0 j
b0 M#
b0 `#
10"
1W
b1 k
b1 b#
b11000101010000000100011 i
b11000101010000000100011 _#
1F
1`"
b1 ,
b1 9"
b1 Q#
b1000000000100 z
b1000000000100 ;"
b1000000000100 {
b1000000000100 7"
b101 1
b101 ?"
b101 T#
b100 0
b100 >"
b1000000000000 *
b1000000000000 5"
b1000000000000 q"
b1000000000000 p#
b10 8
b10 j"
b10 G"
b110 ;
b110 Z#
b110 Q"
b10000000000000 r
b10000000000000 H"
b10000000001000 *"
b10000000001000 b
b100 y
b100 o"
b1000 o
b1000 P"
b100110000001100010011 >
b100110000001100010011 H#
b100110000001100010011 a#
b100110000001100010011 X"
b1100 ?
b1100 Y"
b11 +#
b10000 X
b1100 !
b1100 Y
b1100 ^#
b1100 d#
b101 '
1"
#50000
0"
#55000
b1000000000000 V
b1000000000000 j#
b1101 `
b10000000000000 ~
b10000000000000 x"
b10000000000000 /"
b10000000000000 f"
b10000000000000 k"
b10100 J
b10100 c#
b10100 R
b1 j
b1 M#
b1 `#
1^
b0 3"
b0 e"
b10000000000001 1"
b10000000000001 i"
b10001110110111 i
b10001110110111 _#
b10 u
b101 g#
b110 h#
b100011 I#
b10 F#
b10 b"
b101 [#
b110 \#
b0 2"
b0 d"
b0 K#
10"
0W
b0 k
b0 b#
0,"
b1 ."
b1 h"
b10000000000000 @
b1 w
b1 X#
b1000000000000 P
b1000000000000 f#
b10100 X
b10000 !
b10000 Y
b10000 ^#
b10000 d#
b100 +#
b11000101010000000100011 >
b11000101010000000100011 H#
b11000101010000000100011 a#
b11000101010000000100011 X"
b10000 ?
b10000 Y"
b1 E"
b1 m"
b0 8
b0 j"
b0 G"
b0 5
b0 C"
b1 =
b1 V#
b1 U"
b110 n
b110 S"
b110 U#
b1 r
b1 H"
b1101 *"
b1101 b
b1000 y
b1000 o"
b1100 o
b1100 P"
b10 ,
b10 9"
b10 Q#
b10000000001000 z
b10000000001000 ;"
b10000000001000 {
b10000000001000 7"
b110 1
b110 ?"
b110 T#
b1000 0
b1000 >"
b10000000000000 *
b10000000000000 5"
b10000000000000 q"
b10000000000000 p#
b100 ^"
b101 E
b101 _"
b101 W#
b101 e#
b1000000000000 B
b1000000000000 Z"
b110 '
1"
#60000
0"
#65000
b10000 `
b10000000000001 -"
b10000000000001 l"
b1000000000000 @
b1000000000000 ~
b1000000000000 x"
b0 V
b0 j#
b1000000000000 /"
b1000000000000 f"
b1000000000000 k"
b1000000000000 1"
b1000000000000 i"
b10 4"
b10 J#
1W
b11000 J
b11000 c#
b11000 R
b10000000000000 P
b10000000000000 f#
b1 v
b1 Y#
b0 w
b0 X#
b0 ."
b0 h"
b0 g#
b0 h#
b110111 I#
b0 [#
b0 \#
b11 j
b11 M#
b11 `#
0^
10"
b10000000000000 k
b10000000000000 b#
b1111000110111 i
b1111000110111 _#
b1000 ^"
b110 E
b110 _"
b110 W#
b110 e#
b10000000000000 B
b10000000000000 Z"
b0 ,
b0 9"
b0 Q#
b1101 z
b1101 ;"
b1101 {
b1101 7"
b1100 0
b1100 >"
b10000000000001 *
b10000000000001 5"
b10000000000001 q"
b10000000000001 p#
b110 E"
b110 m"
b10 8
b10 j"
b10 G"
0<
0R"
1:
1O"
b0 ;
b0 Z#
b0 Q"
b110 =
b110 V#
b110 U"
b101 n
b101 S"
b101 U#
b0 r
b0 H"
b1000000000000 m
b1000000000000 T"
b10000 *"
b10000 b
b1100 y
b1100 o"
b10000 o
b10000 P"
b10001110110111 >
b10001110110111 H#
b10001110110111 a#
b10001110110111 X"
b10100 ?
b10100 Y"
b101 +#
b11000 X
b10100 !
b10100 Y
b10100 ^#
b10100 d#
b111 '
1"
#70000
0"
#75000
b10000000010100 `
1M
1L
b11100 J
b11100 c#
b11100 R
b0 ~
b0 x"
b10000000000000 1"
b10000000000000 i"
1G
b1 ~#
b0 -"
b0 l"
b11000001011111100000111000010011 i
b11000001011111100000111000010011 _#
b1 u
b1 F#
b1 b"
b10 4"
b10 J#
b11 j
b11 M#
b11 `#
10"
1W
b1000000000000 k
b1000000000000 b#
b10000000000000 ."
b10000000000000 h"
b10000000000000 @
b0 /"
b0 f"
b0 k"
1H
b0 v
b0 Y#
b10000000000001 P
b10000000000001 f#
b11100 X
b11000 !
b11000 Y
b11000 ^#
b11000 d#
b110 +#
b1111000110111 >
b1111000110111 H#
b1111000110111 a#
b1111000110111 X"
b11000 ?
b11000 Y"
b0 E"
b0 m"
b10 5
b10 C"
1<
1R"
0:
0O"
b111 ;
b111 Z#
b111 Q"
b0 =
b0 V#
b0 U"
b0 n
b0 S"
b0 U#
b10000000000000 r
b10000000000000 H"
b0 m
b0 T"
b10000000010100 *"
b10000000010100 b
b10000 y
b10000 o"
b10100 o
b10100 P"
b10 ,
b10 9"
b10 Q#
b10000 z
b10000 ;"
b10000 {
b10000 7"
02
0@"
1/
1="
b0 1
b0 ?"
b0 T#
b10000 0
b10000 >"
b10000000000001 3
b10000000000001 A"
b10000000000001 R#
b1000000000000 *
b1000000000000 5"
b1000000000000 q"
b1000000000000 p#
b1100 ^"
b10000000000001 B
b10000000000001 Z"
b1000 '
1"
#80000
0"
#85000
b1000000011000 `
b1000000000000 1"
b1000000000000 i"
b1000000000000 P
b1000000000000 f#
b1000000000000 ."
b1000000000000 h"
b1000000000000 @
b10 ~#
b10000 ^"
0F
0`"
b0 E
b0 _"
b0 W#
b0 e#
b1000000000000 B
b1000000000000 Z"
b1 8
b1 j"
b1 G"
b11100 ;
b11100 Z#
b11100 Q"
b1000000000000 r
b1000000000000 H"
b1000000011000 *"
b1000000011000 b
b10100 y
b10100 o"
b11000 o
b11000 P"
b11 "$
1{#
b1000000000000 '$
b1 &$
b111 +#
b1001 '
1"
#90000
0"
#95000
b100 }
b100 P#
b11 ~#
b1000 +#
b100 \
b100 |#
1}#
bx #$
b10 &$
b1010 '
1"
#100000
0"
#105000
xs#
xu#
xr#
xq#
xt#
bx v#
b0 ~#
bx $$
b11 &$
b1001 +#
b1011 '
1"
#110000
0"
#115000
0M
0L
bx000000000000 }
bx000000000000 P#
1|
0G
b1 ~#
b1010 +#
bx000000000000 [
bx000000000000 !$
1]
0}#
b0 &$
b1100 '
1"
#120000
0"
#125000
b11 2"
b11 d"
b11 K#
0M
0L
bx000000000000 }
bx000000000000 P#
b100000 J
b100000 c#
b100000 R
0|
0H
b0 u
b11100 g#
b10111 h#
b10011 I#
b0 F#
b1100000 G#
b0 b"
b1100000 c"
b11100 [#
b10111 \#
b0 4"
b0 J#
b0 j
b0 M#
b0 `#
10"
1W
b11111111111111111111110000010111 k
b11111111111111111111110000010111 b#
0G
b10 ~#
b1110000111010001000100011 i
b1110000111010001000100011 _#
b1 ,
b1 9"
b1 Q#
b1000000011000 z
b1000000011000 ;"
b1000000011000 {
b1000000011000 7"
12
1@"
0/
0="
b11100 1
b11100 ?"
b11100 T#
b11000 0
b11000 >"
b0 3
b0 A"
b0 R#
b11000001011111100000111000010011 >
b11000001011111100000111000010011 H#
b11000001011111100000111000010011 a#
b11000001011111100000111000010011 X"
b11100 ?
b11100 Y"
0]
b0 \
b0 |#
b1 &$
b1011 +#
b100000 X
b11100 !
b11100 Y
b11100 ^#
b11100 d#
b1101 '
1"
#130000
0"
#135000
b1000000000000 U
b1000000000000 i#
b11111111111111111111110000110011 `
b1000000000000 ~
b1000000000000 x"
b1000000000000 /"
b1000000000000 f"
b1000000000000 k"
b0 V
b0 j#
b100100 J
b100100 c#
b100100 R
b1 j
b1 M#
b1 `#
1^
b0 3"
b0 e"
b110000010111 1"
b110000010111 i"
b10000000010000000000111010110111 i
b10000000010000000000111010110111 _#
b11 ~#
b10 u
b111 g#
b11100 h#
b100011 I#
b10 F#
b0 G#
b10 b"
b0 c"
b111 [#
b11100 \#
b0 2"
b0 d"
b0 K#
10"
0W
b100 k
b100 b#
0,"
b11111111111111111111110000010111 ."
b11111111111111111111110000010111 h"
b110000010110 @
b1 w
b1 X#
b100100 X
b100000 !
b100000 Y
b100000 ^#
b100000 d#
b1100 +#
bx000000000100 \
bx000000000100 |#
1}#
b10 &$
b1110000111010001000100011 >
b1110000111010001000100011 H#
b1110000111010001000100011 a#
b1110000111010001000100011 X"
b100000 ?
b100000 Y"
b110000010111 E"
b110000010111 m"
b0 8
b0 j"
b0 G"
b0 5
b0 C"
b10111 =
b10111 V#
b10111 U"
b11100 n
b11100 S"
b11100 U#
b11111111111111111111110000010111 r
b11111111111111111111110000010111 H"
b11111111111111111111110000110011 *"
b11111111111111111111110000110011 b
b11000 y
b11000 o"
b11100 o
b11100 P"
b11000 ^"
1F
1`"
b11100 E
b11100 _"
b11100 W#
b11100 e#
b1110 '
1"
#140000
0"
