wave.vcd
$date
	Wed Mar 11 20:49:46 2026
$end
$version
	Icarus Verilog
$end
$timescale
	1ps
$end
$scope module tb_top $end
$var wire 32 ! pc [31:0] $end
$var reg 1 " clk $end
$var reg 1 # int_ext $end
$var reg 1 $ int_soft $end
$var reg 1 % int_timer $end
$var reg 1 & rst_n $end
$var integer 32 ' cycle [31:0] $end
$var integer 32 ( i [31:0] $end
$scope module u_cpu $end
$var wire 1 ) branch_taken $end
$var wire 1 " clk $end
$var wire 32 * ex_mem_alu_result [31:0] $end
$var wire 1 + ex_mem_branch_taken $end
$var wire 3 , ex_mem_funct3 [2:0] $end
$var wire 1 - ex_mem_jump_taken $end
$var wire 1 . ex_mem_mem_to_reg $end
$var wire 1 / ex_mem_mem_write $end
$var wire 32 0 ex_mem_pc_plus4 [31:0] $end
$var wire 5 1 ex_mem_rd_addr [4:0] $end
$var wire 1 2 ex_mem_reg_write $end
$var wire 32 3 ex_mem_rs2_data [31:0] $end
$var wire 1 4 flush_if_id $end
$var wire 2 5 id_ex_alu_a_sel [1:0] $end
$var wire 4 6 id_ex_alu_ctrl [3:0] $end
$var wire 1 7 id_ex_enable $end
$var wire 3 8 id_ex_funct3 [2:0] $end
$var wire 1 9 id_ex_mem_to_reg $end
$var wire 1 : id_ex_mem_write $end
$var wire 5 ; id_ex_rd_addr [4:0] $end
$var wire 1 < id_ex_reg_write $end
$var wire 5 = id_ex_rs2_addr [4:0] $end
$var wire 32 > if_id_instr [31:0] $end
$var wire 32 ? if_id_pc_plus4 [31:0] $end
$var wire 1 # int_ext $end
$var wire 1 $ int_soft $end
$var wire 1 % int_timer $end
$var wire 32 @ jalr_target [31:0] $end
$var wire 1 A jump_taken $end
$var wire 32 B mem_wb_alu_result [31:0] $end
$var wire 32 C mem_wb_mem_rdata [31:0] $end
$var wire 1 D mem_wb_mem_to_reg $end
$var wire 5 E mem_wb_rd_addr [4:0] $end
$var wire 1 F mem_wb_reg_write $end
$var wire 1 G mret_taken $end
$var wire 32 H next_pc [31:0] $end
$var wire 1 & rst_n $end
$var wire 1 I trap_taken $end
$var wire 1 J zero $end
$var wire 32 K write_data [31:0] $end
$var wire 2 L wb_sel [1:0] $end
$var wire 32 M target [31:0] $end
$var wire 1 N stall_pc $end
$var wire 1 O stall_if_id $end
$var wire 32 P rs2_data [31:0] $end
$var wire 32 Q rs1_data [31:0] $end
$var wire 1 R reg_write $end
$var wire 32 S pc_plus4 [31:0] $end
$var wire 32 T pc [31:0] $end
$var wire 1 U mem_write $end
$var wire 32 V mem_rdata [31:0] $end
$var wire 32 W jump_target [31:0] $end
$var wire 1 X jalr $end
$var wire 32 Y jal_target [31:0] $end
$var wire 1 Z jal $end
$var wire 1 [ is_mret $end
$var wire 1 \ is_ecall $end
$var wire 1 ] is_ebreak $end
$var wire 1 ^ is_csr $end
$var wire 32 _ instr [31:0] $end
$var wire 3 ` imm_sel [2:0] $end
$var wire 32 a imm [31:0] $end
$var wire 32 b id_ex_rs2_data [31:0] $end
$var wire 32 c id_ex_rs1_data [31:0] $end
$var wire 5 d id_ex_rs1_addr [4:0] $end
$var wire 32 e id_ex_pc_plus4 [31:0] $end
$var wire 1 f id_ex_jalr $end
$var wire 1 g id_ex_jal $end
$var wire 32 h id_ex_imm [31:0] $end
$var wire 1 i id_ex_branch $end
$var wire 1 j id_ex_alu_src $end
$var wire 3 k funct3 [2:0] $end
$var wire 2 l forward_b [1:0] $end
$var wire 2 m forward_a [1:0] $end
$var wire 1 n flush_id_ex $end
$var wire 32 o exc_pc [31:0] $end
$var wire 32 p ex_mem_jump_target [31:0] $end
$var wire 32 q ex_mem_branch_target [31:0] $end
$var wire 32 r csr_wdata [31:0] $end
$var wire 32 s csr_trap_pc [31:0] $end
$var wire 1 t csr_take_trap $end
$var wire 32 u csr_rdata [31:0] $end
$var wire 2 v csr_privilege [1:0] $end
$var wire 3 w csr_op [2:0] $end
$var wire 32 x csr_mepc [31:0] $end
$var wire 1 y csr_flush $end
$var wire 32 z branch_target [31:0] $end
$var wire 1 { branch $end
$var wire 1 | br_taken $end
$var wire 32 } alu_src2_rs2 [31:0] $end
$var wire 32 ~ alu_src2 [31:0] $end
$var wire 32 !" alu_src1 [31:0] $end
$var wire 1 "" alu_src $end
$var wire 32 #" alu_result [31:0] $end
$var wire 2 $" alu_op [1:0] $end
$var wire 4 %" alu_ctrl [3:0] $end
$var wire 2 &" alu_a_sel [1:0] $end
$var reg 32 '" ex_mem_alu_result_reg [31:0] $end
$var reg 1 (" ex_mem_branch_taken_reg $end
$var reg 32 )" ex_mem_branch_target_reg [31:0] $end
$var reg 32 *" ex_mem_csr_rdata_reg [31:0] $end
$var reg 3 +" ex_mem_funct3_reg [2:0] $end
$var reg 1 ," ex_mem_jump_taken_reg $end
$var reg 32 -" ex_mem_jump_target_reg [31:0] $end
$var reg 1 ." ex_mem_mem_to_reg_reg $end
$var reg 1 /" ex_mem_mem_write_reg $end
$var reg 32 0" ex_mem_pc_plus4_reg [31:0] $end
$var reg 5 1" ex_mem_rd_addr_reg [4:0] $end
$var reg 1 2" ex_mem_reg_write_reg $end
$var reg 32 3" ex_mem_rs2_data_reg [31:0] $end
$var reg 2 4" ex_mem_wb_sel_reg [1:0] $end
$var reg 2 5" id_ex_alu_a_sel_reg [1:0] $end
$var reg 4 6" id_ex_alu_ctrl_reg [3:0] $end
$var reg 1 j id_ex_alu_src_reg $end
$var reg 1 i id_ex_branch_reg $end
$var reg 12 7" id_ex_csr_addr_reg [11:0] $end
$var reg 3 8" id_ex_csr_op_reg [2:0] $end
$var reg 3 9" id_ex_funct3_reg [2:0] $end
$var reg 32 :" id_ex_imm_reg [31:0] $end
$var reg 1 ;" id_ex_is_csr_reg $end
$var reg 1 <" id_ex_is_ebreak_reg $end
$var reg 1 =" id_ex_is_ecall_reg $end
$var reg 1 >" id_ex_is_mret_reg $end
$var reg 1 g id_ex_jal_reg $end
$var reg 1 f id_ex_jalr_reg $end
$var reg 1 ?" id_ex_mem_to_reg_reg $end
$var reg 1 @" id_ex_mem_write_reg $end
$var reg 32 A" id_ex_pc_plus4_reg [31:0] $end
$var reg 5 B" id_ex_rd_addr_reg [4:0] $end
$var reg 1 C" id_ex_reg_write_reg $end
$var reg 5 D" id_ex_rs1_addr_reg [4:0] $end
$var reg 32 E" id_ex_rs1_data_reg [31:0] $end
$var reg 5 F" id_ex_rs2_addr_reg [4:0] $end
$var reg 32 G" id_ex_rs2_data_reg [31:0] $end
$var reg 2 H" id_ex_wb_sel_reg [1:0] $end
$var reg 32 I" if_id_instr_reg [31:0] $end
$var reg 32 J" if_id_pc_plus4_reg [31:0] $end
$var reg 32 K" mem_wb_alu_result_reg [31:0] $end
$var reg 32 L" mem_wb_csr_rdata_reg [31:0] $end
$var reg 32 M" mem_wb_mem_rdata_reg [31:0] $end
$var reg 1 N" mem_wb_mem_to_reg_reg $end
$var reg 32 O" mem_wb_pc_plus4_reg [31:0] $end
$var reg 5 P" mem_wb_rd_addr_reg [4:0] $end
$var reg 1 Q" mem_wb_reg_write_reg $end
$var reg 2 R" mem_wb_wb_sel_reg [1:0] $end
$scope module alu_ctrl_inst $end
$var wire 3 S" funct3 [2:0] $end
$var wire 7 T" funct7 [6:0] $end
$var wire 2 U" alu_op [1:0] $end
$var reg 4 V" alu_ctrl [3:0] $end
$upscope $end
$scope module alu_inst $end
$var wire 32 W" a [31:0] $end
$var wire 4 X" alu_ctrl [3:0] $end
$var wire 32 Y" b [31:0] $end
$var wire 1 J zero $end
$var reg 32 Z" result [31:0] $end
$upscope $end
$scope module br_comp $end
$var wire 3 [" funct3 [2:0] $end
$var wire 32 \" rs1_data [31:0] $end
$var wire 32 ]" rs2_data [31:0] $end
$var reg 1 | br_taken $end
$upscope $end
$scope module csr_inst $end
$var wire 12 ^" addr [11:0] $end
$var wire 1 " clk $end
$var wire 32 _" current_instr [31:0] $end
$var wire 32 `" current_pc [31:0] $end
$var wire 1 <" ex_ebreak $end
$var wire 1 =" ex_ecall $end
$var wire 1 a" ex_illegal $end
$var wire 1 >" ex_mret $end
$var wire 1 b" ext_pending $end
$var wire 1 c" inst_retire $end
$var wire 1 # int_ext $end
$var wire 1 d" int_pending $end
$var wire 1 $ int_soft $end
$var wire 1 % int_timer $end
$var wire 32 e" mepc_value [31:0] $end
$var wire 3 f" op [2:0] $end
$var wire 1 & rst_n $end
$var wire 1 g" soft_pending $end
$var wire 1 h" take_exception $end
$var wire 1 i" take_int $end
$var wire 1 j" take_trap $end
$var wire 1 k" timer_pending $end
$var wire 32 l" wdata [31:0] $end
$var wire 1 ;" we $end
$var wire 32 m" trap_pc [31:0] $end
$var wire 32 n" int_cause [31:0] $end
$var parameter 32 o" CAUSE_BREAKPOINT $end
$var parameter 32 p" CAUSE_ECALL_M $end
$var parameter 32 q" CAUSE_ECALL_S $end
$var parameter 32 r" CAUSE_ECALL_U $end
$var parameter 32 s" CAUSE_FETCH_ACCESS $end
$var parameter 32 t" CAUSE_ILLEGAL_INSTR $end
$var parameter 32 u" CAUSE_LOAD_ACCESS $end
$var parameter 32 v" CAUSE_MISALIGN_FETCH $end
$var parameter 32 w" CAUSE_MISALIGN_LOAD $end
$var parameter 32 x" CAUSE_MISALIGN_STORE $end
$var parameter 32 y" CAUSE_STORE_ACCESS $end
$var parameter 32 z" INT_EXT $end
$var parameter 32 {" INT_SOFT $end
$var parameter 32 |" INT_TIMER $end
$var parameter 2 }" PRIV_M $end
$var parameter 2 ~" PRIV_S $end
$var parameter 2 !# PRIV_U $end
$var reg 1 y flush_pipeline $end
$var reg 32 "# mcause [31:0] $end
$var reg 32 ## mcycle [31:0] $end
$var reg 32 $# mcycleh [31:0] $end
$var reg 32 %# mepc [31:0] $end
$var reg 32 &# mhartid [31:0] $end
$var reg 32 '# mie [31:0] $end
$var reg 32 (# minstret [31:0] $end
$var reg 32 )# minstreth [31:0] $end
$var reg 32 *# mip [31:0] $end
$var reg 32 +# misa [31:0] $end
$var reg 1 ,# mret_pending $end
$var reg 32 -# mscratch [31:0] $end
$var reg 32 .# mstatus [31:0] $end
$var reg 32 /# mtval [31:0] $end
$var reg 32 0# mtvec [31:0] $end
$var reg 2 1# privilege [1:0] $end
$var reg 32 2# rdata [31:0] $end
$var reg 32 3# trap_cause [31:0] $end
$var reg 32 4# trap_pc_reg [31:0] $end
$var reg 32 5# trap_pc_val [31:0] $end
$var reg 1 6# trap_pending $end
$var reg 1 t trap_taken $end
$var reg 32 7# trap_tval [31:0] $end
$upscope $end
$scope module ctrl_inst $end
$var wire 3 8# funct3 [2:0] $end
$var wire 7 9# funct7 [6:0] $end
$var wire 32 :# instr [31:0] $end
$var wire 7 ;# opcode [6:0] $end
$var reg 2 <# alu_a_sel [1:0] $end
$var reg 2 =# alu_op [1:0] $end
$var reg 1 "" alu_src $end
$var reg 1 { branch $end
$var reg 3 ># csr_op [2:0] $end
$var reg 3 ?# imm_sel [2:0] $end
$var reg 1 ^ is_csr $end
$var reg 1 ] is_ebreak $end
$var reg 1 \ is_ecall $end
$var reg 1 [ is_mret $end
$var reg 1 Z jal $end
$var reg 1 X jalr $end
$var reg 1 @# mem_read $end
$var reg 1 U mem_write $end
$var reg 1 R reg_write $end
$var reg 2 A# wb_sel [1:0] $end
$upscope $end
$scope module dmem_inst $end
$var wire 32 B# addr [31:0] $end
$var wire 1 " clk $end
$var wire 3 C# funct3 [2:0] $end
$var wire 32 D# wdata [31:0] $end
$var wire 1 / we $end
$var reg 32 E# rdata [31:0] $end
$upscope $end
$scope module fwd_unit $end
$var wire 5 F# ex_mem_rd [4:0] $end
$var wire 1 2" ex_mem_reg_write $end
$var wire 5 G# id_ex_rs1 [4:0] $end
$var wire 5 H# id_ex_rs2 [4:0] $end
$var wire 5 I# mem_wb_rd [4:0] $end
$var wire 1 Q" mem_wb_reg_write $end
$var reg 2 J# forward_a [1:0] $end
$var reg 2 K# forward_b [1:0] $end
$upscope $end
$scope module hazard $end
$var wire 1 (" branch_taken $end
$var wire 1 9 id_ex_mem_read $end
$var wire 5 L# id_ex_rd [4:0] $end
$var wire 5 M# if_id_rs1 [4:0] $end
$var wire 5 N# if_id_rs2 [4:0] $end
$var wire 1 ," jump_taken $end
$var reg 1 n flush_id_ex $end
$var reg 1 O# flush_if_id $end
$var reg 1 O stall_if_id $end
$var reg 1 N stall_pc $end
$upscope $end
$scope module imem_inst $end
$var wire 32 P# addr [31:0] $end
$var reg 32 Q# instr [31:0] $end
$upscope $end
$scope module imm_inst $end
$var wire 3 R# immsel [2:0] $end
$var wire 32 S# instr [31:0] $end
$var reg 32 T# imm [31:0] $end
$upscope $end
$scope module pc_inst $end
$var wire 1 " clk $end
$var wire 32 U# next_pc [31:0] $end
$var wire 1 & rst_n $end
$var wire 1 N stall $end
$var reg 32 V# pc [31:0] $end
$upscope $end
$scope module reg_inst $end
$var wire 1 " clk $end
$var wire 5 W# rd_addr [4:0] $end
$var wire 32 X# rd_data [31:0] $end
$var wire 5 Y# rs1_addr [4:0] $end
$var wire 5 Z# rs2_addr [4:0] $end
$var wire 1 Q" we $end
$var wire 32 [# rs2_data [31:0] $end
$var wire 32 \# rs1_data [31:0] $end
$var integer 32 ]# i [31:0] $end
$upscope $end
$upscope $end
$upscope $end
$enddefinitions $end
$comment Show the parameter values. $end
$dumpall
b0 !#
b1 ~"
b11 }"
b111 |"
b11 {"
b1011 z"
b111 y"
b110 x"
b100 w"
b0 v"
b101 u"
b10 t"
b1 s"
b1000 r"
b1001 q"
b1011 p"
b11 o"
$end
#0
$dumpvars
b100000 ]#
b0 \#
b0 [#
b0 Z#
b0 Y#
b0 X#
b0 W#
b0 V#
b100 U#
b0 T#
b10011 S#
b0 R#
b1010110111 Q#
b0 P#
0O#
b0 N#
b0 M#
b0 L#
b0 K#
b0 J#
b0 I#
b0 H#
b0 G#
b0 F#
bx E#
b0 D#
b0 C#
b0 B#
b0 A#
0@#
b0 ?#
b0 >#
b11 =#
b0 <#
b10011 ;#
b10011 :#
b0 9#
b0 8#
bx 7#
06#
bx 5#
b0 4#
bx 3#
b0 2#
b11 1#
b0 0#
b0 /#
b1100000000000 .#
b0 -#
0,#
b1000000000000000000000100000000 +#
b0 *#
b0 )#
b0 (#
b0 '#
b0 &#
b0 %#
b0 $#
b0 ##
b0 "#
b0 n"
b0 m"
b0 l"
0k"
0j"
0i"
0h"
0g"
b0 f"
b0 e"
0d"
0c"
0b"
0a"
b11111111111111111111111111111100 `"
b0 _"
b0 ^"
b0 ]"
b0 \"
b0 ["
b0 Z"
b0 Y"
b0 X"
b0 W"
b0 V"
b11 U"
b0 T"
b0 S"
b0 R"
0Q"
b0 P"
b0 O"
0N"
b0 M"
b0 L"
b0 K"
b0 J"
b10011 I"
b0 H"
b0 G"
b0 F"
b0 E"
b0 D"
0C"
b0 B"
b0 A"
0@"
0?"
0>"
0="
0<"
0;"
b0 :"
b0 9"
b0 8"
b0 7"
b0 6"
b0 5"
b0 4"
b0 3"
02"
b0 1"
b0 0"
0/"
0."
b0 -"
0,"
b0 +"
b0 *"
b0 )"
0("
b0 '"
b0 &"
b0 %"
b11 $"
b0 #"
1""
b0 !"
b0 ~
b0 }
1|
0{
b0 z
0y
b0 x
b0 w
b11 v
b0 u
0t
b0 s
b0 r
b0 q
b0 p
b11111111111111111111111111111100 o
0n
b0 m
b0 l
b0 k
0j
0i
b0 h
0g
0f
b0 e
b0 d
b0 c
b0 b
b0 a
b0 `
b1010110111 _
0^
0]
0\
0[
0Z
b0 Y
0X
b0 W
bx V
0U
b0 T
b100 S
1R
b0 Q
b0 P
0O
0N
b100 M
b0 L
b0 K
1J
0I
b100 H
0G
0F
b0 E
0D
b0 C
b0 B
0A
b0 @
b0 ?
b10011 >
b0 =
0<
b0 ;
0:
09
b0 8
17
b0 6
b0 5
04
b0 3
02
b0 1
b0 0
0/
0.
0-
b0 ,
0+
b0 *
0)
bx (
b0 '
0&
0%
0$
0#
0"
b0 !
$end
#5000
b1 '
1"
#10000
0"
#15000
b10 '
1"
#20000
0"
1&
#25000
b10 &"
b10 <#
b11 `
b11 ?#
b11 R#
b1000 H
b1000 U#
b1000 M
b110111 ;#
b0 $"
b0 U"
b0 =#
1""
1R
b11100000101000001010010011 _
b11100000101000001010010011 Q#
bx C
bx M"
1<
1C"
1j
b1010110111 >
b1010110111 :#
b1010110111 S#
b1010110111 I"
b100 ?
b100 J"
b1 ##
b1000 S
b100 !
b100 T
b100 P#
b100 V#
b11 '
1"
#30000
0"
#35000
b100 W
b1100 H
b1100 U#
b1100 M
b11 $"
b11 U"
b11 =#
b110000010100101001000001110011 _
b110000010100101001000001110011 Q#
b101 Y#
b11000 Z#
b10011 ;#
b1 9#
b1 T"
b101 M#
b11000 N#
b0 &"
b0 <#
b0 `
b0 ?#
b0 R#
1""
1R
b111000 a
b111000 T#
b1100 S
b1000 !
b1000 T
b1000 P#
b1000 V#
b10 ##
b11100000101000001010010011 >
b11100000101000001010010011 :#
b11100000101000001010010011 S#
b11100000101000001010010011 I"
b1000 ?
b1000 J"
b10 5
b10 5"
b101 ;
b101 L#
b101 B"
b100 z
b100 Y
b0 o
b0 `"
b100 e
b100 A"
12
12"
b100 '
1"
#40000
0"
#45000
b1000000 W
0J
b111000 #"
b111000 Z"
b11 L
b11 A#
b1 w
b1 >#
1^
b0 %"
b0 V"
b10000 H
b10000 U#
b10000 M
b1 m
b1 J#
b111000 ~
b111000 Y"
b111000 @
b1 k
b101 Z#
b1110011 ;#
b1 8#
b11000 9#
b1 S"
b11000 T"
b101 N#
b0 $"
b0 U"
b0 =#
0""
1R
b1100000101 a
b1100000101 T#
b1100110111 _
b1100110111 Q#
1F
1Q"
b100 p
b100 -"
b100 q
b100 )"
b101 1
b101 1"
b101 F#
b100 0
b100 0"
b111000 7"
b111000 ^"
b0 5
b0 5"
b11000 =
b11000 H#
b11000 F"
b101 d
b101 D"
b101 G#
b111000 h
b111000 :"
b1000000 z
b1000000 Y
b100 o
b100 `"
b1000 e
b1000 A"
b110000010100101001000001110011 >
b110000010100101001000001110011 :#
b110000010100101001000001110011 S#
b110000010100101001000001110011 I"
b1100 ?
b1100 J"
b11 ##
b10000 S
b1100 !
b1100 T
b1100 P#
b1100 V#
b101 '
1"
#50000
0"
#55000
b1110000 #"
b1110000 Z"
b1100010001 W
b111000 }
b111000 ]"
b111000 r
b111000 l"
b10100 H
b10100 U#
b10100 M
b10 &"
b10 <#
b11 `
b11 ?#
b11 R#
1""
b111000 !"
b111000 W"
b111000 \"
b11010000110000001100010011 _
b11010000110000001100010011 Q#
b0 k
b0 Y#
b0 Z#
b110111 ;#
b0 8#
b0 9#
b0 S"
b0 T"
b0 M#
b0 N#
0^
b0 w
b0 >#
b0 L
b0 A#
1R
b0 a
b0 T#
0|
b111000 ~
b111000 Y"
b1100111100 @
b1 l
b1 K#
b1 m
b1 J#
b10100 S
b10000 !
b10000 T
b10000 P#
b10000 V#
b100 ##
b1100110111 >
b1100110111 :#
b1100110111 S#
b1100110111 I"
b10000 ?
b10000 J"
1;"
b1100000101 7"
b1100000101 ^"
b1 8"
b1 f"
b11 H"
b1 8
b1 ["
b1 9"
0j
b0 ;
b0 L#
b0 B"
b101 =
b101 H#
b101 F"
b1100000101 h
b1100000101 :"
b1100010001 z
b1100010001 Y
b1000 o
b1000 `"
b1100 e
b1100 A"
b1000000 p
b1000000 -"
b1000000 q
b1000000 )"
b1000 0
b1000 0"
b111000 *
b111000 B#
b111000 '"
b100 O"
b101 E
b101 P"
b101 I#
b101 W#
b110 '
1"
#60000
0"
#65000
b0 r
b0 l"
b10000 W
1J
b0 #"
b0 Z"
b0 }
b0 ]"
b0 !"
b0 W"
b0 \"
b11 $"
b11 U"
b11 =#
b11000 H
b11000 U#
b11000 M
b111000 K
b111000 X#
1|
b0 ~
b0 Y"
b0 l
b0 K#
b0 m
b0 J#
b0 @
b110 Y#
b10100 Z#
b10011 ;#
b1 9#
b1 T"
b110 M#
b10100 N#
b0 &"
b0 <#
b0 `
b0 ?#
b0 R#
1""
1R
b110100 a
b110100 T#
b110100000100110001000001110011 _
b110100000100110001000001110011 Q#
b1000 O"
b111000 B
b111000 K"
b11 4"
b1 ,
b1 C#
b1 +"
b1100010001 p
b1100010001 -"
b1100010001 q
b1100010001 )"
b0 1
b0 1"
b0 F#
b1100 0
b1100 0"
b111000 3
b111000 D#
b111000 3"
b1110000 *
b1110000 B#
b1110000 '"
0;"
b0 7"
b0 ^"
b0 8"
b0 f"
b0 H"
b0 8
b0 ["
b0 9"
b10 5
b10 5"
1j
b110 ;
b110 L#
b110 B"
b0 =
b0 H#
b0 F"
b0 d
b0 D"
b0 G#
b0 h
b0 :"
b10000 z
b10000 Y
b1100 o
b1100 `"
b10000 e
b10000 A"
b11010000110000001100010011 >
b11010000110000001100010011 :#
b11010000110000001100010011 S#
b11010000110000001100010011 I"
b10100 ?
b10100 J"
b101 ##
b11000 S
b10100 !
b10100 T
b10100 P#
b10100 V#
b111000 0#
b111 '
1"
#70000
0"
#75000
b1001000 W
b11100 H
b11100 U#
b11100 M
b11 L
b11 A#
b1 w
b1 >#
1^
b0 %"
b0 V"
0J
b110100 #"
b110100 Z"
b110000000000000010001111110011 _
b110000000000000010001111110011 Q#
b1 k
b1 Z#
b1110011 ;#
b1 8#
b11010 9#
b1 S"
b11010 T"
b1 N#
b0 $"
b0 U"
b0 =#
0""
1R
b1101000001 a
b1101000001 T#
b110100 ~
b110100 Y"
b110100 @
b1 m
b1 J#
b0 K
b0 X#
b11100 S
b11000 !
b11000 T
b11000 P#
b11000 V#
b110 ##
b110100000100110001000001110011 >
b110100000100110001000001110011 :#
b110100000100110001000001110011 S#
b110100000100110001000001110011 I"
b11000 ?
b11000 J"
b110100 7"
b110100 ^"
b0 5
b0 5"
b10100 =
b10100 H#
b10100 F"
b110 d
b110 D"
b110 G#
b110100 h
b110100 :"
b1001000 z
b1001000 Y
b10000 o
b10000 `"
b10100 e
b10100 A"
b0 4"
b0 ,
b0 C#
b0 +"
b10000 p
b10000 -"
b10000 q
b10000 )"
b110 1
b110 1"
b110 F#
b10000 0
b10000 0"
b0 3
b0 D#
b0 3"
b0 *
b0 B#
b0 '"
b1100 O"
b11 R"
b0 E
b0 P"
b0 I#
b0 W#
b1110000 B
b1110000 K"
b1000 '
1"
#80000
0"
#85000
b110100 r
b110100 l"
b1101011001 W
b110100 !"
b110100 W"
b110100 \"
0J
b110100 #"
b110100 Z"
b100000 H
b100000 U#
b100000 M
1|
b1 m
b1 J#
b0 ~
b0 Y"
b1101110100 @
b10 k
b0 Y#
b0 Z#
b10 8#
b11000 9#
b10 S"
b11000 T"
b0 M#
b0 N#
1^
b10 w
b10 >#
b11 L
b11 A#
1R
b1100000000 a
b1100000000 T#
b11111111111111111110111000110111 _
b11111111111111111110111000110111 Q#
b10000 O"
b0 R"
b110 E
b110 P"
b110 I#
b110 W#
b0 B
b0 K"
b1001000 p
b1001000 -"
b1001000 q
b1001000 )"
b10100 0
b10100 0"
b110100 *
b110100 B#
b110100 '"
1;"
b1101000001 7"
b1101000001 ^"
b1 8"
b1 f"
b11 H"
b1 8
b1 ["
b1 9"
0j
b0 ;
b0 L#
b0 B"
b1 =
b1 H#
b1 F"
b1101000001 h
b1101000001 :"
b1101011001 z
b1101011001 Y
b10100 o
b10100 `"
b11000 e
b11000 A"
b110000000000000010001111110011 >
b110000000000000010001111110011 :#
b110000000000000010001111110011 S#
b110000000000000010001111110011 I"
b11100 ?
b11100 J"
b111 ##
b100000 S
b11100 !
b11100 T
b11100 P#
b11100 V#
b1001 '
1"
#90000
0"
#95000
b1100011100 W
b0 r
b0 l"
1J
b0 #"
b0 Z"
b100100 H
b100100 U#
b100100 M
b10 &"
b10 <#
b11 `
b11 ?#
b11 R#
1""
b0 !"
b0 W"
b0 \"
b1111111111111100000111000010011 _
b1111111111111100000111000010011 Q#
b110 k
b11111 Y#
b11111 Z#
b110111 ;#
b110 8#
b1111111 9#
b110 S"
b1111111 T"
b11111 M#
b11111 N#
0^
b0 w
b0 >#
b0 L
b0 A#
1R
b11111111111111111110000000000000 a
b11111111111111111110000000000000 T#
0|
b1100000000 @
b0 m
b0 J#
b110100 K
b110100 X#
b1100000000000 u
b1100000000000 2#
b100100 S
b100000 !
b100000 T
b100000 P#
b100000 V#
b1000 ##
b11111111111111111110111000110111 >
b11111111111111111110111000110111 :#
b11111111111111111110111000110111 S#
b11111111111111111110111000110111 I"
b100000 ?
b100000 J"
b1100000000 7"
b1100000000 ^"
b10 8"
b10 f"
b10 8
b10 ["
b10 9"
b111 ;
b111 L#
b111 B"
b0 =
b0 H#
b0 F"
b0 d
b0 D"
b0 G#
b1100000000 h
b1100000000 :"
b1100011100 z
b1100011100 Y
b11000 o
b11000 `"
b11100 e
b11100 A"
b11 4"
b1 ,
b1 C#
b1 +"
b1101011001 p
b1101011001 -"
b1101011001 q
b1101011001 )"
b0 1
b0 1"
b0 F#
b11000 0
b11000 0"
b10100 O"
b110100 B
b110100 K"
b110100 x
b110100 e"
b110100 %#
b1010 '
1"
#100000
0"
#105000
b11111111111111111110000000100000 W
0J
b11111111111111111110000000000000 #"
b11111111111111111110000000000000 Z"
b11 $"
b11 U"
b11 =#
b101000 H
b101000 U#
b101000 M
b0 K
b0 X#
b11111111111111111110000000000000 ~
b11111111111111111110000000000000 Y"
b11111111111111111110000000000000 @
b0 k
b11100 Y#
b10011 ;#
b0 8#
b111111 9#
b0 S"
b111111 T"
b11100 M#
b0 &"
b0 <#
b0 `
b0 ?#
b0 R#
1""
1R
b11111111111 a
b11111111111 T#
b1110000111111001110110011 _
b1110000111111001110110011 Q#
b0 u
b0 2#
b11000 O"
b11 R"
b0 E
b0 P"
b0 I#
b0 W#
b1100000000000 *"
b10 ,
b10 C#
b10 +"
b1100011100 p
b1100011100 -"
b1100011100 q
b1100011100 )"
b111 1
b111 1"
b111 F#
b11100 0
b11100 0"
b0 *
b0 B#
b0 '"
0;"
b111111111111 7"
b111111111111 ^"
b0 8"
b0 f"
b0 H"
b110 8
b110 ["
b110 9"
b10 5
b10 5"
1j
b11100 ;
b11100 L#
b11100 B"
b11111 =
b11111 H#
b11111 F"
b11111 d
b11111 D"
b11111 G#
b11111111111111111110000000000000 h
b11111111111111111110000000000000 :"
b11111111111111111110000000100000 z
b11111111111111111110000000100000 Y
b11100 o
b11100 `"
b100000 e
b100000 A"
b1111111111111100000111000010011 >
b1111111111111100000111000010011 :#
b1111111111111100000111000010011 S#
b1111111111111100000111000010011 I"
b100100 ?
b100100 J"
b1001 ##
b101000 S
b100100 !
b100100 T
b100100 P#
b100100 V#
b0 .#
b1011 '
1"
#110000
0"
#115000
b1100000000000 Q
b1100000000000 \#
b1100000000000 K
b1100000000000 X#
b11111111111111111110000000000000 r
b11111111111111111110000000000000 l"
b100000100011 W
b11111111111111111110000000000000 !"
b11111111111111111110000000000000 W"
b11111111111111111110000000000000 \"
b101100 H
b101100 U#
b101100 M
b1001 %"
b1001 V"
b11111111111111111110011111111111 #"
b11111111111111111110011111111111 Z"
b110000000000111001000001110011 _
b110000000000111001000001110011 Q#
b111 k
b111 Y#
b11100 Z#
b110011 ;#
b111 8#
b0 9#
b111 S"
b0 T"
b111 M#
b11100 N#
b10 $"
b10 U"
b10 =#
0""
1R
b11100 a
b11100 T#
0|
b11111111111 ~
b11111111111 Y"
b11111111111111111110011111111110 @
b0 V
b0 E#
b1 m
b1 J#
b101100 S
b101000 !
b101000 T
b101000 P#
b101000 V#
b1010 ##
b1110000111111001110110011 >
b1110000111111001110110011 :#
b1110000111111001110110011 S#
b1110000111111001110110011 I"
b101000 ?
b101000 J"
b11111111111 7"
b11111111111 ^"
b0 8
b0 ["
b0 9"
b0 5
b0 5"
b11100 d
b11100 D"
b11100 G#
b11111111111 h
b11111111111 :"
b100000100011 z
b100000100011 Y
b100000 o
b100000 `"
b100100 e
b100100 A"
b0 *"
b0 4"
b110 ,
b110 C#
b110 +"
b11111111111111111110000000100000 p
b11111111111111111110000000100000 -"
b11111111111111111110000000100000 q
b11111111111111111110000000100000 )"
b11100 1
b11100 1"
b11100 F#
b100000 0
b100000 0"
b11111111111111111110000000000000 *
b11111111111111111110000000000000 B#
b11111111111111111110000000000000 '"
b11100 O"
b1100000000000 L"
b111 E
b111 P"
b111 I#
b111 W#
b0 B
b0 K"
b1100 '
1"
#120000
0"
