wave.vcd
$date
	Wed Mar 11 17:36:51 2026
$end
$version
	Icarus Verilog
$end
$timescale
	1ps
$end
$scope module tb_top $end
$var wire 32 ! pc [31:0] $end
$var reg 1 " clk $end
$var reg 1 # rst_n $end
$var integer 32 $ cycle [31:0] $end
$scope module u_cpu $end
$var wire 1 % branch_taken $end
$var wire 1 " clk $end
$var wire 32 & ex_mem_alu_result [31:0] $end
$var wire 1 ' ex_mem_branch_taken $end
$var wire 3 ( ex_mem_funct3 [2:0] $end
$var wire 1 ) ex_mem_jump_taken $end
$var wire 1 * ex_mem_mem_to_reg $end
$var wire 1 + ex_mem_mem_write $end
$var wire 32 , ex_mem_pc_plus4 [31:0] $end
$var wire 5 - ex_mem_rd_addr [4:0] $end
$var wire 1 . ex_mem_reg_write $end
$var wire 32 / ex_mem_rs2_data [31:0] $end
$var wire 1 0 flush_if_id $end
$var wire 2 1 id_ex_alu_a_sel [1:0] $end
$var wire 4 2 id_ex_alu_ctrl [3:0] $end
$var wire 1 3 id_ex_enable $end
$var wire 3 4 id_ex_funct3 [2:0] $end
$var wire 1 5 id_ex_mem_to_reg $end
$var wire 1 6 id_ex_mem_write $end
$var wire 5 7 id_ex_rd_addr [4:0] $end
$var wire 1 8 id_ex_reg_write $end
$var wire 5 9 id_ex_rs1_addr [4:0] $end
$var wire 5 : id_ex_rs2_addr [4:0] $end
$var wire 32 ; if_id_instr [31:0] $end
$var wire 32 < if_id_pc_plus4 [31:0] $end
$var wire 32 = jalr_target [31:0] $end
$var wire 1 > jump_taken $end
$var wire 32 ? mem_wb_alu_result [31:0] $end
$var wire 32 @ mem_wb_mem_rdata [31:0] $end
$var wire 1 A mem_wb_mem_to_reg $end
$var wire 5 B mem_wb_rd_addr [4:0] $end
$var wire 1 C mem_wb_reg_write $end
$var wire 1 D mret_taken $end
$var wire 32 E next_pc [31:0] $end
$var wire 1 # rst_n $end
$var wire 1 F trap_taken $end
$var wire 1 G zero $end
$var wire 32 H write_data [31:0] $end
$var wire 2 I wb_sel [1:0] $end
$var wire 32 J target [31:0] $end
$var wire 1 K stall_pc $end
$var wire 1 L stall_if_id $end
$var wire 32 M rs2_data [31:0] $end
$var wire 32 N rs1_data [31:0] $end
$var wire 1 O reg_write $end
$var wire 32 P pc_plus4 [31:0] $end
$var wire 32 Q pc [31:0] $end
$var wire 1 R mem_write $end
$var wire 32 S mem_rdata [31:0] $end
$var wire 32 T jump_target [31:0] $end
$var wire 1 U jalr $end
$var wire 32 V jal_target [31:0] $end
$var wire 1 W jal $end
$var wire 1 X is_mret $end
$var wire 1 Y is_ecall $end
$var wire 1 Z is_ebreak $end
$var wire 1 [ is_csr $end
$var wire 32 \ instr [31:0] $end
$var wire 3 ] imm_sel [2:0] $end
$var wire 32 ^ imm [31:0] $end
$var wire 32 _ id_ex_rs2_data [31:0] $end
$var wire 32 ` id_ex_rs1_data [31:0] $end
$var wire 32 a id_ex_pc_plus4 [31:0] $end
$var wire 1 b id_ex_jalr $end
$var wire 1 c id_ex_jal $end
$var wire 32 d id_ex_imm [31:0] $end
$var wire 1 e id_ex_branch $end
$var wire 1 f id_ex_alu_src $end
$var wire 3 g funct3 [2:0] $end
$var wire 2 h forward_b [1:0] $end
$var wire 2 i forward_a [1:0] $end
$var wire 1 j flush_id_ex $end
$var wire 32 k exc_pc [31:0] $end
$var wire 32 l ex_mem_jump_target [31:0] $end
$var wire 32 m ex_mem_branch_target [31:0] $end
$var wire 32 n csr_trap_pc [31:0] $end
$var wire 1 o csr_take_trap $end
$var wire 32 p csr_rdata [31:0] $end
$var wire 2 q csr_privilege [1:0] $end
$var wire 3 r csr_op [2:0] $end
$var wire 32 s csr_mepc [31:0] $end
$var wire 1 t csr_flush $end
$var wire 32 u branch_target [31:0] $end
$var wire 1 v branch $end
$var wire 1 w br_taken $end
$var wire 32 x alu_src2_rs2 [31:0] $end
$var wire 32 y alu_src2 [31:0] $end
$var wire 32 z alu_src1 [31:0] $end
$var wire 1 { alu_src $end
$var wire 32 | alu_result [31:0] $end
$var wire 2 } alu_op [1:0] $end
$var wire 4 ~ alu_ctrl [3:0] $end
$var wire 2 !" alu_a_sel [1:0] $end
$var reg 32 "" ex_mem_alu_result_reg [31:0] $end
$var reg 1 #" ex_mem_branch_taken_reg $end
$var reg 32 $" ex_mem_branch_target_reg [31:0] $end
$var reg 32 %" ex_mem_csr_rdata_reg [31:0] $end
$var reg 3 &" ex_mem_funct3_reg [2:0] $end
$var reg 1 '" ex_mem_jump_taken_reg $end
$var reg 32 (" ex_mem_jump_target_reg [31:0] $end
$var reg 1 )" ex_mem_mem_to_reg_reg $end
$var reg 1 *" ex_mem_mem_write_reg $end
$var reg 32 +" ex_mem_pc_plus4_reg [31:0] $end
$var reg 5 ," ex_mem_rd_addr_reg [4:0] $end
$var reg 1 -" ex_mem_reg_write_reg $end
$var reg 32 ." ex_mem_rs2_data_reg [31:0] $end
$var reg 2 /" ex_mem_wb_sel_reg [1:0] $end
$var reg 2 0" id_ex_alu_a_sel_reg [1:0] $end
$var reg 4 1" id_ex_alu_ctrl_reg [3:0] $end
$var reg 1 f id_ex_alu_src_reg $end
$var reg 1 e id_ex_branch_reg $end
$var reg 12 2" id_ex_csr_addr_reg [11:0] $end
$var reg 3 3" id_ex_csr_op_reg [2:0] $end
$var reg 3 4" id_ex_funct3_reg [2:0] $end
$var reg 32 5" id_ex_imm_reg [31:0] $end
$var reg 1 6" id_ex_is_csr_reg $end
$var reg 1 7" id_ex_is_ebreak_reg $end
$var reg 1 8" id_ex_is_ecall_reg $end
$var reg 1 9" id_ex_is_mret_reg $end
$var reg 1 c id_ex_jal_reg $end
$var reg 1 b id_ex_jalr_reg $end
$var reg 1 :" id_ex_mem_to_reg_reg $end
$var reg 1 ;" id_ex_mem_write_reg $end
$var reg 32 <" id_ex_pc_plus4_reg [31:0] $end
$var reg 5 =" id_ex_rd_addr_reg [4:0] $end
$var reg 1 >" id_ex_reg_write_reg $end
$var reg 5 ?" id_ex_rs1_addr_reg [4:0] $end
$var reg 32 @" id_ex_rs1_data_reg [31:0] $end
$var reg 5 A" id_ex_rs2_addr_reg [4:0] $end
$var reg 32 B" id_ex_rs2_data_reg [31:0] $end
$var reg 2 C" id_ex_wb_sel_reg [1:0] $end
$var reg 32 D" if_id_instr_reg [31:0] $end
$var reg 32 E" if_id_pc_plus4_reg [31:0] $end
$var reg 32 F" mem_wb_alu_result_reg [31:0] $end
$var reg 32 G" mem_wb_csr_rdata_reg [31:0] $end
$var reg 32 H" mem_wb_mem_rdata_reg [31:0] $end
$var reg 1 I" mem_wb_mem_to_reg_reg $end
$var reg 32 J" mem_wb_pc_plus4_reg [31:0] $end
$var reg 5 K" mem_wb_rd_addr_reg [4:0] $end
$var reg 1 L" mem_wb_reg_write_reg $end
$var reg 2 M" mem_wb_wb_sel_reg [1:0] $end
$scope module alu_ctrl_inst $end
$var wire 3 N" funct3 [2:0] $end
$var wire 7 O" funct7 [6:0] $end
$var wire 2 P" alu_op [1:0] $end
$var reg 4 Q" alu_ctrl [3:0] $end
$upscope $end
$scope module alu_inst $end
$var wire 32 R" a [31:0] $end
$var wire 4 S" alu_ctrl [3:0] $end
$var wire 32 T" b [31:0] $end
$var wire 1 G zero $end
$var reg 32 U" result [31:0] $end
$upscope $end
$scope module br_comp $end
$var wire 3 V" funct3 [2:0] $end
$var wire 32 W" rs1_data [31:0] $end
$var wire 32 X" rs2_data [31:0] $end
$var reg 1 w br_taken $end
$upscope $end
$scope module csr_inst $end
$var wire 12 Y" addr [11:0] $end
$var wire 1 " clk $end
$var wire 32 Z" current_pc [31:0] $end
$var wire 1 7" ex_ebreak $end
$var wire 1 8" ex_ecall $end
$var wire 1 [" ex_illegal $end
$var wire 1 9" ex_mret $end
$var wire 32 \" mepc_value [31:0] $end
$var wire 3 ]" op [2:0] $end
$var wire 1 # rst_n $end
$var wire 1 ^" take_exception $end
$var wire 32 _" wdata [31:0] $end
$var wire 1 6" we $end
$var wire 32 `" trap_pc [31:0] $end
$var parameter 32 a" CAUSE_BREAKPOINT $end
$var parameter 32 b" CAUSE_ECALL_M $end
$var parameter 32 c" CAUSE_ECALL_S $end
$var parameter 32 d" CAUSE_ECALL_U $end
$var parameter 32 e" CAUSE_ILLEGAL_INSTR $end
$var parameter 2 f" PRIV_M $end
$var parameter 2 g" PRIV_S $end
$var parameter 2 h" PRIV_U $end
$var reg 32 i" exception_cause [31:0] $end
$var reg 32 j" exception_pc [31:0] $end
$var reg 1 k" exception_pending $end
$var reg 1 t flush_pipeline $end
$var reg 32 l" mcause [31:0] $end
$var reg 32 m" mepc [31:0] $end
$var reg 1 n" mret_pending $end
$var reg 32 o" mstatus [31:0] $end
$var reg 32 p" mtvec [31:0] $end
$var reg 2 q" privilege [1:0] $end
$var reg 32 r" rdata [31:0] $end
$var reg 32 s" trap_pc_reg [31:0] $end
$var reg 1 o trap_taken $end
$upscope $end
$scope module ctrl_inst $end
$var wire 3 t" funct3 [2:0] $end
$var wire 7 u" funct7 [6:0] $end
$var wire 32 v" instr [31:0] $end
$var wire 7 w" opcode [6:0] $end
$var reg 2 x" alu_a_sel [1:0] $end
$var reg 2 y" alu_op [1:0] $end
$var reg 1 { alu_src $end
$var reg 1 v branch $end
$var reg 3 z" csr_op [2:0] $end
$var reg 3 {" imm_sel [2:0] $end
$var reg 1 [ is_csr $end
$var reg 1 Z is_ebreak $end
$var reg 1 Y is_ecall $end
$var reg 1 X is_mret $end
$var reg 1 W jal $end
$var reg 1 U jalr $end
$var reg 1 |" mem_read $end
$var reg 1 R mem_write $end
$var reg 1 O reg_write $end
$var reg 2 }" wb_sel [1:0] $end
$upscope $end
$scope module dmem_inst $end
$var wire 32 ~" addr [31:0] $end
$var wire 1 " clk $end
$var wire 3 !# funct3 [2:0] $end
$var wire 32 "# wdata [31:0] $end
$var wire 1 + we $end
$var reg 32 ## rdata [31:0] $end
$upscope $end
$scope module fwd_unit $end
$var wire 5 $# ex_mem_rd [4:0] $end
$var wire 1 -" ex_mem_reg_write $end
$var wire 5 %# id_ex_rs1 [4:0] $end
$var wire 5 &# id_ex_rs2 [4:0] $end
$var wire 5 '# mem_wb_rd [4:0] $end
$var wire 1 L" mem_wb_reg_write $end
$var reg 2 (# forward_a [1:0] $end
$var reg 2 )# forward_b [1:0] $end
$upscope $end
$scope module hazard $end
$var wire 1 #" branch_taken $end
$var wire 1 5 id_ex_mem_read $end
$var wire 5 *# id_ex_rd [4:0] $end
$var wire 5 +# if_id_rs1 [4:0] $end
$var wire 5 ,# if_id_rs2 [4:0] $end
$var wire 1 '" jump_taken $end
$var reg 1 j flush_id_ex $end
$var reg 1 -# flush_if_id $end
$var reg 1 L stall_if_id $end
$var reg 1 K stall_pc $end
$upscope $end
$scope module imem_inst $end
$var wire 32 .# addr [31:0] $end
$var reg 32 /# instr [31:0] $end
$upscope $end
$scope module imm_inst $end
$var wire 3 0# immsel [2:0] $end
$var wire 32 1# instr [31:0] $end
$var reg 32 2# imm [31:0] $end
$upscope $end
$scope module pc_inst $end
$var wire 1 " clk $end
$var wire 32 3# next_pc [31:0] $end
$var wire 1 # rst_n $end
$var wire 1 K stall $end
$var reg 32 4# pc [31:0] $end
$upscope $end
$scope module reg_inst $end
$var wire 1 " clk $end
$var wire 5 5# rd_addr [4:0] $end
$var wire 32 6# rd_data [31:0] $end
$var wire 5 7# rs1_addr [4:0] $end
$var wire 5 8# rs2_addr [4:0] $end
$var wire 1 L" we $end
$var wire 32 9# rs2_data [31:0] $end
$var wire 32 :# rs1_data [31:0] $end
$var integer 32 ;# i [31:0] $end
$upscope $end
$upscope $end
$upscope $end
$enddefinitions $end
$comment Show the parameter values. $end
$dumpall
b0 h"
b1 g"
b11 f"
b10 e"
b1000 d"
b1001 c"
b1011 b"
b11 a"
$end
#0
$dumpvars
b100000 ;#
b0 :#
b0 9#
b0 8#
b0 7#
b0 6#
b0 5#
b0 4#
b100 3#
b0 2#
b10011 1#
b0 0#
b10000000000000001010010011 /#
b0 .#
0-#
b0 ,#
b0 +#
b0 *#
b0 )#
b0 (#
b0 '#
b0 &#
b0 %#
b0 $#
bx ##
b0 "#
b0 !#
b0 ~"
b0 }"
0|"
b0 {"
b0 z"
b11 y"
b0 x"
b10011 w"
b10011 v"
b0 u"
b0 t"
b0 s"
b0 r"
b11 q"
b0 p"
b1100000000000 o"
0n"
b0 m"
b0 l"
0k"
bx j"
bx i"
b0 `"
b0 _"
0^"
b0 ]"
b0 \"
0["
b11111111111111111111111111111100 Z"
b0 Y"
b0 X"
b0 W"
b0 V"
b0 U"
b0 T"
b0 S"
b0 R"
b0 Q"
b11 P"
b0 O"
b0 N"
b0 M"
0L"
b0 K"
b0 J"
0I"
b0 H"
b0 G"
b0 F"
b0 E"
b10011 D"
b0 C"
b0 B"
b0 A"
b0 @"
b0 ?"
0>"
b0 ="
b0 <"
0;"
0:"
09"
08"
07"
06"
b0 5"
b0 4"
b0 3"
b0 2"
b0 1"
b0 0"
b0 /"
b0 ."
0-"
b0 ,"
b0 +"
0*"
0)"
b0 ("
0'"
b0 &"
b0 %"
b0 $"
0#"
b0 ""
b0 !"
b0 ~
b11 }
b0 |
1{
b0 z
b0 y
b0 x
1w
0v
b0 u
0t
b0 s
b0 r
b11 q
b0 p
0o
b0 n
b0 m
b0 l
b11111111111111111111111111111100 k
0j
b0 i
b0 h
b0 g
0f
0e
b0 d
0c
0b
b0 a
b0 `
b0 _
b0 ^
b0 ]
b10000000000000001010010011 \
0[
0Z
0Y
0X
0W
b0 V
0U
b0 T
bx S
0R
b0 Q
b100 P
1O
b0 N
b0 M
0L
0K
b100 J
b0 I
b0 H
1G
0F
b100 E
0D
0C
b0 B
0A
b0 @
b0 ?
0>
b0 =
b0 <
b10011 ;
b0 :
b0 9
08
b0 7
06
05
b0 4
13
b0 2
b0 1
00
b0 /
0.
b0 -
b0 ,
0+
0*
0)
b0 (
0'
b0 &
0%
b0 $
0#
0"
b0 !
$end
#5000
b1 $
1"
#10000
0"
#15000
b10 $
1"
#20000
0"
1#
#25000
b1000 E
b1000 3#
b1000 J
b1 u"
b1 O"
b11 }
b11 P"
b11 y"
1{
1O
b100000 ^
b100000 2#
b110000010100101001000001110011 \
b110000010100101001000001110011 /#
bx @
bx H"
18
1>"
1f
b10000000000000001010010011 ;
b10000000000000001010010011 v"
b10000000000000001010010011 1#
b10000000000000001010010011 D"
b100 <
b100 E"
b1000 P
b100 !
b100 Q
b100 .#
b100 4#
b11 $
1"
#30000
0"
#35000
b100100 T
b1100 E
b1100 3#
b1100 J
b11 I
b11 }"
b1 r
b1 z"
1[
b0 ~
b0 Q"
0G
b100000 |
b100000 U"
b10011 \
b10011 /#
b1 g
b101 7#
b101 8#
b1110011 w"
b1 t"
b11000 u"
b1 N"
b11000 O"
b101 +#
b101 ,#
b0 }
b0 P"
b0 y"
0{
1O
b1100000101 ^
b1100000101 2#
b100000 y
b100000 T"
b100000 =
b1100 P
b1000 !
b1000 Q
b1000 .#
b1000 4#
b110000010100101001000001110011 ;
b110000010100101001000001110011 v"
b110000010100101001000001110011 1#
b110000010100101001000001110011 D"
b1000 <
b1000 E"
b100000 2"
b100000 Y"
b101 7
b101 *#
b101 ="
b100000 d
b100000 5"
b100100 u
b100100 V
b0 k
b0 Z"
b100 a
b100 <"
1.
1-"
b100 $
1"
#40000
0"
#45000
b100000 x
b100000 X"
b100000 z
b100000 R"
b100000 W"
b100000 _"
b1100001101 T
0G
b1000000 |
b1000000 U"
b11 }
b11 P"
b11 y"
1{
b10000 E
b10000 3#
b10000 J
0w
b1 h
b1 )#
b1 i
b1 (#
b100000 y
b100000 T"
b1100100100 =
b0 g
b0 7#
b0 8#
b10011 w"
b0 t"
b0 u"
b0 N"
b0 O"
b0 +#
b0 ,#
0[
b0 r
b0 z"
b0 I
b0 }"
1O
b0 ^
b0 2#
b1110011 \
b1110011 /#
1C
1L"
b100100 l
b100100 ("
b100100 m
b100100 $"
b101 -
b101 ,"
b101 $#
b100 ,
b100 +"
b100000 &
b100000 ~"
b100000 ""
16"
b1100000101 2"
b1100000101 Y"
b1 3"
b1 ]"
b11 C"
b1 4
b1 V"
b1 4"
0f
b0 7
b0 *#
b0 ="
b101 :
b101 &#
b101 A"
b101 9
b101 %#
b101 ?"
b1100000101 d
b1100000101 5"
b1100001101 u
b1100001101 V
b100 k
b100 Z"
b1000 a
b1000 <"
b10011 ;
b10011 v"
b10011 1#
b10011 D"
b1100 <
b1100 E"
b10000 P
b1100 !
b1100 Q
b1100 .#
b1100 4#
b101 $
1"
#50000
0"
#55000
b1100 T
b10100 E
b10100 3#
b10100 J
1Y
1G
b0 |
b0 U"
b0 x
b0 X"
b0 z
b0 R"
b0 W"
b0 _"
b100000000000000000001100010011 \
b100000000000000000001100010011 /#
b1110011 w"
b0 }
b0 P"
b0 y"
0{
0O
1w
b0 y
b0 T"
b0 =
b0 h
b0 )#
b0 i
b0 (#
b100000 H
b100000 6#
b10100 P
b10000 !
b10000 Q
b10000 .#
b10000 4#
b1110011 ;
b1110011 v"
b1110011 1#
b1110011 D"
b10000 <
b10000 E"
06"
b0 2"
b0 Y"
b0 3"
b0 ]"
b0 C"
b0 4
b0 V"
b0 4"
1f
b0 :
b0 &#
b0 A"
b0 9
b0 %#
b0 ?"
b0 d
b0 5"
b1100 u
b1100 V
b1000 k
b1000 Z"
b1100 a
b1100 <"
b11 /"
b1 (
b1 !#
b1 &"
b1100001101 l
b1100001101 ("
b1100001101 m
b1100001101 $"
b0 -
b0 ,"
b0 $#
b1000 ,
b1000 +"
b100000 /
b100000 "#
b100000 ."
b1000000 &
b1000000 ~"
b1000000 ""
b100 J"
b101 B
b101 K"
b101 '#
b101 5#
b100000 ?
b100000 F"
b100000 p"
b110 $
1"
#60000
0"
#65000
b10000 T
1^"
b11 }
b11 P"
b11 y"
1{
1O
b11000 E
b11000 3#
b11000 J
b0 H
b0 6#
b10011 w"
b10000 u"
b10000 O"
0Y
b1000000000 ^
b1000000000 2#
b1110000110010000000100011 \
b1110000110010000000100011 /#
b1000 J"
b11 M"
b0 B
b0 K"
b0 '#
b0 5#
b1000000 ?
b1000000 F"
b0 /"
b0 (
b0 !#
b0 &"
b1100 l
b1100 ("
b1100 m
b1100 $"
b1100 ,
b1100 +"
b0 /
b0 "#
b0 ."
b0 &
b0 ~"
b0 ""
18"
08
0>"
0f
b10000 u
b10000 V
b1100 k
b1100 Z"
b10000 a
b10000 <"
b100000000000000000001100010011 ;
b100000000000000000001100010011 v"
b100000000000000000001100010011 1#
b100000000000000000001100010011 D"
b10100 <
b10100 E"
b11000 P
b10100 !
b10100 Q
b10100 .#
b10100 4#
b111 $
1"
#70000
0"
#75000
b1000010100 T
b11100 E
b11100 3#
b11100 J
b1 ]
b1 {"
b1 0#
1R
b0 ~
b0 Q"
0^"
0G
b1000000000 |
b1000000000 U"
b1101111 \
b1101111 /#
b10 g
b110 7#
b11100 8#
b100011 w"
b10 t"
b0 u"
b10 N"
b0 O"
b110 +#
b11100 ,#
b0 }
b0 P"
b0 y"
1{
0O
b0 ^
b0 2#
b1000000000 y
b1000000000 T"
b1000000000 =
b11100 P
b11000 !
b11000 Q
b11000 .#
b11000 4#
b1011 i"
b1100 j"
1k"
b1110000110010000000100011 ;
b1110000110010000000100011 v"
b1110000110010000000100011 1#
b1110000110010000000100011 D"
b11000 <
b11000 E"
08"
b1000000000 2"
b1000000000 Y"
18
1>"
1f
b110 7
b110 *#
b110 ="
b1000000000 d
b1000000000 5"
b1000010100 u
b1000010100 V
b10000 k
b10000 Z"
b10100 a
b10100 <"
b10000 l
b10000 ("
b10000 m
b10000 $"
0.
0-"
b10000 ,
b10000 +"
b1100 J"
b0 M"
b0 ?
b0 F"
b1000 $
1"
#80000
0"
#85000
b1000000000 z
b1000000000 R"
b1000000000 W"
b1000000000 _"
0G
b1000000000 |
b1000000000 U"
b1 !"
b1 x"
b10 I
b10 }"
1W
1O
b100000 E
b100000 3#
b100000 J
0w
b1 i
b1 (#
b0 y
b0 T"
b1000000000 =
b0 g
b0 7#
b0 8#
b1101111 w"
b0 t"
b0 N"
b0 +#
b0 ,#
b100 ]
b100 {"
b100 0#
0R
1{
1>
b100000 T
b10011 \
b10011 /#
b10000 J"
0C
0L"
b1000010100 l
b1000010100 ("
b1000010100 m
b1000010100 $"
1.
1-"
b110 -
b110 ,"
b110 $#
b10100 ,
b10100 +"
b1000000000 &
b1000000000 ~"
b1000000000 ""
b11100 2"
b11100 Y"
b10 4
b10 V"
b10 4"
08
0>"
16
1;"
b0 7
b0 *#
b0 ="
b11100 :
b11100 &#
b11100 A"
b110 9
b110 %#
b110 ?"
b0 d
b0 5"
b11000 u
b11000 V
b10100 k
b10100 Z"
b11000 a
b11000 <"
b1101111 ;
b1101111 v"
b1101111 1#
b1101111 D"
b11100 <
b11100 E"
0k"
b1011 l"
b1100 s
b1100 \"
b1100 m"
b100000 n
b100000 `"
b100000 s"
1t
1F
1o
b100000 P
b11100 !
b11100 Q
b11100 .#
b11100 4#
b1001 $
1"
#90000
0"
#95000
b0 =
1G
b0 |
b0 U"
1w
b11 }
b11 P"
b11 y"
b0 z
b0 R"
b0 W"
b0 _"
b1011010010100000000111000010011 \
b1011010010100000000111000010011 /#
0>
b0 T
b10011 w"
b0 !"
b0 x"
b0 I
b0 }"
b0 ]
b0 {"
b0 0#
0W
1{
1O
1-#
1j
10
b0 i
b0 (#
b1000000000 H
b1000000000 6#
b100100 P
b100000 !
b100000 Q
b100000 .#
b100000 4#
0t
0F
0o
b10011 ;
b10011 v"
b10011 1#
b10011 D"
b0 <
b0 E"
b0 2"
b0 Y"
b0 4
b0 V"
b0 4"
06
0;"
0f
b0 :
b0 &#
b0 A"
b0 9
b0 %#
b0 ?"
b0 u
b0 V
b11111111111111111111111111111100 k
b11111111111111111111111111111100 Z"
b0 a
b0 <"
b10 (
b10 !#
b10 &"
b100000 l
b100000 ("
b11000 m
b11000 $"
1)
1'"
0.
0-"
1+
1*"
b0 -
b0 ,"
b0 $#
b11000 ,
b11000 +"
b10100 J"
1C
1L"
b110 B
b110 K"
b110 '#
b110 5#
b1000000000 ?
b1000000000 F"
b1010 $
1"
#100000
0"
#105000
0-#
0j
b100100 E
b100100 3#
b100100 J
00
b11000 J"
0C
0L"
b0 B
b0 K"
b0 '#
b0 5#
b0 (
b0 !#
b0 &"
b0 l
b0 ("
b0 m
b0 $"
0)
0'"
0+
0*"
b0 ,
b0 +"
b0 &
b0 ~"
b0 ""
b1011 $
1"
#110000
0"
#115000
b100000 M
b100000 9#
b101000 E
b101000 3#
b101000 J
b110000000000000000000001110011 \
b110000000000000000000001110011 /#
b101 8#
b101101 u"
b101101 O"
b101 ,#
b11 }
b11 P"
b11 y"
1{
1O
b10110100101 ^
b10110100101 2#
b0 H
b0 6#
b101000 P
b100100 !
b100100 Q
b100100 .#
b100100 4#
b1011010010100000000111000010011 ;
b1011010010100000000111000010011 v"
b1011010010100000000111000010011 1#
b1011010010100000000111000010011 D"
b100100 <
b100100 E"
18
1>"
1f
b0 J"
b0 ?
b0 F"
b1100 $
1"
#120000
0"
#125000
b10111001001 T
b0 M
b0 9#
0G
b10110100101 |
b10110100101 U"
0w
b101100 E
b101100 3#
b101100 J
b10110100101 y
b10110100101 T"
b10110100100 =
b100000 x
b100000 X"
b0 8#
b1110011 w"
b11000 u"
b11000 O"
b0 ,#
b0 }
b0 P"
b0 y"
0{
0O
b1100000000 ^
b1100000000 2#
bx \
bx /#
1.
1-"
b10110100101 2"
b10110100101 Y"
b11100 7
b11100 *#
b11100 ="
b101 :
b101 &#
b101 A"
b10110100101 d
b10110100101 5"
b100000 _
b100000 B"
b10111001001 u
b10111001001 V
b100000 k
b100000 Z"
b100100 a
b100100 <"
b110000000000000000000001110011 ;
b110000000000000000000001110011 v"
b110000000000000000000001110011 1#
b110000000000000000000001110011 D"
b101000 <
b101000 E"
b101100 P
b101000 !
b101000 Q
b101000 .#
b101000 4#
b1101 $
1"
#130000
0"
#135000
b1100101000 T
bx N
bx :#
bx M
bx 9#
b110000 E
b110000 3#
b110000 J
1G
b0 |
b0 U"
1w
bx g
bx 7#
bx 8#
bx w"
bx t"
bx u"
bx N"
bx O"
bx +#
bx ,#
bx ^
bx 2#
b1100000000000 p
b1100000000000 r"
b0 y
b0 T"
b1100000000 =
b0 x
b0 X"
b110000 P
b101100 !
b101100 Q
b101100 .#
b101100 4#
bx ;
bx v"
bx 1#
bx D"
b101100 <
b101100 E"
b1100000000 2"
b1100000000 Y"
08
0>"
0f
b0 7
b0 *#
b0 ="
b0 :
b0 &#
b0 A"
b1100000000 d
b1100000000 5"
b0 _
b0 B"
b1100101000 u
b1100101000 V
b100100 k
b100100 Z"
b101000 a
b101000 <"
b10111001001 l
b10111001001 ("
b10111001001 m
b10111001001 $"
b11100 -
b11100 ,"
b11100 $#
b100100 ,
b100100 +"
b100000 /
b100000 "#
b100000 ."
b10110100101 &
b10110100101 ~"
b10110100101 ""
1C
1L"
b1110 $
1"
#140000
0"
#145000
bx T
bx y
bx T"
xG
bx |
bx U"
b110100 E
b110100 3#
b110100 J
b10110100101 H
b10110100101 6#
b0 p
b0 r"
0w
bx0 =
bx x
bx X"
bx z
bx R"
bx W"
bx _"
b100100 J"
b11100 B
b11100 K"
b11100 '#
b11100 5#
b10110100101 ?
b10110100101 F"
b1100000000000 %"
b1100101000 l
b1100101000 ("
b1100101000 m
b1100101000 $"
0.
0-"
b0 -
b0 ,"
b0 $#
b101000 ,
b101000 +"
b0 /
b0 "#
b0 ."
b0 &
b0 ~"
b0 ""
bx 2"
bx Y"
bx 4
bx V"
bx 4"
bx 7
bx *#
bx ="
bx :
bx &#
bx A"
bx 9
bx %#
bx ?"
bx d
bx 5"
bx _
bx B"
bx `
bx @"
bx u
bx V
b101000 k
b101000 Z"
b101100 a
b101100 <"
b110000 <
b110000 E"
b110100 P
b110000 !
b110000 Q
b110000 .#
b110000 4#
b1111 $
1"
#150000
0"
#155000
b111000 E
b111000 3#
b111000 J
b0 S
b0 ##
b0 H
b0 6#
b111000 P
b110100 !
b110100 Q
b110100 .#
b110100 4#
b110100 <
b110100 E"
b101100 k
b101100 Z"
b110000 a
b110000 <"
b0 %"
bx (
bx !#
bx &"
bx l
bx ("
bx m
bx $"
bx -
bx ,"
bx $#
b101100 ,
b101100 +"
bx /
bx "#
bx ."
bx &
bx ~"
bx ""
b101000 J"
b1100000000000 G"
0C
0L"
b0 B
b0 K"
b0 '#
b0 5#
b0 ?
b0 F"
b10000 $
1"
#160000
0"
#165000
b111100 E
b111100 3#
b111100 J
bx H
bx 6#
b101100 J"
b0 G"
bx B
bx K"
bx '#
bx 5#
b0 @
b0 H"
bx ?
bx F"
b110000 ,
b110000 +"
b110000 k
b110000 Z"
b110100 a
b110100 <"
b111000 <
b111000 E"
b111100 P
b111000 !
b111000 Q
b111000 .#
b111000 4#
b10001 $
1"
#170000
0"
#175000
b1000000 E
b1000000 3#
b1000000 J
b1000000 P
b111100 !
b111100 Q
b111100 .#
b111100 4#
b111100 <
b111100 E"
b110100 k
b110100 Z"
b111000 a
b111000 <"
b110100 ,
b110100 +"
b110000 J"
b10010 $
1"
#180000
0"
#185000
b1000100 E
b1000100 3#
b1000100 J
b110100 J"
b111000 ,
b111000 +"
b111000 k
b111000 Z"
b111100 a
b111100 <"
b1000000 <
b1000000 E"
b1000100 P
b1000000 !
b1000000 Q
b1000000 .#
b1000000 4#
b10011 $
1"
#190000
0"
#195000
b1001000 E
b1001000 3#
b1001000 J
b1001000 P
b1000100 !
b1000100 Q
b1000100 .#
b1000100 4#
b1000100 <
b1000100 E"
b111100 k
b111100 Z"
b1000000 a
b1000000 <"
b111100 ,
b111100 +"
b111000 J"
b10100 $
1"
#200000
0"
#205000
b1001100 E
b1001100 3#
b1001100 J
b111100 J"
b1000000 ,
b1000000 +"
b1000000 k
b1000000 Z"
b1000100 a
b1000100 <"
b1001000 <
b1001000 E"
b1001100 P
b1001000 !
b1001000 Q
b1001000 .#
b1001000 4#
b10101 $
1"
#210000
0"
#215000
b1010000 E
b1010000 3#
b1010000 J
b1010000 P
b1001100 !
b1001100 Q
b1001100 .#
b1001100 4#
b1001100 <
b1001100 E"
b1000100 k
b1000100 Z"
b1001000 a
b1001000 <"
b1000100 ,
b1000100 +"
b1000000 J"
b10110 $
1"
#220000
0"
#225000
b1010100 E
b1010100 3#
b1010100 J
b1000100 J"
b1001000 ,
b1001000 +"
b1001000 k
b1001000 Z"
b1001100 a
b1001100 <"
b1010000 <
b1010000 E"
b1010100 P
b1010000 !
b1010000 Q
b1010000 .#
b1010000 4#
b10111 $
1"
#230000
0"
#235000
b1011000 E
b1011000 3#
b1011000 J
b1011000 P
b1010100 !
b1010100 Q
b1010100 .#
b1010100 4#
b1010100 <
b1010100 E"
b1001100 k
b1001100 Z"
b1010000 a
b1010000 <"
b1001100 ,
b1001100 +"
b1001000 J"
b11000 $
1"
#240000
0"
#245000
b1011100 E
b1011100 3#
b1011100 J
b1001100 J"
b1010000 ,
b1010000 +"
b1010000 k
b1010000 Z"
b1010100 a
b1010100 <"
b1011000 <
b1011000 E"
b1011100 P
b1011000 !
b1011000 Q
b1011000 .#
b1011000 4#
b11001 $
1"
#250000
0"
#255000
b1100000 E
b1100000 3#
b1100000 J
b1100000 P
b1011100 !
b1011100 Q
b1011100 .#
b1011100 4#
b1011100 <
b1011100 E"
b1010100 k
b1010100 Z"
b1011000 a
b1011000 <"
b1010100 ,
b1010100 +"
b1010000 J"
b11010 $
1"
#260000
0"
