wave.vcd
$date
	Wed Mar 11 18:08:36 2026
$end
$version
	Icarus Verilog
$end
$timescale
	1ps
$end
$scope module tb_top $end
$var wire 32 ! pc [31:0] $end
$var reg 1 " clk $end
$var reg 1 # rst_n $end
$var integer 32 $ cycle [31:0] $end
$scope module u_cpu $end
$var wire 1 % branch_taken $end
$var wire 1 " clk $end
$var wire 32 & ex_mem_alu_result [31:0] $end
$var wire 1 ' ex_mem_branch_taken $end
$var wire 3 ( ex_mem_funct3 [2:0] $end
$var wire 1 ) ex_mem_jump_taken $end
$var wire 1 * ex_mem_mem_to_reg $end
$var wire 1 + ex_mem_mem_write $end
$var wire 32 , ex_mem_pc_plus4 [31:0] $end
$var wire 5 - ex_mem_rd_addr [4:0] $end
$var wire 1 . ex_mem_reg_write $end
$var wire 32 / ex_mem_rs2_data [31:0] $end
$var wire 1 0 flush_if_id $end
$var wire 2 1 id_ex_alu_a_sel [1:0] $end
$var wire 4 2 id_ex_alu_ctrl [3:0] $end
$var wire 1 3 id_ex_enable $end
$var wire 3 4 id_ex_funct3 [2:0] $end
$var wire 1 5 id_ex_mem_to_reg $end
$var wire 1 6 id_ex_mem_write $end
$var wire 5 7 id_ex_rd_addr [4:0] $end
$var wire 1 8 id_ex_reg_write $end
$var wire 5 9 id_ex_rs2_addr [4:0] $end
$var wire 32 : if_id_instr [31:0] $end
$var wire 32 ; if_id_pc_plus4 [31:0] $end
$var wire 32 < jalr_target [31:0] $end
$var wire 1 = jump_taken $end
$var wire 32 > mem_wb_alu_result [31:0] $end
$var wire 32 ? mem_wb_mem_rdata [31:0] $end
$var wire 1 @ mem_wb_mem_to_reg $end
$var wire 5 A mem_wb_rd_addr [4:0] $end
$var wire 1 B mem_wb_reg_write $end
$var wire 1 C mret_taken $end
$var wire 32 D next_pc [31:0] $end
$var wire 1 # rst_n $end
$var wire 1 E trap_taken $end
$var wire 1 F zero $end
$var wire 32 G write_data [31:0] $end
$var wire 2 H wb_sel [1:0] $end
$var wire 32 I target [31:0] $end
$var wire 1 J stall_pc $end
$var wire 1 K stall_if_id $end
$var wire 32 L rs2_data [31:0] $end
$var wire 32 M rs1_data [31:0] $end
$var wire 1 N reg_write $end
$var wire 32 O pc_plus4 [31:0] $end
$var wire 32 P pc [31:0] $end
$var wire 1 Q mem_write $end
$var wire 32 R mem_rdata [31:0] $end
$var wire 32 S jump_target [31:0] $end
$var wire 1 T jalr $end
$var wire 32 U jal_target [31:0] $end
$var wire 1 V jal $end
$var wire 1 W is_mret $end
$var wire 1 X is_ecall $end
$var wire 1 Y is_ebreak $end
$var wire 1 Z is_csr $end
$var wire 32 [ instr [31:0] $end
$var wire 3 \ imm_sel [2:0] $end
$var wire 32 ] imm [31:0] $end
$var wire 32 ^ id_ex_rs2_data [31:0] $end
$var wire 32 _ id_ex_rs1_data [31:0] $end
$var wire 5 ` id_ex_rs1_addr [4:0] $end
$var wire 32 a id_ex_pc_plus4 [31:0] $end
$var wire 1 b id_ex_jalr $end
$var wire 1 c id_ex_jal $end
$var wire 32 d id_ex_imm [31:0] $end
$var wire 1 e id_ex_branch $end
$var wire 1 f id_ex_alu_src $end
$var wire 3 g funct3 [2:0] $end
$var wire 2 h forward_b [1:0] $end
$var wire 2 i forward_a [1:0] $end
$var wire 1 j flush_id_ex $end
$var wire 32 k exc_pc [31:0] $end
$var wire 32 l ex_mem_jump_target [31:0] $end
$var wire 32 m ex_mem_branch_target [31:0] $end
$var wire 32 n csr_wdata [31:0] $end
$var wire 32 o csr_trap_pc [31:0] $end
$var wire 1 p csr_take_trap $end
$var wire 32 q csr_rdata [31:0] $end
$var wire 2 r csr_privilege [1:0] $end
$var wire 3 s csr_op [2:0] $end
$var wire 32 t csr_mepc [31:0] $end
$var wire 1 u csr_flush $end
$var wire 32 v branch_target [31:0] $end
$var wire 1 w branch $end
$var wire 1 x br_taken $end
$var wire 32 y alu_src2_rs2 [31:0] $end
$var wire 32 z alu_src2 [31:0] $end
$var wire 32 { alu_src1 [31:0] $end
$var wire 1 | alu_src $end
$var wire 32 } alu_result [31:0] $end
$var wire 2 ~ alu_op [1:0] $end
$var wire 4 !" alu_ctrl [3:0] $end
$var wire 2 "" alu_a_sel [1:0] $end
$var reg 32 #" ex_mem_alu_result_reg [31:0] $end
$var reg 1 $" ex_mem_branch_taken_reg $end
$var reg 32 %" ex_mem_branch_target_reg [31:0] $end
$var reg 32 &" ex_mem_csr_rdata_reg [31:0] $end
$var reg 3 '" ex_mem_funct3_reg [2:0] $end
$var reg 1 (" ex_mem_jump_taken_reg $end
$var reg 32 )" ex_mem_jump_target_reg [31:0] $end
$var reg 1 *" ex_mem_mem_to_reg_reg $end
$var reg 1 +" ex_mem_mem_write_reg $end
$var reg 32 ," ex_mem_pc_plus4_reg [31:0] $end
$var reg 5 -" ex_mem_rd_addr_reg [4:0] $end
$var reg 1 ." ex_mem_reg_write_reg $end
$var reg 32 /" ex_mem_rs2_data_reg [31:0] $end
$var reg 2 0" ex_mem_wb_sel_reg [1:0] $end
$var reg 2 1" id_ex_alu_a_sel_reg [1:0] $end
$var reg 4 2" id_ex_alu_ctrl_reg [3:0] $end
$var reg 1 f id_ex_alu_src_reg $end
$var reg 1 e id_ex_branch_reg $end
$var reg 12 3" id_ex_csr_addr_reg [11:0] $end
$var reg 3 4" id_ex_csr_op_reg [2:0] $end
$var reg 3 5" id_ex_funct3_reg [2:0] $end
$var reg 32 6" id_ex_imm_reg [31:0] $end
$var reg 1 7" id_ex_is_csr_reg $end
$var reg 1 8" id_ex_is_ebreak_reg $end
$var reg 1 9" id_ex_is_ecall_reg $end
$var reg 1 :" id_ex_is_mret_reg $end
$var reg 1 c id_ex_jal_reg $end
$var reg 1 b id_ex_jalr_reg $end
$var reg 1 ;" id_ex_mem_to_reg_reg $end
$var reg 1 <" id_ex_mem_write_reg $end
$var reg 32 =" id_ex_pc_plus4_reg [31:0] $end
$var reg 5 >" id_ex_rd_addr_reg [4:0] $end
$var reg 1 ?" id_ex_reg_write_reg $end
$var reg 5 @" id_ex_rs1_addr_reg [4:0] $end
$var reg 32 A" id_ex_rs1_data_reg [31:0] $end
$var reg 5 B" id_ex_rs2_addr_reg [4:0] $end
$var reg 32 C" id_ex_rs2_data_reg [31:0] $end
$var reg 2 D" id_ex_wb_sel_reg [1:0] $end
$var reg 32 E" if_id_instr_reg [31:0] $end
$var reg 32 F" if_id_pc_plus4_reg [31:0] $end
$var reg 32 G" mem_wb_alu_result_reg [31:0] $end
$var reg 32 H" mem_wb_csr_rdata_reg [31:0] $end
$var reg 32 I" mem_wb_mem_rdata_reg [31:0] $end
$var reg 1 J" mem_wb_mem_to_reg_reg $end
$var reg 32 K" mem_wb_pc_plus4_reg [31:0] $end
$var reg 5 L" mem_wb_rd_addr_reg [4:0] $end
$var reg 1 M" mem_wb_reg_write_reg $end
$var reg 2 N" mem_wb_wb_sel_reg [1:0] $end
$scope module alu_ctrl_inst $end
$var wire 3 O" funct3 [2:0] $end
$var wire 7 P" funct7 [6:0] $end
$var wire 2 Q" alu_op [1:0] $end
$var reg 4 R" alu_ctrl [3:0] $end
$upscope $end
$scope module alu_inst $end
$var wire 32 S" a [31:0] $end
$var wire 4 T" alu_ctrl [3:0] $end
$var wire 32 U" b [31:0] $end
$var wire 1 F zero $end
$var reg 32 V" result [31:0] $end
$upscope $end
$scope module br_comp $end
$var wire 3 W" funct3 [2:0] $end
$var wire 32 X" rs1_data [31:0] $end
$var wire 32 Y" rs2_data [31:0] $end
$var reg 1 x br_taken $end
$upscope $end
$scope module csr_inst $end
$var wire 12 Z" addr [11:0] $end
$var wire 1 " clk $end
$var wire 32 [" current_instr [31:0] $end
$var wire 32 \" current_pc [31:0] $end
$var wire 1 8" ex_ebreak $end
$var wire 1 9" ex_ecall $end
$var wire 1 ]" ex_illegal $end
$var wire 1 :" ex_mret $end
$var wire 1 ^" inst_retire $end
$var wire 32 _" mepc_value [31:0] $end
$var wire 3 `" op [2:0] $end
$var wire 1 # rst_n $end
$var wire 1 a" take_exception $end
$var wire 32 b" wdata [31:0] $end
$var wire 1 7" we $end
$var wire 32 c" trap_pc [31:0] $end
$var parameter 32 d" CAUSE_BREAKPOINT $end
$var parameter 32 e" CAUSE_ECALL_M $end
$var parameter 32 f" CAUSE_ECALL_S $end
$var parameter 32 g" CAUSE_ECALL_U $end
$var parameter 32 h" CAUSE_FETCH_ACCESS $end
$var parameter 32 i" CAUSE_ILLEGAL_INSTR $end
$var parameter 32 j" CAUSE_LOAD_ACCESS $end
$var parameter 32 k" CAUSE_MISALIGN_FETCH $end
$var parameter 32 l" CAUSE_MISALIGN_LOAD $end
$var parameter 32 m" CAUSE_MISALIGN_STORE $end
$var parameter 32 n" CAUSE_STORE_ACCESS $end
$var parameter 2 o" PRIV_M $end
$var parameter 2 p" PRIV_S $end
$var parameter 2 q" PRIV_U $end
$var reg 32 r" exception_cause [31:0] $end
$var reg 32 s" exception_pc [31:0] $end
$var reg 1 t" exception_pending $end
$var reg 32 u" exception_tval [31:0] $end
$var reg 1 u flush_pipeline $end
$var reg 32 v" mcause [31:0] $end
$var reg 32 w" mcycle [31:0] $end
$var reg 32 x" mcycleh [31:0] $end
$var reg 32 y" mepc [31:0] $end
$var reg 32 z" mhartid [31:0] $end
$var reg 32 {" mie [31:0] $end
$var reg 32 |" minstret [31:0] $end
$var reg 32 }" minstreth [31:0] $end
$var reg 32 ~" mip [31:0] $end
$var reg 32 !# misa [31:0] $end
$var reg 1 "# mret_pending $end
$var reg 32 ## mscratch [31:0] $end
$var reg 32 $# mstatus [31:0] $end
$var reg 32 %# mtval [31:0] $end
$var reg 32 &# mtvec [31:0] $end
$var reg 2 '# privilege [1:0] $end
$var reg 32 (# rdata [31:0] $end
$var reg 32 )# trap_pc_reg [31:0] $end
$var reg 1 p trap_taken $end
$upscope $end
$scope module ctrl_inst $end
$var wire 3 *# funct3 [2:0] $end
$var wire 7 +# funct7 [6:0] $end
$var wire 32 ,# instr [31:0] $end
$var wire 7 -# opcode [6:0] $end
$var reg 2 .# alu_a_sel [1:0] $end
$var reg 2 /# alu_op [1:0] $end
$var reg 1 | alu_src $end
$var reg 1 w branch $end
$var reg 3 0# csr_op [2:0] $end
$var reg 3 1# imm_sel [2:0] $end
$var reg 1 Z is_csr $end
$var reg 1 Y is_ebreak $end
$var reg 1 X is_ecall $end
$var reg 1 W is_mret $end
$var reg 1 V jal $end
$var reg 1 T jalr $end
$var reg 1 2# mem_read $end
$var reg 1 Q mem_write $end
$var reg 1 N reg_write $end
$var reg 2 3# wb_sel [1:0] $end
$upscope $end
$scope module dmem_inst $end
$var wire 32 4# addr [31:0] $end
$var wire 1 " clk $end
$var wire 3 5# funct3 [2:0] $end
$var wire 32 6# wdata [31:0] $end
$var wire 1 + we $end
$var reg 32 7# rdata [31:0] $end
$upscope $end
$scope module fwd_unit $end
$var wire 5 8# ex_mem_rd [4:0] $end
$var wire 1 ." ex_mem_reg_write $end
$var wire 5 9# id_ex_rs1 [4:0] $end
$var wire 5 :# id_ex_rs2 [4:0] $end
$var wire 5 ;# mem_wb_rd [4:0] $end
$var wire 1 M" mem_wb_reg_write $end
$var reg 2 <# forward_a [1:0] $end
$var reg 2 =# forward_b [1:0] $end
$upscope $end
$scope module hazard $end
$var wire 1 $" branch_taken $end
$var wire 1 5 id_ex_mem_read $end
$var wire 5 ># id_ex_rd [4:0] $end
$var wire 5 ?# if_id_rs1 [4:0] $end
$var wire 5 @# if_id_rs2 [4:0] $end
$var wire 1 (" jump_taken $end
$var reg 1 j flush_id_ex $end
$var reg 1 A# flush_if_id $end
$var reg 1 K stall_if_id $end
$var reg 1 J stall_pc $end
$upscope $end
$scope module imem_inst $end
$var wire 32 B# addr [31:0] $end
$var reg 32 C# instr [31:0] $end
$upscope $end
$scope module imm_inst $end
$var wire 3 D# immsel [2:0] $end
$var wire 32 E# instr [31:0] $end
$var reg 32 F# imm [31:0] $end
$upscope $end
$scope module pc_inst $end
$var wire 1 " clk $end
$var wire 32 G# next_pc [31:0] $end
$var wire 1 # rst_n $end
$var wire 1 J stall $end
$var reg 32 H# pc [31:0] $end
$upscope $end
$scope module reg_inst $end
$var wire 1 " clk $end
$var wire 5 I# rd_addr [4:0] $end
$var wire 32 J# rd_data [31:0] $end
$var wire 5 K# rs1_addr [4:0] $end
$var wire 5 L# rs2_addr [4:0] $end
$var wire 1 M" we $end
$var wire 32 M# rs2_data [31:0] $end
$var wire 32 N# rs1_data [31:0] $end
$var integer 32 O# i [31:0] $end
$upscope $end
$upscope $end
$upscope $end
$enddefinitions $end
$comment Show the parameter values. $end
$dumpall
b0 q"
b1 p"
b11 o"
b111 n"
b110 m"
b100 l"
b0 k"
b101 j"
b10 i"
b1 h"
b1000 g"
b1001 f"
b1011 e"
b11 d"
$end
#0
$dumpvars
b100000 O#
b0 N#
b0 M#
b0 L#
b0 K#
b0 J#
b0 I#
b0 H#
b100 G#
b0 F#
b10011 E#
b0 D#
b10010001101000101000010110111 C#
b0 B#
0A#
b0 @#
b0 ?#
b0 >#
b0 =#
b0 <#
b0 ;#
b0 :#
b0 9#
b0 8#
bx 7#
b0 6#
b0 5#
b0 4#
b0 3#
02#
b0 1#
b0 0#
b11 /#
b0 .#
b10011 -#
b10011 ,#
b0 +#
b0 *#
b0 )#
b0 (#
b11 '#
b0 &#
b0 %#
b1100000000000 $#
b0 ##
0"#
b1000000000000000000000100000000 !#
b0 ~"
b0 }"
b0 |"
b0 {"
b0 z"
b0 y"
b0 x"
b0 w"
b0 v"
bx u"
0t"
bx s"
bx r"
b0 c"
b0 b"
0a"
b0 `"
b0 _"
0^"
0]"
b11111111111111111111111111111100 \"
b0 ["
b0 Z"
b0 Y"
b0 X"
b0 W"
b0 V"
b0 U"
b0 T"
b0 S"
b0 R"
b11 Q"
b0 P"
b0 O"
b0 N"
0M"
b0 L"
b0 K"
0J"
b0 I"
b0 H"
b0 G"
b0 F"
b10011 E"
b0 D"
b0 C"
b0 B"
b0 A"
b0 @"
0?"
b0 >"
b0 ="
0<"
0;"
0:"
09"
08"
07"
b0 6"
b0 5"
b0 4"
b0 3"
b0 2"
b0 1"
b0 0"
b0 /"
0."
b0 -"
b0 ,"
0+"
0*"
b0 )"
0("
b0 '"
b0 &"
b0 %"
0$"
b0 #"
b0 ""
b0 !"
b11 ~
b0 }
1|
b0 {
b0 z
b0 y
1x
0w
b0 v
0u
b0 t
b0 s
b11 r
b0 q
0p
b0 o
b0 n
b0 m
b0 l
b11111111111111111111111111111100 k
0j
b0 i
b0 h
b0 g
0f
0e
b0 d
0c
0b
b0 a
b0 `
b0 _
b0 ^
b0 ]
b0 \
b10010001101000101000010110111 [
0Z
0Y
0X
0W
0V
b0 U
0T
b0 S
bx R
0Q
b0 P
b100 O
1N
b0 M
b0 L
0K
0J
b100 I
b0 H
b0 G
1F
0E
b100 D
0C
0B
b0 A
0@
b0 ?
b0 >
0=
b0 <
b0 ;
b10011 :
b0 9
08
b0 7
06
05
b0 4
13
b0 2
b0 1
00
b0 /
0.
b0 -
b0 ,
0+
0*
0)
b0 (
0'
b0 &
0%
b0 $
0#
0"
b0 !
$end
#5000
b1 $
1"
#10000
0"
#15000
b10 $
1"
#20000
0"
1#
#25000
b10 ""
b10 .#
b11 \
b11 1#
b11 D#
b0 !"
b0 R"
b1000 D
b1000 G#
b1000 I
b101 g
b1000 K#
b11 L#
b110111 -#
b101 *#
b1001 +#
b101 O"
b1001 P"
b1000 ?#
b11 @#
b0 ~
b0 Q"
b0 /#
1|
1N
b10010001101000101000000000000 ]
b10010001101000101000000000000 F#
b10010001101000101000010010011 [
b10010001101000101000010010011 C#
bx ?
bx I"
18
1?"
1f
b10010001101000101000010110111 :
b10010001101000101000010110111 ,#
b10010001101000101000010110111 E#
b10010001101000101000010110111 E"
b100 ;
b100 F"
b1 w"
b1000 O
b100 !
b100 P
b100 B#
b100 H#
b11 $
1"
#30000
0"
#35000
b110 !"
b110 R"
b100100011 ]
b100100011 F#
b10010001101000101000000000100 S
b1100 D
b1100 G#
b1100 I
b11 ~
b11 Q"
b11 /#
0F
b10010001101000101000000000000 }
b10010001101000101000000000000 V"
b110000010100001001000001110011 [
b110000010100001001000001110011 C#
b10011 -#
b0 ""
b0 .#
b0 \
b0 1#
b0 D#
1|
1N
b10010001101000101000000000000 z
b10010001101000101000000000000 U"
b10010001101000101000000000000 <
b1100 O
b1000 !
b1000 P
b1000 B#
b1000 H#
b10 w"
b10010001101000101000010010011 :
b10010001101000101000010010011 ,#
b10010001101000101000010010011 E#
b10010001101000101000010010011 E"
b1000 ;
b1000 F"
b100100011 3"
b100100011 Z"
b101 4
b101 W"
b101 5"
b10 1
b10 1"
b1 7
b1 >#
b1 >"
b11 9
b11 :#
b11 B"
b1000 `
b1000 @"
b1000 9#
b10010001101000101000000000000 d
b10010001101000101000000000000 6"
b10010001101000101000000000100 v
b10010001101000101000000000100 U
b0 k
b0 \"
b100 a
b100 ="
1.
1."
b100 $
1"
#40000
0"
#45000
b100101011 S
b11 H
b11 3#
b1 s
b1 0#
1Z
b0 !"
b0 R"
b10000 D
b10000 G#
b10000 I
b0xxxxxxxxxxxxxxxx R
b0xxxxxxxxxxxxxxxx 7#
1F
b0 }
b0 V"
b100100011 z
b100100011 U"
b100100010 <
b1 g
b1 K#
b101 L#
b1110011 -#
b1 *#
b11000 +#
b1 O"
b11000 P"
b1 ?#
b101 @#
b0 ~
b0 Q"
b0 /#
0|
1N
b1100000101 ]
b1100000101 F#
b110100000000000010000101110011 [
b110100000000000010000101110011 C#
1B
1M"
b101 (
b101 5#
b101 '"
b10010001101000101000000000100 l
b10010001101000101000000000100 )"
b10010001101000101000000000100 m
b10010001101000101000000000100 %"
b1 -
b1 -"
b1 8#
b100 ,
b100 ,"
b10010001101000101000000000000 &
b10010001101000101000000000000 4#
b10010001101000101000000000000 #"
b0 1
b0 1"
b110 2
b110 T"
b110 2"
b100100011 d
b100100011 6"
b100101011 v
b100101011 U
b100 k
b100 \"
b1000 a
b1000 ="
b110000010100001001000001110011 :
b110000010100001001000001110011 ,#
b110000010100001001000001110011 E#
b110000010100001001000001110011 E"
b1100 ;
b1100 F"
b11 w"
b10000 O
b1100 !
b1100 P
b1100 B#
b1100 H#
b101 $
1"
#50000
0"
#55000
b1100010001 S
b10100 D
b10100 G#
b10100 I
b11110001010000000010000111110011 [
b11110001010000000010000111110011 C#
b10 g
b0 K#
b0 L#
b10 *#
b11010 +#
b10 O"
b11010 P"
b0 ?#
b0 @#
1Z
b10 s
b10 0#
b11 H
b11 3#
1N
b1101000000 ]
b1101000000 F#
0x
b0 z
b0 U"
b1100000100 <
b1 i
b1 <#
b10010001101000101000000000000 G
b10010001101000101000000000000 J#
b10100 O
b10000 !
b10000 P
b10000 B#
b10000 H#
b100 w"
b110100000000000010000101110011 :
b110100000000000010000101110011 ,#
b110100000000000010000101110011 E#
b110100000000000010000101110011 E"
b10000 ;
b10000 F"
17"
b1100000101 3"
b1100000101 Z"
b1 4"
b1 `"
b11 D"
b1 4
b1 W"
b1 5"
0f
b0 2
b0 T"
b0 2"
b0 7
b0 >#
b0 >"
b101 9
b101 :#
b101 B"
b1 `
b1 @"
b1 9#
b1100000101 d
b1100000101 6"
b1100010001 v
b1100010001 U
b1000 k
b1000 \"
b1100 a
b1100 ="
b100101011 l
b100101011 )"
b100101011 m
b100101011 %"
b1000 ,
b1000 ,"
b0 &
b0 4#
b0 #"
b100 K"
b1 A
b1 L"
b1 ;#
b1 I#
b0xxxxxxxxxxxxxxxx ?
b0xxxxxxxxxxxxxxxx I"
b10010001101000101000000000000 >
b10010001101000101000000000000 G"
b110 $
1"
#60000
0"
#65000
b1101010000 S
b11000 D
b11000 G#
b11000 I
b0 G
b0 J#
bx R
bx 7#
b0 i
b0 <#
b1101000000 <
b10100 L#
b1111000 +#
b1111000 P"
b10100 @#
1Z
b10 s
b10 0#
b11 H
b11 3#
1N
b11111111111111111111111100010100 ]
b11111111111111111111111100010100 F#
b1000000000000000000010000110111 [
b1000000000000000000010000110111 C#
b1000 K"
b0 >
b0 G"
b11 0"
b1 (
b1 5#
b1 '"
b1100010001 l
b1100010001 )"
b1100010001 m
b1100010001 %"
b0 -
b0 -"
b0 8#
b1100 ,
b1100 ,"
b1101000000 3"
b1101000000 Z"
b10 4"
b10 `"
b10 4
b10 W"
b10 5"
b10 7
b10 >#
b10 >"
b0 9
b0 :#
b0 B"
b0 `
b0 @"
b0 9#
b1101000000 d
b1101000000 6"
b1101010000 v
b1101010000 U
b1100 k
b1100 \"
b10000 a
b10000 ="
b11110001010000000010000111110011 :
b11110001010000000010000111110011 ,#
b11110001010000000010000111110011 E#
b11110001010000000010000111110011 E"
b10100 ;
b10100 F"
b101 w"
b11000 O
b10100 !
b10100 P
b10100 B#
b10100 H#
b111 $
1"
#70000
0"
#75000
b11111111111111111111111100101000 S
b11100 D
b11100 G#
b11100 I
b10 ""
b10 .#
b11 \
b11 1#
b11 D#
1|
b1000000000000000000010000010011 [
b1000000000000000000010000010011 C#
b0 g
b0 L#
b110111 -#
b0 *#
b100000 +#
b0 O"
b100000 P"
b0 @#
0Z
b0 s
b0 0#
b0 H
b0 3#
1N
b1000000000000000000000000000000 ]
b1000000000000000000000000000000 F#
b11111111111111111111111100010100 <
b11100 O
b11000 !
b11000 P
b11000 B#
b11000 H#
b110 w"
b1000000000000000000010000110111 :
b1000000000000000000010000110111 ,#
b1000000000000000000010000110111 E#
b1000000000000000000010000110111 E"
b11000 ;
b11000 F"
b111100010100 3"
b111100010100 Z"
b11 7
b11 >#
b11 >"
b10100 9
b10100 :#
b10100 B"
b11111111111111111111111100010100 d
b11111111111111111111111100010100 6"
b11111111111111111111111100101000 v
b11111111111111111111111100101000 U
b10000 k
b10000 \"
b10100 a
b10100 ="
b10 (
b10 5#
b10 '"
b1101010000 l
b1101010000 )"
b1101010000 m
b1101010000 %"
b10 -
b10 -"
b10 8#
b10000 ,
b10000 ,"
b1100 K"
b11 N"
b0 A
b0 L"
b0 ;#
b0 I#
bx ?
bx I"
b1000 $
1"
#80000
0"
#85000
b1000000000000000000000000011000 S
b10000000000 ]
b10000000000 F#
0F
b1000000000000000000000000000000 }
b1000000000000000000000000000000 V"
b11 ~
b11 Q"
b11 /#
b100000 D
b100000 G#
b100000 I
1x
b1000000000000000000000000000000 z
b1000000000000000000000000000000 U"
b1000000000000000000000000000000 <
b10011 -#
b0 ""
b0 .#
b0 \
b0 1#
b0 D#
1|
1N
b110000000101000010000001110011 [
b110000000101000010000001110011 C#
b10000 K"
b10 A
b10 L"
b10 ;#
b10 I#
b11111111111111111111111100101000 l
b11111111111111111111111100101000 )"
b11111111111111111111111100101000 m
b11111111111111111111111100101000 %"
b11 -
b11 -"
b11 8#
b10100 ,
b10100 ,"
07"
b10000000000 3"
b10000000000 Z"
b0 4"
b0 `"
b0 D"
b0 4
b0 W"
b0 5"
b10 1
b10 1"
1f
b1000 7
b1000 >#
b1000 >"
b0 9
b0 :#
b0 B"
b1000000000000000000000000000000 d
b1000000000000000000000000000000 6"
b1000000000000000000000000011000 v
b1000000000000000000000000011000 U
b10100 k
b10100 \"
b11000 a
b11000 ="
b1000000000000000000010000010011 :
b1000000000000000000010000010011 ,#
b1000000000000000000010000010011 E#
b1000000000000000000010000010011 E"
b11100 ;
b11100 F"
b111 w"
b100000 O
b11100 !
b11100 P
b11100 B#
b11100 H#
b1001 $
1"
#90000
0"
#95000
b10000011100 S
b100100 D
b100100 G#
b100100 I
b11 H
b11 3#
b10 s
b10 0#
1Z
b0 !"
b0 R"
b10000000000 }
b10000000000 V"
b110000000100000010001011110011 [
b110000000100000010001011110011 C#
b10 g
b1000 K#
b1 L#
b1110011 -#
b10 *#
b11000 +#
b10 O"
b11000 P"
b1000 ?#
b1 @#
b0 ~
b0 Q"
b0 /#
0|
1N
b1100000001 ]
b1100000001 F#
b10000000000 z
b10000000000 U"
b10000000000 <
b100100 O
b100000 !
b100000 P
b100000 B#
b100000 H#
b1000 w"
b110000000101000010000001110011 :
b110000000101000010000001110011 ,#
b110000000101000010000001110011 E#
b110000000101000010000001110011 E"
b100000 ;
b100000 F"
b0 1
b0 1"
b10000000000 d
b10000000000 6"
b10000011100 v
b10000011100 U
b11000 k
b11000 \"
b11100 a
b11100 ="
b0 0"
b0 (
b0 5#
b0 '"
b1000000000000000000000000011000 l
b1000000000000000000000000011000 )"
b1000000000000000000000000011000 m
b1000000000000000000000000011000 %"
b1000 -
b1000 -"
b1000 8#
b11000 ,
b11000 ,"
b1000000000000000000000000000000 &
b1000000000000000000000000000000 4#
b1000000000000000000000000000000 #"
b10100 K"
b11 A
b11 L"
b11 ;#
b11 I#
b1010 $
1"
#100000
0"
#105000
b10000000000 n
b10000000000 b"
b10000000000 {
b10000000000 S"
b10000000000 X"
b1100100001 S
0F
b10000000000 }
b10000000000 V"
b101000 D
b101000 G#
b101000 I
b1000000000000000000000000000000 G
b1000000000000000000000000000000 J#
0x
b1 i
b1 <#
b0 z
b0 U"
b11100000000 <
b0 K#
b0 ?#
1Z
b10 s
b10 0#
b11 H
b11 3#
1N
b1000000000000000000000100000000 q
b1000000000000000000000100000000 (#
b100000000000000000001100010011 [
b100000000000000000001100010011 C#
b11000 K"
b0 N"
b1000 A
b1000 L"
b1000 ;#
b1000 I#
b1000000000000000000000000000000 >
b1000000000000000000000000000000 G"
b10000011100 l
b10000011100 )"
b10000011100 m
b10000011100 %"
b11100 ,
b11100 ,"
b10000000000 &
b10000000000 4#
b10000000000 #"
17"
b1100000001 3"
b1100000001 Z"
b10 4"
b10 `"
b11 D"
b10 4
b10 W"
b10 5"
0f
b0 7
b0 >#
b0 >"
b1 9
b1 :#
b1 B"
b1000 `
b1000 @"
b1000 9#
b1100000001 d
b1100000001 6"
b1100100001 v
b1100100001 U
b11100 k
b11100 \"
b100000 a
b100000 ="
b110000000100000010001011110011 :
b110000000100000010001011110011 ,#
b110000000100000010001011110011 E#
b110000000100000010001011110011 E"
b100100 ;
b100100 F"
b1001 w"
b101000 O
b100100 !
b100100 P
b100100 B#
b100100 H#
b1011 $
1"
#110000
0"
#115000
b1100100101 S
b1100000000 <
b0 n
b0 b"
1F
b0 }
b0 V"
b101100 D
b101100 G#
b101100 I
b11 ~
b11 Q"
b11 /#
1|
b0 {
b0 S"
b0 X"
b10100110010000000100011 [
b10100110010000000100011 C#
b0 g
b0 L#
b10011 -#
b0 *#
b10000 +#
b0 O"
b10000 P"
b0 @#
0Z
b0 s
b0 0#
b0 H
b0 3#
1N
b1000000000 ]
b1000000000 F#
b0 i
b0 <#
b10000000000 G
b10000000000 J#
b10000000000 q
b10000000000 (#
b101100 O
b101000 !
b101000 P
b101000 B#
b101000 H#
b1010 w"
b100000000000000000001100010011 :
b100000000000000000001100010011 ,#
b100000000000000000001100010011 E#
b100000000000000000001100010011 E"
b101000 ;
b101000 F"
b101 7
b101 >#
b101 >"
b0 `
b0 @"
b0 9#
b1100100101 v
b1100100101 U
b100000 k
b100000 \"
b100100 a
b100100 ="
b1000000000000000000000100000000 &"
b11 0"
b10 (
b10 5#
b10 '"
b1100100001 l
b1100100001 )"
b1100100001 m
b1100100001 %"
b0 -
b0 -"
b0 8#
b100000 ,
b100000 ,"
b11100 K"
b10000000000 >
b10000000000 G"
b10000000000 !#
b1100 $
1"
#120000
0"
#125000
b1000101000 S
0F
b1000000000 }
b1000000000 V"
b1 \
b1 1#
b1 D#
1Q
b0 !"
b0 R"
b110000 D
b110000 G#
b110000 I
b1000000000000000000000100000000 G
b1000000000000000000000100000000 J#
1x
b1000000000 z
b1000000000 U"
b1000000000 <
b10 g
b110 K#
b101 L#
b100011 -#
b10 *#
b0 +#
b10 O"
b0 P"
b110 ?#
b101 @#
b0 ~
b0 Q"
b0 /#
1|
0N
b0 ]
b0 F#
b1100110010010000100011 [
b1100110010010000100011 C#
b0 q
b0 (#
b100000 K"
b1000000000000000000000100000000 H"
b11 N"
b0 A
b0 L"
b0 ;#
b0 I#
b10000000000 &"
b1100100101 l
b1100100101 )"
b1100100101 m
b1100100101 %"
b101 -
b101 -"
b101 8#
b100100 ,
b100100 ,"
b0 &
b0 4#
b0 #"
07"
b1000000000 3"
b1000000000 Z"
b0 4"
b0 `"
b0 D"
b0 4
b0 W"
b0 5"
1f
b110 7
b110 >#
b110 >"
b0 9
b0 :#
b0 B"
b1000000000 d
b1000000000 6"
b1000101000 v
b1000101000 U
b100100 k
b100100 \"
b101000 a
b101000 ="
b10100110010000000100011 :
b10100110010000000100011 ,#
b10100110010000000100011 E#
b10100110010000000100011 E"
b101100 ;
b101100 F"
b1011 w"
b110000 O
b101100 !
b101100 P
b101100 B#
b101100 H#
b0 !#
b1101 $
1"
#130000
0"
